
0                         8.793240050774642E-4
8.33E-4                   8.737640791627109E-4
0.001667                  8.441847984844761E-4
0.0025                    7.924479577486879E-4
0.003333                  7.206218942702467E-4
0.004167                  6.311105437952139E-4
0.005                     5.270563475998206E-4
0.005833                  4.1160351748664725E-4
0.006667                  2.880565182469307E-4
0.0075                    1.6029176087209806E-4
0.008333                  3.176013776712614E-5
0.009167                  -9.417168093475993E-5
0.01                      -2.138573649759888E-4
0.010833                  -3.2437044910334315E-4
0.011667                  -4.2307356264835227E-4
0.0125                    -5.073833908934087E-4
0.013333                  -5.755385423771858E-4
0.014167                  -6.261872704253361E-4
0.015                     -6.583256209884285E-4
0.015833                  -6.716732531470258E-4
0.016667                  -6.663744463286316E-4
0.0175                    -6.43109689105244E-4
0.018333                  -6.030237923129597E-4
0.019167                  -5.476007426708253E-4
0.02                      -4.789084497846355E-4
0.020833                  -3.991326390914261E-4
0.021667                  -3.1064053796550016E-4
0.0225                    -2.1629069359176904E-4
0.023333                  -1.1871384016978476E-4
0.024167                  -2.0535063476093447E-5
0.025                     7.53290180287345E-5
0.025833                  1.664536820418059E-4
0.026667                  2.50590346661131E-4
0.0275                    3.254504127571504E-4
0.028333                  3.8936470774380807E-4
0.029167                  4.4095557090585626E-4
0.03                      4.7904557363250645E-4
0.030833                  5.030490918669714E-4
0.031667                  5.127098309453185E-4
0.0325                    5.081455119063297E-4
0.033333                  4.899020548890771E-4
0.034167                  4.5881249505215786E-4
0.035                     4.16156052285866E-4
0.035833                  3.633899206423404E-4
0.036667                  3.021525837675672E-4
0.0375                    2.344907339482073E-4
0.038333                  1.6235774588230182E-4
0.039167                  8.774878210775623E-5
0.04                      1.2936991447297718E-5
0.040833                  -6.0125052197688125E-5
0.041667                  -1.2958081700689323E-4
0.0425                    -1.9348027262607043E-4
0.043333                  -2.5032770759476696E-4
0.044167                  -2.9882755015268056E-4
0.045                     -3.377819386385738E-4
0.045833                  -3.66463982273364E-4
0.046667                  -3.843957424787489E-4
0.0475                    -3.9134970252081673E-4
0.048333                  -3.874745834856134E-4
0.049167                  -3.731547144752512E-4
0.05                      -3.4910654257547225E-4
0.050833                  -3.162478936620268E-4
0.051667                  -2.7566491237755573E-4
0.0525                    -2.2877327786983146E-4
0.053333                  -1.7698247783196793E-4
0.054167                  -1.2176922473777997E-4
0.055                     -6.486041355748138E-5
0.055833                  -7.78763641495623E-6
0.056667                  4.7958801997164755E-5
0.0575                    1.0076970618768841E-4
0.058333                  1.4935917193960888E-4
0.059167                  1.92572556119231E-4
0.06                      2.2928462904756809E-4
0.060833                  2.587354289474679E-4
0.061667                  2.8034819152119027E-4
0.0625                    2.9370484405264927E-4
0.063333                  2.987057902352956E-4
0.064167                  2.9543951542413836E-4
0.065                     2.842348081763541E-4
0.065833                  2.656215799403915E-4
0.066667                  2.4027837124696795E-4
0.0675                    2.0914281297725393E-4
0.068333                  1.7319894078388756E-4
0.069167                  1.33508480157053E-4
0.07                      9.134896998781355E-5
0.070833                  4.789147625741499E-5
0.071667                  4.301481154841316E-6
0.0725                    -3.812986436084517E-5
0.073333                  -7.833335763055517E-5
0.074167                  -1.1532052389837339E-4
0.075                     -1.4808933260211277E-4
0.075833                  -1.7591386467522127E-4
0.076667                  -1.981990559491819E-4
0.0775                    -2.1444237728661622E-4
0.078333                  -2.2440263452088363E-4
0.079167                  -2.2798493885318785E-4
0.08                      -2.252627156586707E-4
0.080833                  -2.1649611119628343E-4
0.081667                  -2.0207158385812836E-4
0.0825                    -1.8257415577399534E-4
0.083333                  -1.586634526892726E-4
0.084167                  -1.3107755099924675E-4
0.085                     -1.0073447604703663E-4
0.085833                  -6.850650104838357E-5
0.086667                  -3.528208481452358E-5
0.0875                    -2.0705093668324947E-6
0.088333                  3.0264498922289367E-5
0.089167                  6.090397088373832E-5
0.09                      8.899061858605464E-5
0.090833                  1.1387033110456638E-4
0.091667                  1.3497924721106206E-4
0.0925                    1.5179988065973E-4
0.093333                  1.6402335814163778E-4
0.094167                  1.7145173735899212E-4
0.095                     1.740003698883608E-4
0.095833                  1.7174947802636874E-4
0.096667                  1.648832875300953E-4
0.0975                    1.5373428644702776E-4
0.098333                  1.3872116214825507E-4
0.099167                  1.2033595017637114E-4
0.1                       9.921641624565892E-5
0.100833                  7.599416549882739E-5
0.101667                  5.13288741225837E-5
0.1025                    2.5989580884638274E-5
0.103333                  6.558130509629255E-7
0.104167                  -2.4012954751582806E-5
0.105                     -4.730681963734474E-5
0.105833                  -6.866099953524419E-5
0.106667                  -8.757026011096176E-5
0.1075                    -1.0354482301793044E-4
0.108333                  -1.1625718162585443E-4
0.109167                  -1.2546172458192926E-4
0.11                      -1.3098517031923955E-4
0.110833                  -1.3279434703579928E-4
0.111667                  -1.309393631572559E-4
0.1125                    -1.255779728559474E-4
0.113333                  -1.1695496445339992E-4
0.114167                  -1.0538022342989256E-4
0.115                     -9.127855610809908E-5
0.115833                  -7.509274599338361E-5
0.116667                  -5.7298774080892714E-5
0.1175                    -3.846737519004932E-5
0.118333                  -1.9119664754326147E-5
0.119167                  2.2708449903008815E-7
0.12                      1.900149491541192E-5
0.120833                  3.6732273331897074E-5
0.121667                  5.298507599717308E-5
0.1225                    6.732141060970362E-5
0.123333                  7.942581830228141E-5
0.124167                  8.904155140119179E-5
0.125                     9.595454474355805E-5
0.125833                  1.0006609366987618E-4
0.126667                  1.0134246779049928E-4
0.1275                    9.982564125265606E-5
0.128333                  9.563895609710444E-5
0.129167                  8.896130021070038E-5
0.13                      8.005989676014123E-5
0.130833                  6.923312245578221E-5
0.131667                  5.6813268517239795E-5
0.1325                    4.32119215992098E-5
0.133333                  2.881844556571642E-5
0.134167                  1.4028337836391437E-5
0.135                     -7.104313091238411E-7
0.135833                  -1.5015924677367578E-5
0.136667                  -2.8527008355982762E-5
0.1375                    -4.086695757530391E-5
0.138333                  -5.1749874731338065E-5
0.139167                  -6.093053488455679E-5
0.14                      -6.81856234595524E-5
0.140833                  -7.338419751449302E-5
0.141667                  -7.644472640938349E-5
0.1425                    -7.733689917051861E-5
0.143333                  -7.610261606365599E-5
0.144167                  -7.282967014205759E-5
0.145                     -6.767201618697372E-5
0.145833                  -6.0820443421973765E-5
0.146667                  -5.249768212401854E-5
0.1475                    -4.299088615443592E-5
0.148333                  -3.2582961873892514E-5
0.149167                  -2.1568486933285892E-5
0.15                      -1.0289817364341272E-5
0.150833                  9.516609403930646E-7
0.151667                  1.1864225692268202E-5
0.1525                    2.2134818339965682E-5
0.153333                  3.15154925854495E-5
0.154167                  3.9785294574129974E-5
0.155                     4.673119332121027E-5
0.155833                  5.221222312255163E-5
0.156667                  5.6124013778654406E-5
0.1575                    5.83951282188461E-5
0.158333                  5.901574316707048E-5
0.159167                  5.8012898042872724E-5
0.16                      5.546183256130235E-5
0.160833                  5.147541220252171E-5
0.161667                  4.619499921775777E-5
0.1625                    3.9812912325541324E-5
0.163333                  3.252828455857092E-5
0.164167                  2.4554408553961725E-5
0.165                     1.6146160145223106E-5
0.165833                  7.5353514892400114E-6
0.166667                  -1.0485154602751616E-6
0.1675                    -9.35267452253413E-6
0.168333                  -1.716946465664552E-5
0.169167                  -2.430811529667119E-5
0.17                      -3.0576843779151814E-5
0.170833                  -3.583867085806564E-5
0.171667                  -3.9982947381575944E-5
0.1725                    -4.2918676886369314E-5
0.173333                  -4.460576752465303E-5
0.174167                  -4.503297272407347E-5
0.175                     -4.422307880780031E-5
0.175833                  -4.2234306018146535E-5
0.176667                  -3.914929059456669E-5
0.1775                    -3.508995313948745E-5
0.178333                  -3.019116800526518E-5
0.179167                  -2.4602455662322414E-5
0.18                      -1.850826510887121E-5
0.180833                  -1.2082335363495175E-5
0.181667                  -5.50066106298306E-6
0.1825                    1.0379928249182787E-6
0.183333                  7.364793700084598E-6
0.184167                  1.3320555235080746E-5
0.185                     1.8739801679187842E-5
0.185833                  2.3497644318261802E-5
0.186667                  2.7487513738296705E-5
0.1875                    3.061315047147761E-5
0.188333                  3.2819182293465715E-5
0.189167                  3.407223905102074E-5
0.19                      3.436209102730799E-5
0.190833                  3.3710120013928E-5
0.191667                  3.2157951091610535E-5
0.1925                    2.9776723068356323E-5
0.193333                  2.66532862524583E-5
0.194167                  2.2888390752654207E-5
0.195                     1.861125691798711E-5
0.195833                  1.3948549507094488E-5
0.196667                  9.031762494236203E-6
0.1975                    4.0132514616278905E-6
0.198333                  -9.733565478439653E-7
0.199167                  -5.799060545819358E-6
0.2                       -1.0325856260936562E-5
0.200833                  -1.4444940380711163E-5
0.201667                  -1.8059735316400733E-5
0.2025                    -2.1077649806922363E-5
0.203333                  -2.343808628306376E-5
0.204167                  -2.509679376774286E-5
0.205                     -2.602450141768065E-5
0.205833                  -2.6219022165032668E-5
0.206667                  -2.5694480090758362E-5
0.2075                    -2.4486572836511792E-5
0.208333                  -2.2647247517685264E-5
0.209167                  -2.0240919577246225E-5
0.21                      -1.7354591495902276E-5
0.210833                  -1.4077772998603946E-5
0.211667                  -1.0506001676019176E-5
0.2125                    -6.753056260864488E-6
0.213333                  -2.922021094207904E-6
0.214167                  8.853123272761981E-7
0.215                     4.557162193041936E-6
0.215833                  8.002062528939807E-6
0.216667                  1.1136258906895948E-5
0.2175                    1.387591492644547E-5
0.218333                  1.6161597137187716E-5
0.219167                  1.7945674857393013E-5
0.22                      1.9189550875419467E-5
0.220833                  1.9877082551229144E-5
0.221667                  2.0004928816812996E-5
0.2225                    1.9585040259905164E-5
0.223333                  1.8644787969878186E-5
0.224167                  1.7222271131682703E-5
0.225                     1.537305379711815E-5
0.225833                  1.3158060725182041E-5
0.226667                  1.0644535180123391E-5
0.2275                    7.91510066942831E-6
0.228333                  5.047253825906719E-6
0.229167                  2.119285620426059E-6
0.23                      -7.806392730356762E-7
0.230833                  -3.5779134837426357E-6
0.231667                  -6.202392269929441E-6
0.2325                    -8.581418894856278E-6
0.233333                  -1.0660466471412413E-5
0.234167                  -1.2393254403519679E-5
0.235                     -1.373833528178225E-5
0.235833                  -1.4672354259815433E-5
0.236667                  -1.518175004880922E-5
0.2375                    -1.5263408771126322E-5
0.238333                  -1.492804851323079E-5
0.239167                  -1.419531365582436E-5
0.24                      -1.3098009679697376E-5
0.240833                  -1.1675631509527098E-5
0.241667                  -9.973719056823901E-6
0.2425                    -8.050390306287711E-6
0.243333                  -5.962332899788491E-6
0.244167                  -3.768222241346435E-6
0.245                     -1.5358384369054302E-6
0.245833                  6.755889693981593E-7
0.246667                  2.809031698702361E-6
0.2475                    4.803672267090381E-6
0.248333                  6.611783083193485E-6
0.249167                  8.191169330312467E-6
0.25                      9.501612003206787E-6
0.250833                  1.0517091593843144E-5
0.251667                  1.1218887438144983E-5
0.2525                    1.1595085748765964E-5
0.253333                  1.164567400460887E-5
0.254167                  1.1377854931437762E-5
0.255                     1.0808483319960607E-5
0.255833                  9.961425298231823E-6
0.256667                  8.866000108141338E-6
0.2575                    7.561536524780692E-6
0.258333                  6.088247677077602E-6
0.259167                  4.4889083252047735E-6
0.26                      2.8142928845037126E-6
0.260833                  1.1102286664719284E-6
0.261667                  -5.78148249129038E-7
0.2625                    -2.201415879161907E-6
0.263333                  -3.7192973362302085E-6
0.264167                  -5.095031776428122E-6
0.265                     -6.291982995667447E-6
0.265833                  -7.284377684098741E-6
0.266667                  -8.051730599203846E-6
0.2675                    -8.577701175820128E-6
0.268333                  -8.855851354142782E-6
0.269167                  -8.885422761128367E-6
0.27                      -8.672524260536599E-6
0.270833                  -8.22997245944768E-6
0.271667                  -7.57529653706362E-6
0.2725                    -6.733788404491923E-6
0.273333                  -5.732947929956599E-6
0.274167                  -4.602998965606932E-6
0.275                     -3.380937086657845E-6
0.275833                  -2.1013190234162267E-6
0.276667                  -7.989636304604376E-7
0.2775                    4.870299753158258E-7
0.278333                  1.723697900475889E-6
0.279167                  2.8801354535717035E-6
0.28                      3.924444734424128E-6
0.280833                  4.832823522282871E-6
0.281667                  5.5851789283705965E-6
0.2825                    6.163674594314458E-6
0.283333                  6.5584787188284745E-6
0.284167                  6.764117373541745E-6
0.285                     6.779829655256063E-6
0.285833                  6.610905920485213E-6
0.286667                  6.266571974942569E-6
0.2875                    5.761921184449464E-6
0.288333                  5.114891526354536E-6
0.289167                  4.346049481534539E-6
0.29                      3.4815187074703733E-6
0.290833                  2.5466591390486157E-6
0.291667                  1.5676454865584324E-6
0.2925                    5.746268464644676E-7
0.293333                  -4.061457445728988E-7
0.294167                  -1.3494618570003816E-6
0.295                     -2.2285179897617256E-6
0.295833                  -3.022375833004472E-6
0.296667                  -3.712597999843678E-6
0.2975                    -4.281712348719837E-6
0.298333                  -4.718548064017954E-6
0.299167                  -5.015191851268679E-6
0.3                       -5.166819061271474E-6
0.300833                  -5.173835095649115E-6
0.301667                  -5.039836754394051E-6
0.3025                    -4.772737754248874E-6
0.303333                  -4.383476878183116E-6
0.304167                  -3.885378344470103E-6
0.305                     -3.296202951434984E-6
0.305833                  -2.6340057081756844E-6
0.306667                  -1.9179301064576553E-6
0.3075                    -1.1706301432218937E-6
0.308333                  -4.124781310898153E-7
0.309167                  3.3650998143141307E-7
0.31                      1.0544776714209316E-6
0.310833                  1.723682188716982E-6
0.311667                  2.327980395378488E-6
0.3125                    2.8513515513525673E-6
0.313333                  3.2826100771959705E-6
0.314167                  3.612937896639058E-6
0.315                     3.835413060712901E-6
0.315833                  3.947482005327631E-6
0.316667                  3.949110885613388E-6
0.3175                    3.843347887906685E-6
0.318333                  3.636160971144248E-6
0.319167                  3.3355892892388653E-6
0.32                      2.953123406821232E-6
0.320833                  2.50116188485668E-6
0.321667                  1.9932791740680118E-6
0.3225                    1.4460346286027089E-6
0.323333                  8.748365112414059E-7
0.324167                  2.951725184656378E-7
0.325                     -2.756098181589912E-7
0.325833                  -8.229358337536148E-7
0.326667                  -1.3331766019133975E-6
0.3275                    -1.7923104947931864E-6
0.328333                  -2.189930402290344E-6
0.329167                  -2.5172953974328437E-6
0.33                      -2.7667106618816056E-6
0.330833                  -2.934024824806594E-6
0.331667                  -3.0170252511717934E-6
0.3325                    -3.0156224717005634E-6
0.333333                  -2.932378006464547E-6
0.334167                  -2.7715898873801455E-6
0.335                     -2.5401729145156644E-6
0.335833                  -2.246254611589866E-6
0.336667                  -1.8991081322414E-6
0.3375                    -1.5104661309133194E-6
0.338333                  -1.0916703058497168E-6
0.339167                  -6.543981868654923E-7
0.34                      -2.1206860775953084E-7
0.340833                  2.2367181964123565E-7
0.341667                  6.416624811910053E-7
0.3425                    1.0300671794660364E-6
0.343333                  1.379676647471824E-6
0.344167                  1.6824087693426773E-6
0.345                     1.930642121886584E-6
0.345833                  2.119554014788334E-6
0.346667                  2.2457746498785388E-6
0.3475                    2.307331023396168E-6
0.348333                  2.3045535646748045E-6
0.349167                  2.239185819458779E-6
0.35                      2.1149021739700696E-6
0.350833                  1.9366881918553873E-6
0.351667                  1.7105765132434286E-6
0.3525                    1.4445709850552583E-6
0.353333                  1.1467695538131569E-6
0.354167                  8.257370417784272E-7
0.355                     4.915871006472849E-7
0.355833                  1.5338785808000405E-7
0.356667                  -1.7996722474456306E-7
0.3575                    -4.98784753763596E-7
0.358333                  -7.952195812489948E-7
0.359167                  -1.062149552886269E-6
0.36                      -1.292526866476928E-6
0.360833                  -1.4814581550311948E-6
0.361667                  -1.6251080300346204E-6
0.3625                    -1.7205012678199456E-6
0.363333                  -1.7665959449795867E-6
0.364167                  -1.763469219690713E-6
0.365                     -1.7125800076350633E-6
0.365833                  -1.6166667189697607E-6
0.366667                  -1.4793823050719458E-6
0.3675                    -1.3059189917479689E-6
0.368333                  -1.1018497599276605E-6
0.369167                  -8.732613722311256E-7
0.37                      -6.275663437741891E-7
0.370833                  -3.716437034927794E-7
0.371667                  -1.1239867646309897E-7
0.3725                    1.4244240680978953E-7
0.373333                  3.864021941277936E-7
0.374167                  6.134309548176946E-7
0.375                     8.173125602532962E-7
0.375833                  9.934461878494652E-7
0.376667                  1.1379758833136868E-6
0.3775                    1.2475196652401827E-6
0.378333                  1.320271223091284E-6
0.379167                  1.3552872243591282E-6
0.38                      1.3525767299371117E-6
0.380833                  1.3133212218751201E-6
0.381667                  1.2394730241717905E-6
0.3825                    1.1341553933880556E-6
0.383333                  1.0010206355394916E-6
0.384167                  8.442281849909983E-7
0.385                     6.690374595264383E-7
0.385833                  4.805226711130091E-7
0.386667                  2.8390520158686653E-7
0.3875                    8.51859387480374E-8
0.388333                  -1.1043270686031743E-7
0.389167                  -2.979659012535383E-7
0.39                      -4.721247764460369E-7
0.390833                  -6.287969002831564E-7
0.391667                  -7.643719409401532E-7
0.3925                    -8.754432881465215E-7
0.393333                  -9.598547461582032E-7
0.394167                  -1.0160971434219003E-6
0.395                     -1.043284910492902E-6
0.395833                  -1.041560430839026E-6
0.396667                  -1.0116963246909735E-6
0.3975                    -9.553307970938784E-7
0.398333                  -8.746868281576531E-7
0.399167                  -7.724563058576168E-7
0.4                       -6.52219220044929E-7
0.400833                  -5.175971698438223E-7
0.401667                  -3.7242398647763796E-7
0.4025                    -2.2123714120007045E-7
0.403333                  -6.810659735887228E-8
0.404167                  8.297031312090381E-8
0.405                     2.276248591618056E-7
0.405833                  3.6231569163199205E-7
0.406667                  4.838190494489633E-7
0.4075                    5.889313744500994E-7
0.408333                  6.754158848594055E-7
0.409167                  7.415052096637767E-7
0.41                      7.858082654602764E-7
0.410833                  8.078052364651892E-7
0.411667                  8.074770748905074E-7
0.4125                    7.854225831649678E-7
0.413333                  7.428224567449473E-7
0.414167                  6.81271729521436E-7
0.415                     6.030640098728305E-7
0.415833                  5.106740059406364E-7
0.416667                  4.068160851695067E-7
0.4175                    2.948173548758018E-7
0.418333                  1.7777523218978804E-7
0.419167                  5.881119833051325E-8
0.42                      -5.8560092287448485E-8
0.420833                  -1.7137899921328966E-7
0.421667                  -2.768655714440408E-7
0.4225                    -3.72139288413636E-7
0.423333                  -4.550464723486035E-7
0.424167                  -5.237594122628577E-7
0.425                     -5.766430321084177E-7
0.425833                  -6.127802042610678E-7
0.426667                  -6.316398847192473E-7
0.4275                    -6.331107229201188E-7
0.428333                  -6.176261473761407E-7
0.429167                  -5.859729872103963E-7
0.43                      -5.39472279274646E-7
0.430833                  -4.797051411583983E-7
0.431667                  -4.084956321700198E-7
0.4325                    -3.2818674867544857E-7
0.433333                  -2.4105932045842507E-7
0.434167                  -1.4948029159291137E-7
0.435                     -5.620388568690687E-8
0.435833                  3.6361064862613765E-8
0.436667                  1.2588355159098953E-7
0.4375                    2.0985482725002367E-7
0.438333                  2.8629423068524007E-7
0.439167                  3.534324163052025E-7
0.44                      4.095567989457284E-7
0.440833                  4.5353133588508276E-7
0.441667                  4.845067986151692E-7
0.4425                    5.018958185224791E-7
0.443333                  5.056012222378893E-7
0.444167                  4.958179286048222E-7
0.445                     4.731348176757924E-7
0.445833                  4.3843978403245143E-7
0.446667                  3.9285235343774365E-7
0.4475                    3.379210455138414E-7
0.448333                  2.752486100073129E-7
0.449167                  2.0656195044189105E-7
0.45                      1.3395410493665178E-7
0.450833                  5.933317902728914E-8
0.451667                  -1.539550492202353E-8
0.4525                    -8.810050377285536E-8
0.453333                  -1.5701554875328655E-7
0.454167                  -2.2049401885037531E-7
0.455                     -2.768442755548908E-7
0.455833                  -3.24825209449622E-7
0.456667                  -3.633972959853653E-7
0.4575                    -3.916558083675289E-7
0.458333                  -4.0912496004238616E-7
0.459167                  -4.155623828954067E-7
0.46                      -4.1099995145963395E-7
0.460833                  -3.957825236070242E-7
0.461667                  -3.704670339487887E-7
0.4625                    -3.359560470838405E-7
0.463333                  -2.932872312436807E-7
0.464167                  -2.4364443147903404E-7
0.465                     -1.885491820988792E-7
0.465833                  -1.2946192836897515E-7
0.466667                  -6.789626607478222E-8
0.4675                    -5.6225324260775595E-9
0.468333                  5.5820147230169024E-8
0.469167                  1.1493786610006333E-7
0.47                      1.7011258520450672E-7
0.470833                  2.2006604923327488E-7
0.471667                  2.636477405474382E-7
0.4725                    2.9973635963875457E-7
0.473333                  3.275777768426654E-7
0.474167                  3.4659600848636586E-7
0.475                     3.563848676365133E-7
0.475833                  3.5685073514721553E-7
0.476667                  3.480880186086101E-7
0.4775                    3.304596196035475E-7
0.478333                  3.0452120457835214E-7
0.479167                  2.7098629710482486E-7
0.48                      2.30874662114902E-7
0.480833                  1.8524337818186963E-7
0.481667                  1.3524571550107445E-7
0.4825                    8.231225599834952E-8
0.483333                  2.7755027621494902E-8
0.484167                  -2.7096598907645585E-8
0.485                     -8.072342397420864E-8
0.485833                  -1.3184787188372034E-7
0.486667                  -1.7925420086806645E-7
0.4875                    -2.216630874395713E-7
0.488333                  -2.581026104029135E-7
0.489167                  -2.877262048304021E-7
0.49                      -3.0976159484113903E-7
0.490833                  -3.2374107967528067E-7
0.491667                  -3.293580508063348E-7
0.4925                    -3.265007338379656E-7
0.493333                  -3.152938918390839E-7
0.494167                  -2.960251043492675E-7
0.495                     -2.6925496832741463E-7
0.495833                  -2.356640087015988E-7
0.496667                  -1.960638193240147E-7
0.4975                    -1.515585059104884E-7
0.498333                  -1.0323232339597979E-7
0.499167                  -5.223863421977249E-8
0.5                       4.575466238023684E-11
