********************************** N O D E S **********************************
*NODE, NSET=ALLNODES
       1,    5.000000e+01,   -1.500000e+00,    2.000000e+00
       2,    5.000000e+01,    1.500000e+00,    2.000000e+00
       3,    5.000000e+01,   -5.000000e-01,    2.000000e+00
       4,    5.000000e+01,    5.000000e-01,    2.000000e+00
       5,    5.000000e+01,    1.500000e+00,   -2.000000e+00
       6,    5.000000e+01,    1.500000e+00,    6.666667e-01
       7,    5.000000e+01,    1.500000e+00,   -6.666667e-01
       8,   -5.000000e+01,    1.500000e+00,    2.000000e+00
       9,    4.411765e+01,    1.500000e+00,    2.000000e+00
      10,    3.823529e+01,    1.500000e+00,    2.000000e+00
      11,    3.235294e+01,    1.500000e+00,    2.000000e+00
      12,    2.647059e+01,    1.500000e+00,    2.000000e+00
      13,    2.058824e+01,    1.500000e+00,    2.000000e+00
      14,    1.470588e+01,    1.500000e+00,    2.000000e+00
      15,    8.823529e+00,    1.500000e+00,    2.000000e+00
      16,    2.941176e+00,    1.500000e+00,    2.000000e+00
      17,   -2.941176e+00,    1.500000e+00,    2.000000e+00
      18,   -8.823529e+00,    1.500000e+00,    2.000000e+00
      19,   -1.470588e+01,    1.500000e+00,    2.000000e+00
      20,   -2.058824e+01,    1.500000e+00,    2.000000e+00
      21,   -2.647059e+01,    1.500000e+00,    2.000000e+00
      22,   -3.235294e+01,    1.500000e+00,    2.000000e+00
      23,   -3.823529e+01,    1.500000e+00,    2.000000e+00
      24,   -4.411765e+01,    1.500000e+00,    2.000000e+00
      25,   -5.000000e+01,   -1.500000e+00,    2.000000e+00
      26,   -5.000000e+01,    5.000000e-01,    2.000000e+00
      27,   -5.000000e+01,   -5.000000e-01,    2.000000e+00
      28,   -4.411765e+01,   -1.500000e+00,    2.000000e+00
      29,   -3.823529e+01,   -1.500000e+00,    2.000000e+00
      30,   -3.235294e+01,   -1.500000e+00,    2.000000e+00
      31,   -2.647059e+01,   -1.500000e+00,    2.000000e+00
      32,   -2.058824e+01,   -1.500000e+00,    2.000000e+00
      33,   -1.470588e+01,   -1.500000e+00,    2.000000e+00
      34,   -8.823529e+00,   -1.500000e+00,    2.000000e+00
      35,   -2.941176e+00,   -1.500000e+00,    2.000000e+00
      36,    2.941176e+00,   -1.500000e+00,    2.000000e+00
      37,    8.823529e+00,   -1.500000e+00,    2.000000e+00
      38,    1.470588e+01,   -1.500000e+00,    2.000000e+00
      39,    2.058824e+01,   -1.500000e+00,    2.000000e+00
      40,    2.647059e+01,   -1.500000e+00,    2.000000e+00
      41,    3.235294e+01,   -1.500000e+00,    2.000000e+00
      42,    3.823529e+01,   -1.500000e+00,    2.000000e+00
      43,    4.411765e+01,   -1.500000e+00,    2.000000e+00
      44,    4.411765e+01,   -5.000000e-01,    2.000000e+00
      45,    4.411765e+01,    5.000000e-01,    2.000000e+00
      46,    3.823529e+01,   -5.000000e-01,    2.000000e+00
      47,    3.823529e+01,    5.000000e-01,    2.000000e+00
      48,    3.235294e+01,   -5.000000e-01,    2.000000e+00
      49,    3.235294e+01,    5.000000e-01,    2.000000e+00
      50,    2.647059e+01,   -5.000000e-01,    2.000000e+00
      51,    2.647059e+01,    5.000000e-01,    2.000000e+00
      52,    2.058824e+01,   -5.000000e-01,    2.000000e+00
      53,    2.058824e+01,    5.000000e-01,    2.000000e+00
      54,    1.470588e+01,   -5.000000e-01,    2.000000e+00
      55,    1.470588e+01,    5.000000e-01,    2.000000e+00
      56,    8.823529e+00,   -5.000000e-01,    2.000000e+00
      57,    8.823529e+00,    5.000000e-01,    2.000000e+00
      58,    2.941176e+00,   -5.000000e-01,    2.000000e+00
      59,    2.941176e+00,    5.000000e-01,    2.000000e+00
      60,   -2.941176e+00,   -5.000000e-01,    2.000000e+00
      61,   -2.941176e+00,    5.000000e-01,    2.000000e+00
      62,   -8.823529e+00,   -5.000000e-01,    2.000000e+00
      63,   -8.823529e+00,    5.000000e-01,    2.000000e+00
      64,   -1.470588e+01,   -5.000000e-01,    2.000000e+00
      65,   -1.470588e+01,    5.000000e-01,    2.000000e+00
      66,   -2.058824e+01,   -5.000000e-01,    2.000000e+00
      67,   -2.058824e+01,    5.000000e-01,    2.000000e+00
      68,   -2.647059e+01,   -5.000000e-01,    2.000000e+00
      69,   -2.647059e+01,    5.000000e-01,    2.000000e+00
      70,   -3.235294e+01,   -5.000000e-01,    2.000000e+00
      71,   -3.235294e+01,    5.000000e-01,    2.000000e+00
      72,   -3.823529e+01,   -5.000000e-01,    2.000000e+00
      73,   -3.823529e+01,    5.000000e-01,    2.000000e+00
      74,   -4.411765e+01,   -5.000000e-01,    2.000000e+00
      75,   -4.411765e+01,    5.000000e-01,    2.000000e+00
      76,    5.000000e+01,   -1.500000e+00,   -2.000000e+00
      77,    5.000000e+01,    5.000000e-01,   -2.000000e+00
      78,    5.000000e+01,   -5.000000e-01,   -2.000000e+00
      79,   -5.000000e+01,   -1.500000e+00,   -2.000000e+00
      80,    4.411765e+01,   -1.500000e+00,   -2.000000e+00
      81,    3.823529e+01,   -1.500000e+00,   -2.000000e+00
      82,    3.235294e+01,   -1.500000e+00,   -2.000000e+00
      83,    2.647059e+01,   -1.500000e+00,   -2.000000e+00
      84,    2.058824e+01,   -1.500000e+00,   -2.000000e+00
      85,    1.470588e+01,   -1.500000e+00,   -2.000000e+00
      86,    8.823529e+00,   -1.500000e+00,   -2.000000e+00
      87,    2.941176e+00,   -1.500000e+00,   -2.000000e+00
      88,   -2.941176e+00,   -1.500000e+00,   -2.000000e+00
      89,   -8.823529e+00,   -1.500000e+00,   -2.000000e+00
      90,   -1.470588e+01,   -1.500000e+00,   -2.000000e+00
      91,   -2.058824e+01,   -1.500000e+00,   -2.000000e+00
      92,   -2.647059e+01,   -1.500000e+00,   -2.000000e+00
      93,   -3.235294e+01,   -1.500000e+00,   -2.000000e+00
      94,   -3.823529e+01,   -1.500000e+00,   -2.000000e+00
      95,   -4.411765e+01,   -1.500000e+00,   -2.000000e+00
      96,   -5.000000e+01,    1.500000e+00,   -2.000000e+00
      97,   -5.000000e+01,   -5.000000e-01,   -2.000000e+00
      98,   -5.000000e+01,    5.000000e-01,   -2.000000e+00
      99,   -4.411765e+01,    1.500000e+00,   -2.000000e+00
     100,   -3.823529e+01,    1.500000e+00,   -2.000000e+00
     101,   -3.235294e+01,    1.500000e+00,   -2.000000e+00
     102,   -2.647059e+01,    1.500000e+00,   -2.000000e+00
     103,   -2.058824e+01,    1.500000e+00,   -2.000000e+00
     104,   -1.470588e+01,    1.500000e+00,   -2.000000e+00
     105,   -8.823529e+00,    1.500000e+00,   -2.000000e+00
     106,   -2.941176e+00,    1.500000e+00,   -2.000000e+00
     107,    2.941176e+00,    1.500000e+00,   -2.000000e+00
     108,    8.823529e+00,    1.500000e+00,   -2.000000e+00
     109,    1.470588e+01,    1.500000e+00,   -2.000000e+00
     110,    2.058824e+01,    1.500000e+00,   -2.000000e+00
     111,    2.647059e+01,    1.500000e+00,   -2.000000e+00
     112,    3.235294e+01,    1.500000e+00,   -2.000000e+00
     113,    3.823529e+01,    1.500000e+00,   -2.000000e+00
     114,    4.411765e+01,    1.500000e+00,   -2.000000e+00
     115,    4.411765e+01,    5.000000e-01,   -2.000000e+00
     116,    4.411765e+01,   -5.000000e-01,   -2.000000e+00
     117,    3.823529e+01,    5.000000e-01,   -2.000000e+00
     118,    3.823529e+01,   -5.000000e-01,   -2.000000e+00
     119,    3.235294e+01,    5.000000e-01,   -2.000000e+00
     120,    3.235294e+01,   -5.000000e-01,   -2.000000e+00
     121,    2.647059e+01,    5.000000e-01,   -2.000000e+00
     122,    2.647059e+01,   -5.000000e-01,   -2.000000e+00
     123,    2.058824e+01,    5.000000e-01,   -2.000000e+00
     124,    2.058824e+01,   -5.000000e-01,   -2.000000e+00
     125,    1.470588e+01,    5.000000e-01,   -2.000000e+00
     126,    1.470588e+01,   -5.000000e-01,   -2.000000e+00
     127,    8.823529e+00,    5.000000e-01,   -2.000000e+00
     128,    8.823529e+00,   -5.000000e-01,   -2.000000e+00
     129,    2.941176e+00,    5.000000e-01,   -2.000000e+00
     130,    2.941176e+00,   -5.000000e-01,   -2.000000e+00
     131,   -2.941176e+00,    5.000000e-01,   -2.000000e+00
     132,   -2.941176e+00,   -5.000000e-01,   -2.000000e+00
     133,   -8.823529e+00,    5.000000e-01,   -2.000000e+00
     134,   -8.823529e+00,   -5.000000e-01,   -2.000000e+00
     135,   -1.470588e+01,    5.000000e-01,   -2.000000e+00
     136,   -1.470588e+01,   -5.000000e-01,   -2.000000e+00
     137,   -2.058824e+01,    5.000000e-01,   -2.000000e+00
     138,   -2.058824e+01,   -5.000000e-01,   -2.000000e+00
     139,   -2.647059e+01,    5.000000e-01,   -2.000000e+00
     140,   -2.647059e+01,   -5.000000e-01,   -2.000000e+00
     141,   -3.235294e+01,    5.000000e-01,   -2.000000e+00
     142,   -3.235294e+01,   -5.000000e-01,   -2.000000e+00
     143,   -3.823529e+01,    5.000000e-01,   -2.000000e+00
     144,   -3.823529e+01,   -5.000000e-01,   -2.000000e+00
     145,   -4.411765e+01,    5.000000e-01,   -2.000000e+00
     146,   -4.411765e+01,   -5.000000e-01,   -2.000000e+00
     147,   -5.000000e+01,   -1.500000e+00,    6.666667e-01
     148,   -5.000000e+01,   -1.500000e+00,   -6.666667e-01
     149,    5.000000e+01,   -1.500000e+00,    6.666667e-01
     150,    5.000000e+01,   -1.500000e+00,   -6.666667e-01
     151,   -4.411765e+01,   -1.500000e+00,    6.666667e-01
     152,   -4.411765e+01,   -1.500000e+00,   -6.666667e-01
     153,   -3.823529e+01,   -1.500000e+00,    6.666667e-01
     154,   -3.823529e+01,   -1.500000e+00,   -6.666667e-01
     155,   -3.235294e+01,   -1.500000e+00,    6.666667e-01
     156,   -3.235294e+01,   -1.500000e+00,   -6.666667e-01
     157,   -2.647059e+01,   -1.500000e+00,    6.666667e-01
     158,   -2.647059e+01,   -1.500000e+00,   -6.666667e-01
     159,   -2.058824e+01,   -1.500000e+00,    6.666667e-01
     160,   -2.058824e+01,   -1.500000e+00,   -6.666667e-01
     161,   -1.470588e+01,   -1.500000e+00,    6.666667e-01
     162,   -1.470588e+01,   -1.500000e+00,   -6.666667e-01
     163,   -8.823529e+00,   -1.500000e+00,    6.666667e-01
     164,   -8.823529e+00,   -1.500000e+00,   -6.666667e-01
     165,   -2.941176e+00,   -1.500000e+00,    6.666667e-01
     166,   -2.941176e+00,   -1.500000e+00,   -6.666667e-01
     167,    2.941176e+00,   -1.500000e+00,    6.666667e-01
     168,    2.941176e+00,   -1.500000e+00,   -6.666667e-01
     169,    8.823529e+00,   -1.500000e+00,    6.666667e-01
     170,    8.823529e+00,   -1.500000e+00,   -6.666667e-01
     171,    1.470588e+01,   -1.500000e+00,    6.666667e-01
     172,    1.470588e+01,   -1.500000e+00,   -6.666667e-01
     173,    2.058824e+01,   -1.500000e+00,    6.666667e-01
     174,    2.058824e+01,   -1.500000e+00,   -6.666667e-01
     175,    2.647059e+01,   -1.500000e+00,    6.666667e-01
     176,    2.647059e+01,   -1.500000e+00,   -6.666667e-01
     177,    3.235294e+01,   -1.500000e+00,    6.666667e-01
     178,    3.235294e+01,   -1.500000e+00,   -6.666667e-01
     179,    3.823529e+01,   -1.500000e+00,    6.666667e-01
     180,    3.823529e+01,   -1.500000e+00,   -6.666667e-01
     181,    4.411765e+01,   -1.500000e+00,    6.666667e-01
     182,    4.411765e+01,   -1.500000e+00,   -6.666667e-01
     183,   -5.000000e+01,    1.500000e+00,    6.666667e-01
     184,   -5.000000e+01,    1.500000e+00,   -6.666667e-01
     185,   -5.000000e+01,    5.000000e-01,    6.666667e-01
     186,   -5.000000e+01,    5.000000e-01,   -6.666667e-01
     187,   -5.000000e+01,   -5.000000e-01,    6.666667e-01
     188,   -5.000000e+01,   -5.000000e-01,   -6.666667e-01
     189,    4.411765e+01,    1.500000e+00,    6.666667e-01
     190,    4.411765e+01,    1.500000e+00,   -6.666667e-01
     191,    3.823529e+01,    1.500000e+00,    6.666667e-01
     192,    3.823529e+01,    1.500000e+00,   -6.666667e-01
     193,    3.235294e+01,    1.500000e+00,    6.666667e-01
     194,    3.235294e+01,    1.500000e+00,   -6.666667e-01
     195,    2.647059e+01,    1.500000e+00,    6.666667e-01
     196,    2.647059e+01,    1.500000e+00,   -6.666667e-01
     197,    2.058824e+01,    1.500000e+00,    6.666667e-01
     198,    2.058824e+01,    1.500000e+00,   -6.666667e-01
     199,    1.470588e+01,    1.500000e+00,    6.666667e-01
     200,    1.470588e+01,    1.500000e+00,   -6.666667e-01
     201,    8.823529e+00,    1.500000e+00,    6.666667e-01
     202,    8.823529e+00,    1.500000e+00,   -6.666667e-01
     203,    2.941176e+00,    1.500000e+00,    6.666667e-01
     204,    2.941176e+00,    1.500000e+00,   -6.666667e-01
     205,   -2.941176e+00,    1.500000e+00,    6.666667e-01
     206,   -2.941176e+00,    1.500000e+00,   -6.666667e-01
     207,   -8.823529e+00,    1.500000e+00,    6.666667e-01
     208,   -8.823529e+00,    1.500000e+00,   -6.666667e-01
     209,   -1.470588e+01,    1.500000e+00,    6.666667e-01
     210,   -1.470588e+01,    1.500000e+00,   -6.666667e-01
     211,   -2.058824e+01,    1.500000e+00,    6.666667e-01
     212,   -2.058824e+01,    1.500000e+00,   -6.666667e-01
     213,   -2.647059e+01,    1.500000e+00,    6.666667e-01
     214,   -2.647059e+01,    1.500000e+00,   -6.666667e-01
     215,   -3.235294e+01,    1.500000e+00,    6.666667e-01
     216,   -3.235294e+01,    1.500000e+00,   -6.666667e-01
     217,   -3.823529e+01,    1.500000e+00,    6.666667e-01
     218,   -3.823529e+01,    1.500000e+00,   -6.666667e-01
     219,   -4.411765e+01,    1.500000e+00,    6.666667e-01
     220,   -4.411765e+01,    1.500000e+00,   -6.666667e-01
     221,    5.000000e+01,   -5.000000e-01,    6.666667e-01
     222,    5.000000e+01,   -5.000000e-01,   -6.666667e-01
     223,    5.000000e+01,    5.000000e-01,    6.666667e-01
     224,    5.000000e+01,    5.000000e-01,   -6.666667e-01
     225,   -4.411765e+01,   -5.000000e-01,    6.666667e-01
     226,   -4.411765e+01,   -5.000000e-01,   -6.666667e-01
     227,   -4.411765e+01,    5.000000e-01,    6.666667e-01
     228,   -4.411765e+01,    5.000000e-01,   -6.666667e-01
     229,   -3.823529e+01,   -5.000000e-01,    6.666667e-01
     230,   -3.823529e+01,   -5.000000e-01,   -6.666667e-01
     231,   -3.823529e+01,    5.000000e-01,    6.666667e-01
     232,   -3.823529e+01,    5.000000e-01,   -6.666667e-01
     233,   -3.235294e+01,   -5.000000e-01,    6.666667e-01
     234,   -3.235294e+01,   -5.000000e-01,   -6.666667e-01
     235,   -3.235294e+01,    5.000000e-01,    6.666667e-01
     236,   -3.235294e+01,    5.000000e-01,   -6.666667e-01
     237,   -2.647059e+01,   -5.000000e-01,    6.666667e-01
     238,   -2.647059e+01,   -5.000000e-01,   -6.666667e-01
     239,   -2.647059e+01,    5.000000e-01,    6.666667e-01
     240,   -2.647059e+01,    5.000000e-01,   -6.666667e-01
     241,   -2.058824e+01,   -5.000000e-01,    6.666667e-01
     242,   -2.058824e+01,   -5.000000e-01,   -6.666667e-01
     243,   -2.058824e+01,    5.000000e-01,    6.666667e-01
     244,   -2.058824e+01,    5.000000e-01,   -6.666667e-01
     245,   -1.470588e+01,   -5.000000e-01,    6.666667e-01
     246,   -1.470588e+01,   -5.000000e-01,   -6.666667e-01
     247,   -1.470588e+01,    5.000000e-01,    6.666667e-01
     248,   -1.470588e+01,    5.000000e-01,   -6.666667e-01
     249,   -8.823529e+00,   -5.000000e-01,    6.666667e-01
     250,   -8.823529e+00,   -5.000000e-01,   -6.666667e-01
     251,   -8.823529e+00,    5.000000e-01,    6.666667e-01
     252,   -8.823529e+00,    5.000000e-01,   -6.666667e-01
     253,   -2.941176e+00,   -5.000000e-01,    6.666667e-01
     254,   -2.941176e+00,   -5.000000e-01,   -6.666667e-01
     255,   -2.941176e+00,    5.000000e-01,    6.666667e-01
     256,   -2.941176e+00,    5.000000e-01,   -6.666667e-01
     257,    2.941176e+00,   -5.000000e-01,    6.666667e-01
     258,    2.941176e+00,   -5.000000e-01,   -6.666667e-01
     259,    2.941176e+00,    5.000000e-01,    6.666667e-01
     260,    2.941176e+00,    5.000000e-01,   -6.666667e-01
     261,    8.823529e+00,   -5.000000e-01,    6.666667e-01
     262,    8.823529e+00,   -5.000000e-01,   -6.666667e-01
     263,    8.823529e+00,    5.000000e-01,    6.666667e-01
     264,    8.823529e+00,    5.000000e-01,   -6.666667e-01
     265,    1.470588e+01,   -5.000000e-01,    6.666667e-01
     266,    1.470588e+01,   -5.000000e-01,   -6.666667e-01
     267,    1.470588e+01,    5.000000e-01,    6.666667e-01
     268,    1.470588e+01,    5.000000e-01,   -6.666667e-01
     269,    2.058824e+01,   -5.000000e-01,    6.666667e-01
     270,    2.058824e+01,   -5.000000e-01,   -6.666667e-01
     271,    2.058824e+01,    5.000000e-01,    6.666667e-01
     272,    2.058824e+01,    5.000000e-01,   -6.666667e-01
     273,    2.647059e+01,   -5.000000e-01,    6.666667e-01
     274,    2.647059e+01,   -5.000000e-01,   -6.666667e-01
     275,    2.647059e+01,    5.000000e-01,    6.666667e-01
     276,    2.647059e+01,    5.000000e-01,   -6.666667e-01
     277,    3.235294e+01,   -5.000000e-01,    6.666667e-01
     278,    3.235294e+01,   -5.000000e-01,   -6.666667e-01
     279,    3.235294e+01,    5.000000e-01,    6.666667e-01
     280,    3.235294e+01,    5.000000e-01,   -6.666667e-01
     281,    3.823529e+01,   -5.000000e-01,    6.666667e-01
     282,    3.823529e+01,   -5.000000e-01,   -6.666667e-01
     283,    3.823529e+01,    5.000000e-01,    6.666667e-01
     284,    3.823529e+01,    5.000000e-01,   -6.666667e-01
     285,    4.411765e+01,   -5.000000e-01,    6.666667e-01
     286,    4.411765e+01,   -5.000000e-01,   -6.666667e-01
     287,    4.411765e+01,    5.000000e-01,    6.666667e-01
     288,    4.411765e+01,    5.000000e-01,   -6.666667e-01
     289,    5.000000e+01,   -1.000000e+00,    2.000000e+00
     290,    5.000000e+01,    0.000000e+00,    2.000000e+00
     291,    5.000000e+01,    1.000000e+00,    2.000000e+00
     292,    4.705882e+01,    1.500000e+00,    2.000000e+00
     293,    4.117647e+01,    1.500000e+00,    2.000000e+00
     294,    3.529412e+01,    1.500000e+00,    2.000000e+00
     295,    2.941176e+01,    1.500000e+00,    2.000000e+00
     296,    2.352941e+01,    1.500000e+00,    2.000000e+00
     297,    1.764706e+01,    1.500000e+00,    2.000000e+00
     298,    1.176471e+01,    1.500000e+00,    2.000000e+00
     299,    5.882353e+00,    1.500000e+00,    2.000000e+00
     300,   -3.552714e-15,    1.500000e+00,    2.000000e+00
     301,   -5.882353e+00,    1.500000e+00,    2.000000e+00
     302,   -1.176471e+01,    1.500000e+00,    2.000000e+00
     303,   -1.764706e+01,    1.500000e+00,    2.000000e+00
     304,   -2.352941e+01,    1.500000e+00,    2.000000e+00
     305,   -2.941176e+01,    1.500000e+00,    2.000000e+00
     306,   -3.529412e+01,    1.500000e+00,    2.000000e+00
     307,   -4.117647e+01,    1.500000e+00,    2.000000e+00
     308,   -4.705882e+01,    1.500000e+00,    2.000000e+00
     309,   -5.000000e+01,    1.000000e+00,    2.000000e+00
     310,   -5.000000e+01,    0.000000e+00,    2.000000e+00
     311,   -5.000000e+01,   -1.000000e+00,    2.000000e+00
     312,   -4.705882e+01,   -1.500000e+00,    2.000000e+00
     313,   -4.117647e+01,   -1.500000e+00,    2.000000e+00
     314,   -3.529412e+01,   -1.500000e+00,    2.000000e+00
     315,   -2.941176e+01,   -1.500000e+00,    2.000000e+00
     316,   -2.352941e+01,   -1.500000e+00,    2.000000e+00
     317,   -1.764706e+01,   -1.500000e+00,    2.000000e+00
     318,   -1.176471e+01,   -1.500000e+00,    2.000000e+00
     319,   -5.882353e+00,   -1.500000e+00,    2.000000e+00
     320,    3.552714e-15,   -1.500000e+00,    2.000000e+00
     321,    5.882353e+00,   -1.500000e+00,    2.000000e+00
     322,    1.176471e+01,   -1.500000e+00,    2.000000e+00
     323,    1.764706e+01,   -1.500000e+00,    2.000000e+00
     324,    2.352941e+01,   -1.500000e+00,    2.000000e+00
     325,    2.941176e+01,   -1.500000e+00,    2.000000e+00
     326,    3.529412e+01,   -1.500000e+00,    2.000000e+00
     327,    4.117647e+01,   -1.500000e+00,    2.000000e+00
     328,    4.705882e+01,   -1.500000e+00,    2.000000e+00
     329,    4.705882e+01,   -5.000000e-01,    2.000000e+00
     330,    4.411765e+01,   -1.000000e+00,    2.000000e+00
     331,    4.705882e+01,    5.000000e-01,    2.000000e+00
     332,    4.411765e+01,    1.110223e-16,    2.000000e+00
     333,    4.411765e+01,    1.000000e+00,    2.000000e+00
     334,    4.117647e+01,   -5.000000e-01,    2.000000e+00
     335,    3.823529e+01,   -1.000000e+00,    2.000000e+00
     336,    4.117647e+01,    5.000000e-01,    2.000000e+00
     337,    3.823529e+01,    2.498002e-16,    2.000000e+00
     338,    3.823529e+01,    1.000000e+00,    2.000000e+00
     339,    3.529412e+01,   -5.000000e-01,    2.000000e+00
     340,    3.235294e+01,   -1.000000e+00,    2.000000e+00
     341,    3.529412e+01,    5.000000e-01,    2.000000e+00
     342,    3.235294e+01,    8.326673e-17,    2.000000e+00
     343,    3.235294e+01,    1.000000e+00,    2.000000e+00
     344,    2.941176e+01,   -5.000000e-01,    2.000000e+00
     345,    2.647059e+01,   -1.000000e+00,    2.000000e+00
     346,    2.941176e+01,    5.000000e-01,    2.000000e+00
     347,    2.647059e+01,    1.110223e-16,    2.000000e+00
     348,    2.647059e+01,    1.000000e+00,    2.000000e+00
     349,    2.352941e+01,   -5.000000e-01,    2.000000e+00
     350,    2.058824e+01,   -1.000000e+00,    2.000000e+00
     351,    2.352941e+01,    5.000000e-01,    2.000000e+00
     352,    2.058824e+01,    1.110223e-16,    2.000000e+00
     353,    2.058824e+01,    1.000000e+00,    2.000000e+00
     354,    1.764706e+01,   -5.000000e-01,    2.000000e+00
     355,    1.470588e+01,   -1.000000e+00,    2.000000e+00
     356,    1.764706e+01,    5.000000e-01,    2.000000e+00
     357,    1.470588e+01,    1.665335e-16,    2.000000e+00
     358,    1.470588e+01,    1.000000e+00,    2.000000e+00
     359,    1.176471e+01,   -5.000000e-01,    2.000000e+00
     360,    8.823529e+00,   -1.000000e+00,    2.000000e+00
     361,    1.176471e+01,    5.000000e-01,    2.000000e+00
     362,    8.823529e+00,    8.326673e-17,    2.000000e+00
     363,    8.823529e+00,    1.000000e+00,    2.000000e+00
     364,    5.882353e+00,   -5.000000e-01,    2.000000e+00
     365,    2.941176e+00,   -1.000000e+00,    2.000000e+00
     366,    5.882353e+00,    5.000000e-01,    2.000000e+00
     367,    2.941176e+00,    1.387779e-16,    2.000000e+00
     368,    2.941176e+00,    1.000000e+00,    2.000000e+00
     369,    1.332268e-15,   -5.000000e-01,    2.000000e+00
     370,   -2.941176e+00,   -1.000000e+00,    2.000000e+00
     371,   -8.881784e-16,    5.000000e-01,    2.000000e+00
     372,   -2.941176e+00,    8.326673e-17,    2.000000e+00
     373,   -2.941176e+00,    1.000000e+00,    2.000000e+00
     374,   -5.882353e+00,   -5.000000e-01,    2.000000e+00
     375,   -8.823529e+00,   -1.000000e+00,    2.000000e+00
     376,   -5.882353e+00,    5.000000e-01,    2.000000e+00
     377,   -8.823529e+00,    1.665335e-16,    2.000000e+00
     378,   -8.823529e+00,    1.000000e+00,    2.000000e+00
     379,   -1.176471e+01,   -5.000000e-01,    2.000000e+00
     380,   -1.470588e+01,   -1.000000e+00,    2.000000e+00
     381,   -1.176471e+01,    5.000000e-01,    2.000000e+00
     382,   -1.470588e+01,    0.000000e+00,    2.000000e+00
     383,   -1.470588e+01,    1.000000e+00,    2.000000e+00
     384,   -1.764706e+01,   -5.000000e-01,    2.000000e+00
     385,   -2.058824e+01,   -1.000000e+00,    2.000000e+00
     386,   -1.764706e+01,    5.000000e-01,    2.000000e+00
     387,   -2.058824e+01,    2.498002e-16,    2.000000e+00
     388,   -2.058824e+01,    1.000000e+00,    2.000000e+00
     389,   -2.352941e+01,   -5.000000e-01,    2.000000e+00
     390,   -2.647059e+01,   -1.000000e+00,    2.000000e+00
     391,   -2.352941e+01,    5.000000e-01,    2.000000e+00
     392,   -2.647059e+01,    1.110223e-16,    2.000000e+00
     393,   -2.647059e+01,    1.000000e+00,    2.000000e+00
     394,   -2.941176e+01,   -5.000000e-01,    2.000000e+00
     395,   -3.235294e+01,   -1.000000e+00,    2.000000e+00
     396,   -2.941176e+01,    5.000000e-01,    2.000000e+00
     397,   -3.235294e+01,    1.110223e-16,    2.000000e+00
     398,   -3.235294e+01,    1.000000e+00,    2.000000e+00
     399,   -3.529412e+01,   -5.000000e-01,    2.000000e+00
     400,   -3.823529e+01,   -1.000000e+00,    2.000000e+00
     401,   -3.529412e+01,    5.000000e-01,    2.000000e+00
     402,   -3.823529e+01,    8.326673e-17,    2.000000e+00
     403,   -3.823529e+01,    1.000000e+00,    2.000000e+00
     404,   -4.117647e+01,   -5.000000e-01,    2.000000e+00
     405,   -4.411765e+01,   -1.000000e+00,    2.000000e+00
     406,   -4.117647e+01,    5.000000e-01,    2.000000e+00
     407,   -4.411765e+01,    1.942890e-16,    2.000000e+00
     408,   -4.411765e+01,    1.000000e+00,    2.000000e+00
     409,   -4.705882e+01,   -5.000000e-01,    2.000000e+00
     410,   -4.705882e+01,    5.000000e-01,    2.000000e+00
     411,    5.000000e+01,    1.000000e+00,   -2.000000e+00
     412,    5.000000e+01,    0.000000e+00,   -2.000000e+00
     413,    5.000000e+01,   -1.000000e+00,   -2.000000e+00
     414,    4.705882e+01,   -1.500000e+00,   -2.000000e+00
     415,    4.117647e+01,   -1.500000e+00,   -2.000000e+00
     416,    3.529412e+01,   -1.500000e+00,   -2.000000e+00
     417,    2.941176e+01,   -1.500000e+00,   -2.000000e+00
     418,    2.352941e+01,   -1.500000e+00,   -2.000000e+00
     419,    1.764706e+01,   -1.500000e+00,   -2.000000e+00
     420,    1.176471e+01,   -1.500000e+00,   -2.000000e+00
     421,    5.882353e+00,   -1.500000e+00,   -2.000000e+00
     422,   -3.552714e-15,   -1.500000e+00,   -2.000000e+00
     423,   -5.882353e+00,   -1.500000e+00,   -2.000000e+00
     424,   -1.176471e+01,   -1.500000e+00,   -2.000000e+00
     425,   -1.764706e+01,   -1.500000e+00,   -2.000000e+00
     426,   -2.352941e+01,   -1.500000e+00,   -2.000000e+00
     427,   -2.941176e+01,   -1.500000e+00,   -2.000000e+00
     428,   -3.529412e+01,   -1.500000e+00,   -2.000000e+00
     429,   -4.117647e+01,   -1.500000e+00,   -2.000000e+00
     430,   -4.705882e+01,   -1.500000e+00,   -2.000000e+00
     431,   -5.000000e+01,   -1.000000e+00,   -2.000000e+00
     432,   -5.000000e+01,    0.000000e+00,   -2.000000e+00
     433,   -5.000000e+01,    1.000000e+00,   -2.000000e+00
     434,   -4.705882e+01,    1.500000e+00,   -2.000000e+00
     435,   -4.117647e+01,    1.500000e+00,   -2.000000e+00
     436,   -3.529412e+01,    1.500000e+00,   -2.000000e+00
     437,   -2.941176e+01,    1.500000e+00,   -2.000000e+00
     438,   -2.352941e+01,    1.500000e+00,   -2.000000e+00
     439,   -1.764706e+01,    1.500000e+00,   -2.000000e+00
     440,   -1.176471e+01,    1.500000e+00,   -2.000000e+00
     441,   -5.882353e+00,    1.500000e+00,   -2.000000e+00
     442,    3.552714e-15,    1.500000e+00,   -2.000000e+00
     443,    5.882353e+00,    1.500000e+00,   -2.000000e+00
     444,    1.176471e+01,    1.500000e+00,   -2.000000e+00
     445,    1.764706e+01,    1.500000e+00,   -2.000000e+00
     446,    2.352941e+01,    1.500000e+00,   -2.000000e+00
     447,    2.941176e+01,    1.500000e+00,   -2.000000e+00
     448,    3.529412e+01,    1.500000e+00,   -2.000000e+00
     449,    4.117647e+01,    1.500000e+00,   -2.000000e+00
     450,    4.705882e+01,    1.500000e+00,   -2.000000e+00
     451,    4.705882e+01,    5.000000e-01,   -2.000000e+00
     452,    4.411765e+01,    1.000000e+00,   -2.000000e+00
     453,    4.705882e+01,   -5.000000e-01,   -2.000000e+00
     454,    4.411765e+01,   -1.110223e-16,   -2.000000e+00
     455,    4.411765e+01,   -1.000000e+00,   -2.000000e+00
     456,    4.117647e+01,    5.000000e-01,   -2.000000e+00
     457,    3.823529e+01,    1.000000e+00,   -2.000000e+00
     458,    4.117647e+01,   -5.000000e-01,   -2.000000e+00
     459,    3.823529e+01,   -2.498002e-16,   -2.000000e+00
     460,    3.823529e+01,   -1.000000e+00,   -2.000000e+00
     461,    3.529412e+01,    5.000000e-01,   -2.000000e+00
     462,    3.235294e+01,    1.000000e+00,   -2.000000e+00
     463,    3.529412e+01,   -5.000000e-01,   -2.000000e+00
     464,    3.235294e+01,   -8.326673e-17,   -2.000000e+00
     465,    3.235294e+01,   -1.000000e+00,   -2.000000e+00
     466,    2.941176e+01,    5.000000e-01,   -2.000000e+00
     467,    2.647059e+01,    1.000000e+00,   -2.000000e+00
     468,    2.941176e+01,   -5.000000e-01,   -2.000000e+00
     469,    2.647059e+01,   -1.110223e-16,   -2.000000e+00
     470,    2.647059e+01,   -1.000000e+00,   -2.000000e+00
     471,    2.352941e+01,    5.000000e-01,   -2.000000e+00
     472,    2.058824e+01,    1.000000e+00,   -2.000000e+00
     473,    2.352941e+01,   -5.000000e-01,   -2.000000e+00
     474,    2.058824e+01,   -1.110223e-16,   -2.000000e+00
     475,    2.058824e+01,   -1.000000e+00,   -2.000000e+00
     476,    1.764706e+01,    5.000000e-01,   -2.000000e+00
     477,    1.470588e+01,    1.000000e+00,   -2.000000e+00
     478,    1.764706e+01,   -5.000000e-01,   -2.000000e+00
     479,    1.470588e+01,   -1.665335e-16,   -2.000000e+00
     480,    1.470588e+01,   -1.000000e+00,   -2.000000e+00
     481,    1.176471e+01,    5.000000e-01,   -2.000000e+00
     482,    8.823529e+00,    1.000000e+00,   -2.000000e+00
     483,    1.176471e+01,   -5.000000e-01,   -2.000000e+00
     484,    8.823529e+00,   -8.326673e-17,   -2.000000e+00
     485,    8.823529e+00,   -1.000000e+00,   -2.000000e+00
     486,    5.882353e+00,    5.000000e-01,   -2.000000e+00
     487,    2.941176e+00,    1.000000e+00,   -2.000000e+00
     488,    5.882353e+00,   -5.000000e-01,   -2.000000e+00
     489,    2.941176e+00,   -1.387779e-16,   -2.000000e+00
     490,    2.941176e+00,   -1.000000e+00,   -2.000000e+00
     491,    1.332268e-15,    5.000000e-01,   -2.000000e+00
     492,   -2.941176e+00,    1.000000e+00,   -2.000000e+00
     493,   -8.881784e-16,   -5.000000e-01,   -2.000000e+00
     494,   -2.941176e+00,   -8.326673e-17,   -2.000000e+00
     495,   -2.941176e+00,   -1.000000e+00,   -2.000000e+00
     496,   -5.882353e+00,    5.000000e-01,   -2.000000e+00
     497,   -8.823529e+00,    1.000000e+00,   -2.000000e+00
     498,   -5.882353e+00,   -5.000000e-01,   -2.000000e+00
     499,   -8.823529e+00,   -1.665335e-16,   -2.000000e+00
     500,   -8.823529e+00,   -1.000000e+00,   -2.000000e+00
     501,   -1.176471e+01,    5.000000e-01,   -2.000000e+00
     502,   -1.470588e+01,    1.000000e+00,   -2.000000e+00
     503,   -1.176471e+01,   -5.000000e-01,   -2.000000e+00
     504,   -1.470588e+01,    0.000000e+00,   -2.000000e+00
     505,   -1.470588e+01,   -1.000000e+00,   -2.000000e+00
     506,   -1.764706e+01,    5.000000e-01,   -2.000000e+00
     507,   -2.058824e+01,    1.000000e+00,   -2.000000e+00
     508,   -1.764706e+01,   -5.000000e-01,   -2.000000e+00
     509,   -2.058824e+01,   -2.498002e-16,   -2.000000e+00
     510,   -2.058824e+01,   -1.000000e+00,   -2.000000e+00
     511,   -2.352941e+01,    5.000000e-01,   -2.000000e+00
     512,   -2.647059e+01,    1.000000e+00,   -2.000000e+00
     513,   -2.352941e+01,   -5.000000e-01,   -2.000000e+00
     514,   -2.647059e+01,   -1.110223e-16,   -2.000000e+00
     515,   -2.647059e+01,   -1.000000e+00,   -2.000000e+00
     516,   -2.941176e+01,    5.000000e-01,   -2.000000e+00
     517,   -3.235294e+01,    1.000000e+00,   -2.000000e+00
     518,   -2.941176e+01,   -5.000000e-01,   -2.000000e+00
     519,   -3.235294e+01,   -1.110223e-16,   -2.000000e+00
     520,   -3.235294e+01,   -1.000000e+00,   -2.000000e+00
     521,   -3.529412e+01,    5.000000e-01,   -2.000000e+00
     522,   -3.823529e+01,    1.000000e+00,   -2.000000e+00
     523,   -3.529412e+01,   -5.000000e-01,   -2.000000e+00
     524,   -3.823529e+01,   -8.326673e-17,   -2.000000e+00
     525,   -3.823529e+01,   -1.000000e+00,   -2.000000e+00
     526,   -4.117647e+01,    5.000000e-01,   -2.000000e+00
     527,   -4.411765e+01,    1.000000e+00,   -2.000000e+00
     528,   -4.117647e+01,   -5.000000e-01,   -2.000000e+00
     529,   -4.411765e+01,   -1.942890e-16,   -2.000000e+00
     530,   -4.411765e+01,   -1.000000e+00,   -2.000000e+00
     531,   -4.705882e+01,    5.000000e-01,   -2.000000e+00
     532,   -4.705882e+01,   -5.000000e-01,   -2.000000e+00
     533,   -5.000000e+01,   -1.500000e+00,    1.333333e+00
     534,   -5.000000e+01,   -1.500000e+00,    1.110223e-16
     535,   -5.000000e+01,   -1.500000e+00,   -1.333333e+00
     536,    5.000000e+01,   -1.500000e+00,    1.333333e+00
     537,    5.000000e+01,   -1.500000e+00,    1.110223e-16
     538,    5.000000e+01,   -1.500000e+00,   -1.333333e+00
     539,   -4.705882e+01,   -1.500000e+00,    6.666667e-01
     540,   -4.411765e+01,   -1.500000e+00,    1.333333e+00
     541,   -4.705882e+01,   -1.500000e+00,   -6.666667e-01
     542,   -4.411765e+01,   -1.500000e+00,    0.000000e+00
     543,   -4.411765e+01,   -1.500000e+00,   -1.333333e+00
     544,   -4.117647e+01,   -1.500000e+00,    6.666667e-01
     545,   -3.823529e+01,   -1.500000e+00,    1.333333e+00
     546,   -4.117647e+01,   -1.500000e+00,   -6.666667e-01
     547,   -3.823529e+01,   -1.500000e+00,    1.110223e-16
     548,   -3.823529e+01,   -1.500000e+00,   -1.333333e+00
     549,   -3.529412e+01,   -1.500000e+00,    6.666667e-01
     550,   -3.235294e+01,   -1.500000e+00,    1.333333e+00
     551,   -3.529412e+01,   -1.500000e+00,   -6.666667e-01
     552,   -3.235294e+01,   -1.500000e+00,    5.551115e-17
     553,   -3.235294e+01,   -1.500000e+00,   -1.333333e+00
     554,   -2.941176e+01,   -1.500000e+00,    6.666667e-01
     555,   -2.647059e+01,   -1.500000e+00,    1.333333e+00
     556,   -2.941176e+01,   -1.500000e+00,   -6.666667e-01
     557,   -2.647059e+01,   -1.500000e+00,    2.775558e-16
     558,   -2.647059e+01,   -1.500000e+00,   -1.333333e+00
     559,   -2.352941e+01,   -1.500000e+00,    6.666667e-01
     560,   -2.058824e+01,   -1.500000e+00,    1.333333e+00
     561,   -2.352941e+01,   -1.500000e+00,   -6.666667e-01
     562,   -2.058824e+01,   -1.500000e+00,    1.665335e-16
     563,   -2.058824e+01,   -1.500000e+00,   -1.333333e+00
     564,   -1.764706e+01,   -1.500000e+00,    6.666667e-01
     565,   -1.470588e+01,   -1.500000e+00,    1.333333e+00
     566,   -1.764706e+01,   -1.500000e+00,   -6.666667e-01
     567,   -1.470588e+01,   -1.500000e+00,   -5.551115e-17
     568,   -1.470588e+01,   -1.500000e+00,   -1.333333e+00
     569,   -1.176471e+01,   -1.500000e+00,    6.666667e-01
     570,   -8.823529e+00,   -1.500000e+00,    1.333333e+00
     571,   -1.176471e+01,   -1.500000e+00,   -6.666667e-01
     572,   -8.823529e+00,   -1.500000e+00,    0.000000e+00
     573,   -8.823529e+00,   -1.500000e+00,   -1.333333e+00
     574,   -5.882353e+00,   -1.500000e+00,    6.666667e-01
     575,   -2.941176e+00,   -1.500000e+00,    1.333333e+00
     576,   -5.882353e+00,   -1.500000e+00,   -6.666667e-01
     577,   -2.941176e+00,   -1.500000e+00,   -1.665335e-16
     578,   -2.941176e+00,   -1.500000e+00,   -1.333333e+00
     579,    2.664535e-15,   -1.500000e+00,    6.666667e-01
     580,    2.941176e+00,   -1.500000e+00,    1.333333e+00
     581,   -5.329071e-15,   -1.500000e+00,   -6.666667e-01
     582,    2.941176e+00,   -1.500000e+00,    5.551115e-17
     583,    2.941176e+00,   -1.500000e+00,   -1.333333e+00
     584,    5.882353e+00,   -1.500000e+00,    6.666667e-01
     585,    8.823529e+00,   -1.500000e+00,    1.333333e+00
     586,    5.882353e+00,   -1.500000e+00,   -6.666667e-01
     587,    8.823529e+00,   -1.500000e+00,    5.551115e-17
     588,    8.823529e+00,   -1.500000e+00,   -1.333333e+00
     589,    1.176471e+01,   -1.500000e+00,    6.666667e-01
     590,    1.470588e+01,   -1.500000e+00,    1.333333e+00
     591,    1.176471e+01,   -1.500000e+00,   -6.666667e-01
     592,    1.470588e+01,   -1.500000e+00,   -1.110223e-16
     593,    1.470588e+01,   -1.500000e+00,   -1.333333e+00
     594,    1.764706e+01,   -1.500000e+00,    6.666667e-01
     595,    2.058824e+01,   -1.500000e+00,    1.333333e+00
     596,    1.764706e+01,   -1.500000e+00,   -6.666667e-01
     597,    2.058824e+01,   -1.500000e+00,    1.110223e-16
     598,    2.058824e+01,   -1.500000e+00,   -1.333333e+00
     599,    2.352941e+01,   -1.500000e+00,    6.666667e-01
     600,    2.647059e+01,   -1.500000e+00,    1.333333e+00
     601,    2.352941e+01,   -1.500000e+00,   -6.666667e-01
     602,    2.647059e+01,   -1.500000e+00,    5.551115e-17
     603,    2.647059e+01,   -1.500000e+00,   -1.333333e+00
     604,    2.941176e+01,   -1.500000e+00,    6.666667e-01
     605,    3.235294e+01,   -1.500000e+00,    1.333333e+00
     606,    2.941176e+01,   -1.500000e+00,   -6.666667e-01
     607,    3.235294e+01,   -1.500000e+00,    1.665335e-16
     608,    3.235294e+01,   -1.500000e+00,   -1.333333e+00
     609,    3.529412e+01,   -1.500000e+00,    6.666667e-01
     610,    3.823529e+01,   -1.500000e+00,    1.333333e+00
     611,    3.529412e+01,   -1.500000e+00,   -6.666667e-01
     612,    3.823529e+01,   -1.500000e+00,   -5.551115e-17
     613,    3.823529e+01,   -1.500000e+00,   -1.333333e+00
     614,    4.117647e+01,   -1.500000e+00,    6.666667e-01
     615,    4.411765e+01,   -1.500000e+00,    1.333333e+00
     616,    4.117647e+01,   -1.500000e+00,   -6.666667e-01
     617,    4.411765e+01,   -1.500000e+00,    5.551115e-17
     618,    4.411765e+01,   -1.500000e+00,   -1.333333e+00
     619,    4.705882e+01,   -1.500000e+00,    6.666667e-01
     620,    4.705882e+01,   -1.500000e+00,   -6.666667e-01
     621,   -5.000000e+01,    1.500000e+00,    1.333333e+00
     622,   -5.000000e+01,    1.500000e+00,    1.110223e-16
     623,   -5.000000e+01,    1.500000e+00,   -1.333333e+00
     624,   -5.000000e+01,    1.000000e+00,    6.666667e-01
     625,   -5.000000e+01,    5.000000e-01,    1.333333e+00
     626,   -5.000000e+01,    1.000000e+00,   -6.666667e-01
     627,   -5.000000e+01,    5.000000e-01,   -5.551115e-17
     628,   -5.000000e+01,    5.000000e-01,   -1.333333e+00
     629,   -5.000000e+01,   -1.665335e-16,    6.666667e-01
     630,   -5.000000e+01,   -5.000000e-01,    1.333333e+00
     631,   -5.000000e+01,   -1.387779e-16,   -6.666667e-01
     632,   -5.000000e+01,   -5.000000e-01,    5.551115e-17
     633,   -5.000000e+01,   -5.000000e-01,   -1.333333e+00
     634,   -5.000000e+01,   -1.000000e+00,    6.666667e-01
     635,   -5.000000e+01,   -1.000000e+00,   -6.666667e-01
     636,    5.000000e+01,    1.500000e+00,    1.333333e+00
     637,    5.000000e+01,    1.500000e+00,    1.110223e-16
     638,    5.000000e+01,    1.500000e+00,   -1.333333e+00
     639,    4.705882e+01,    1.500000e+00,    6.666667e-01
     640,    4.411765e+01,    1.500000e+00,    1.333333e+00
     641,    4.705882e+01,    1.500000e+00,   -6.666667e-01
     642,    4.411765e+01,    1.500000e+00,    0.000000e+00
     643,    4.411765e+01,    1.500000e+00,   -1.333333e+00
     644,    4.117647e+01,    1.500000e+00,    6.666667e-01
     645,    3.823529e+01,    1.500000e+00,    1.333333e+00
     646,    4.117647e+01,    1.500000e+00,   -6.666667e-01
     647,    3.823529e+01,    1.500000e+00,    1.110223e-16
     648,    3.823529e+01,    1.500000e+00,   -1.333333e+00
     649,    3.529412e+01,    1.500000e+00,    6.666667e-01
     650,    3.235294e+01,    1.500000e+00,    1.333333e+00
     651,    3.529412e+01,    1.500000e+00,   -6.666667e-01
     652,    3.235294e+01,    1.500000e+00,    5.551115e-17
     653,    3.235294e+01,    1.500000e+00,   -1.333333e+00
     654,    2.941176e+01,    1.500000e+00,    6.666667e-01
     655,    2.647059e+01,    1.500000e+00,    1.333333e+00
     656,    2.941176e+01,    1.500000e+00,   -6.666667e-01
     657,    2.647059e+01,    1.500000e+00,    2.775558e-16
     658,    2.647059e+01,    1.500000e+00,   -1.333333e+00
     659,    2.352941e+01,    1.500000e+00,    6.666667e-01
     660,    2.058824e+01,    1.500000e+00,    1.333333e+00
     661,    2.352941e+01,    1.500000e+00,   -6.666667e-01
     662,    2.058824e+01,    1.500000e+00,    1.665335e-16
     663,    2.058824e+01,    1.500000e+00,   -1.333333e+00
     664,    1.764706e+01,    1.500000e+00,    6.666667e-01
     665,    1.470588e+01,    1.500000e+00,    1.333333e+00
     666,    1.764706e+01,    1.500000e+00,   -6.666667e-01
     667,    1.470588e+01,    1.500000e+00,   -5.551115e-17
     668,    1.470588e+01,    1.500000e+00,   -1.333333e+00
     669,    1.176471e+01,    1.500000e+00,    6.666667e-01
     670,    8.823529e+00,    1.500000e+00,    1.333333e+00
     671,    1.176471e+01,    1.500000e+00,   -6.666667e-01
     672,    8.823529e+00,    1.500000e+00,    0.000000e+00
     673,    8.823529e+00,    1.500000e+00,   -1.333333e+00
     674,    5.882353e+00,    1.500000e+00,    6.666667e-01
     675,    2.941176e+00,    1.500000e+00,    1.333333e+00
     676,    5.882353e+00,    1.500000e+00,   -6.666667e-01
     677,    2.941176e+00,    1.500000e+00,   -1.665335e-16
     678,    2.941176e+00,    1.500000e+00,   -1.333333e+00
     679,   -2.664535e-15,    1.500000e+00,    6.666667e-01
     680,   -2.941176e+00,    1.500000e+00,    1.333333e+00
     681,    5.329071e-15,    1.500000e+00,   -6.666667e-01
     682,   -2.941176e+00,    1.500000e+00,    5.551115e-17
     683,   -2.941176e+00,    1.500000e+00,   -1.333333e+00
     684,   -5.882353e+00,    1.500000e+00,    6.666667e-01
     685,   -8.823529e+00,    1.500000e+00,    1.333333e+00
     686,   -5.882353e+00,    1.500000e+00,   -6.666667e-01
     687,   -8.823529e+00,    1.500000e+00,    5.551115e-17
     688,   -8.823529e+00,    1.500000e+00,   -1.333333e+00
     689,   -1.176471e+01,    1.500000e+00,    6.666667e-01
     690,   -1.470588e+01,    1.500000e+00,    1.333333e+00
     691,   -1.176471e+01,    1.500000e+00,   -6.666667e-01
     692,   -1.470588e+01,    1.500000e+00,   -1.110223e-16
     693,   -1.470588e+01,    1.500000e+00,   -1.333333e+00
     694,   -1.764706e+01,    1.500000e+00,    6.666667e-01
     695,   -2.058824e+01,    1.500000e+00,    1.333333e+00
     696,   -1.764706e+01,    1.500000e+00,   -6.666667e-01
     697,   -2.058824e+01,    1.500000e+00,    1.110223e-16
     698,   -2.058824e+01,    1.500000e+00,   -1.333333e+00
     699,   -2.352941e+01,    1.500000e+00,    6.666667e-01
     700,   -2.647059e+01,    1.500000e+00,    1.333333e+00
     701,   -2.352941e+01,    1.500000e+00,   -6.666667e-01
     702,   -2.647059e+01,    1.500000e+00,    5.551115e-17
     703,   -2.647059e+01,    1.500000e+00,   -1.333333e+00
     704,   -2.941176e+01,    1.500000e+00,    6.666667e-01
     705,   -3.235294e+01,    1.500000e+00,    1.333333e+00
     706,   -2.941176e+01,    1.500000e+00,   -6.666667e-01
     707,   -3.235294e+01,    1.500000e+00,    1.665335e-16
     708,   -3.235294e+01,    1.500000e+00,   -1.333333e+00
     709,   -3.529412e+01,    1.500000e+00,    6.666667e-01
     710,   -3.823529e+01,    1.500000e+00,    1.333333e+00
     711,   -3.529412e+01,    1.500000e+00,   -6.666667e-01
     712,   -3.823529e+01,    1.500000e+00,   -5.551115e-17
     713,   -3.823529e+01,    1.500000e+00,   -1.333333e+00
     714,   -4.117647e+01,    1.500000e+00,    6.666667e-01
     715,   -4.411765e+01,    1.500000e+00,    1.333333e+00
     716,   -4.117647e+01,    1.500000e+00,   -6.666667e-01
     717,   -4.411765e+01,    1.500000e+00,    5.551115e-17
     718,   -4.411765e+01,    1.500000e+00,   -1.333333e+00
     719,   -4.705882e+01,    1.500000e+00,    6.666667e-01
     720,   -4.705882e+01,    1.500000e+00,   -6.666667e-01
     721,    5.000000e+01,   -1.000000e+00,    6.666667e-01
     722,    5.000000e+01,   -5.000000e-01,    1.333333e+00
     723,    5.000000e+01,   -1.000000e+00,   -6.666667e-01
     724,    5.000000e+01,   -5.000000e-01,   -5.551115e-17
     725,    5.000000e+01,   -5.000000e-01,   -1.333333e+00
     726,    5.000000e+01,    1.665335e-16,    6.666667e-01
     727,    5.000000e+01,    5.000000e-01,    1.333333e+00
     728,    5.000000e+01,    1.387779e-16,   -6.666667e-01
     729,    5.000000e+01,    5.000000e-01,    5.551115e-17
     730,    5.000000e+01,    5.000000e-01,   -1.333333e+00
     731,    5.000000e+01,    1.000000e+00,    6.666667e-01
     732,    5.000000e+01,    1.000000e+00,   -6.666667e-01
     733,   -4.705882e+01,   -5.000000e-01,    6.666667e-01
     734,   -4.411765e+01,   -1.000000e+00,    6.666667e-01
     735,   -4.411765e+01,   -5.000000e-01,    1.333333e+00
     736,   -4.705882e+01,   -5.000000e-01,   -6.666667e-01
     737,   -4.411765e+01,   -1.000000e+00,   -6.666667e-01
     738,   -4.411765e+01,   -5.000000e-01,   -1.110223e-16
     739,   -4.411765e+01,   -5.000000e-01,   -1.333333e+00
     740,   -4.705882e+01,    5.000000e-01,    6.666667e-01
     741,   -4.411765e+01,    2.498002e-16,    6.666667e-01
     742,   -4.411765e+01,    5.000000e-01,    1.333333e+00
     743,   -4.705882e+01,    5.000000e-01,   -6.666667e-01
     744,   -4.411765e+01,   -1.942890e-16,   -6.666667e-01
     745,   -4.411765e+01,    5.000000e-01,   -2.775558e-16
     746,   -4.411765e+01,    5.000000e-01,   -1.333333e+00
     747,   -4.411765e+01,    1.000000e+00,    6.666667e-01
     748,   -4.411765e+01,    1.000000e+00,   -6.666667e-01
     749,   -4.117647e+01,   -5.000000e-01,    6.666667e-01
     750,   -3.823529e+01,   -1.000000e+00,    6.666667e-01
     751,   -3.823529e+01,   -5.000000e-01,    1.333333e+00
     752,   -4.117647e+01,   -5.000000e-01,   -6.666667e-01
     753,   -3.823529e+01,   -1.000000e+00,   -6.666667e-01
     754,   -3.823529e+01,   -5.000000e-01,    5.551115e-17
     755,   -3.823529e+01,   -5.000000e-01,   -1.333333e+00
     756,   -4.117647e+01,    5.000000e-01,    6.666667e-01
     757,   -3.823529e+01,    1.110223e-16,    6.666667e-01
     758,   -3.823529e+01,    5.000000e-01,    1.333333e+00
     759,   -4.117647e+01,    5.000000e-01,   -6.666667e-01
     760,   -3.823529e+01,   -1.387779e-16,   -6.666667e-01
     761,   -3.823529e+01,    5.000000e-01,   -5.551115e-17
     762,   -3.823529e+01,    5.000000e-01,   -1.333333e+00
     763,   -3.823529e+01,    1.000000e+00,    6.666667e-01
     764,   -3.823529e+01,    1.000000e+00,   -6.666667e-01
     765,   -3.529412e+01,   -5.000000e-01,    6.666667e-01
     766,   -3.235294e+01,   -1.000000e+00,    6.666667e-01
     767,   -3.235294e+01,   -5.000000e-01,    1.333333e+00
     768,   -3.529412e+01,   -5.000000e-01,   -6.666667e-01
     769,   -3.235294e+01,   -1.000000e+00,   -6.666667e-01
     770,   -3.235294e+01,   -5.000000e-01,    5.551115e-17
     771,   -3.235294e+01,   -5.000000e-01,   -1.333333e+00
     772,   -3.529412e+01,    5.000000e-01,    6.666667e-01
     773,   -3.235294e+01,    5.551115e-17,    6.666667e-01
     774,   -3.235294e+01,    5.000000e-01,    1.333333e+00
     775,   -3.529412e+01,    5.000000e-01,   -6.666667e-01
     776,   -3.235294e+01,    5.551115e-17,   -6.666667e-01
     777,   -3.235294e+01,    5.000000e-01,    1.110223e-16
     778,   -3.235294e+01,    5.000000e-01,   -1.333333e+00
     779,   -3.235294e+01,    1.000000e+00,    6.666667e-01
     780,   -3.235294e+01,    1.000000e+00,   -6.666667e-01
     781,   -2.941176e+01,   -5.000000e-01,    6.666667e-01
     782,   -2.647059e+01,   -1.000000e+00,    6.666667e-01
     783,   -2.647059e+01,   -5.000000e-01,    1.333333e+00
     784,   -2.941176e+01,   -5.000000e-01,   -6.666667e-01
     785,   -2.647059e+01,   -1.000000e+00,   -6.666667e-01
     786,   -2.647059e+01,   -5.000000e-01,    3.330669e-16
     787,   -2.647059e+01,   -5.000000e-01,   -1.333333e+00
     788,   -2.941176e+01,    5.000000e-01,    6.666667e-01
     789,   -2.647059e+01,    1.387779e-16,    6.666667e-01
     790,   -2.647059e+01,    5.000000e-01,    1.333333e+00
     791,   -2.941176e+01,    5.000000e-01,   -6.666667e-01
     792,   -2.647059e+01,   -1.942890e-16,   -6.666667e-01
     793,   -2.647059e+01,    5.000000e-01,   -1.110223e-16
     794,   -2.647059e+01,    5.000000e-01,   -1.333333e+00
     795,   -2.647059e+01,    1.000000e+00,    6.666667e-01
     796,   -2.647059e+01,    1.000000e+00,   -6.666667e-01
     797,   -2.352941e+01,   -5.000000e-01,    6.666667e-01
     798,   -2.058824e+01,   -1.000000e+00,    6.666667e-01
     799,   -2.058824e+01,   -5.000000e-01,    1.333333e+00
     800,   -2.352941e+01,   -5.000000e-01,   -6.666667e-01
     801,   -2.058824e+01,   -1.000000e+00,   -6.666667e-01
     802,   -2.058824e+01,   -5.000000e-01,    0.000000e+00
     803,   -2.058824e+01,   -5.000000e-01,   -1.333333e+00
     804,   -2.352941e+01,    5.000000e-01,    6.666667e-01
     805,   -2.058824e+01,    1.387779e-16,    6.666667e-01
     806,   -2.058824e+01,    5.000000e-01,    1.333333e+00
     807,   -2.352941e+01,    5.000000e-01,   -6.666667e-01
     808,   -2.058824e+01,   -2.498002e-16,   -6.666667e-01
     809,   -2.058824e+01,    5.000000e-01,    0.000000e+00
     810,   -2.058824e+01,    5.000000e-01,   -1.333333e+00
     811,   -2.058824e+01,    1.000000e+00,    6.666667e-01
     812,   -2.058824e+01,    1.000000e+00,   -6.666667e-01
     813,   -1.764706e+01,   -5.000000e-01,    6.666667e-01
     814,   -1.470588e+01,   -1.000000e+00,    6.666667e-01
     815,   -1.470588e+01,   -5.000000e-01,    1.333333e+00
     816,   -1.764706e+01,   -5.000000e-01,   -6.666667e-01
     817,   -1.470588e+01,   -1.000000e+00,   -6.666667e-01
     818,   -1.470588e+01,   -5.000000e-01,   -2.220446e-16
     819,   -1.470588e+01,   -5.000000e-01,   -1.333333e+00
     820,   -1.764706e+01,    5.000000e-01,    6.666667e-01
     821,   -1.470588e+01,    5.551115e-17,    6.666667e-01
     822,   -1.470588e+01,    5.000000e-01,    1.333333e+00
     823,   -1.764706e+01,    5.000000e-01,   -6.666667e-01
     824,   -1.470588e+01,    0.000000e+00,   -6.666667e-01
     825,   -1.470588e+01,    5.000000e-01,   -2.220446e-16
     826,   -1.470588e+01,    5.000000e-01,   -1.333333e+00
     827,   -1.470588e+01,    1.000000e+00,    6.666667e-01
     828,   -1.470588e+01,    1.000000e+00,   -6.666667e-01
     829,   -1.176471e+01,   -5.000000e-01,    6.666667e-01
     830,   -8.823529e+00,   -1.000000e+00,    6.666667e-01
     831,   -8.823529e+00,   -5.000000e-01,    1.333333e+00
     832,   -1.176471e+01,   -5.000000e-01,   -6.666667e-01
     833,   -8.823529e+00,   -1.000000e+00,   -6.666667e-01
     834,   -8.823529e+00,   -5.000000e-01,   -2.220446e-16
     835,   -8.823529e+00,   -5.000000e-01,   -1.333333e+00
     836,   -1.176471e+01,    5.000000e-01,    6.666667e-01
     837,   -8.823529e+00,    2.775558e-16,    6.666667e-01
     838,   -8.823529e+00,    5.000000e-01,    1.333333e+00
     839,   -1.176471e+01,    5.000000e-01,   -6.666667e-01
     840,   -8.823529e+00,   -3.053113e-16,   -6.666667e-01
     841,   -8.823529e+00,    5.000000e-01,    5.551115e-17
     842,   -8.823529e+00,    5.000000e-01,   -1.333333e+00
     843,   -8.823529e+00,    1.000000e+00,    6.666667e-01
     844,   -8.823529e+00,    1.000000e+00,   -6.666667e-01
     845,   -5.882353e+00,   -5.000000e-01,    6.666667e-01
     846,   -2.941176e+00,   -1.000000e+00,    6.666667e-01
     847,   -2.941176e+00,   -5.000000e-01,    1.333333e+00
     848,   -5.882353e+00,   -5.000000e-01,   -6.666667e-01
     849,   -2.941176e+00,   -1.000000e+00,   -6.666667e-01
     850,   -2.941176e+00,   -5.000000e-01,   -1.665335e-16
     851,   -2.941176e+00,   -5.000000e-01,   -1.333333e+00
     852,   -5.882353e+00,    5.000000e-01,    6.666667e-01
     853,   -2.941176e+00,    2.498002e-16,    6.666667e-01
     854,   -2.941176e+00,    5.000000e-01,    1.333333e+00
     855,   -5.882353e+00,    5.000000e-01,   -6.666667e-01
     856,   -2.941176e+00,   -8.326673e-17,   -6.666667e-01
     857,   -2.941176e+00,    5.000000e-01,   -5.551115e-17
     858,   -2.941176e+00,    5.000000e-01,   -1.333333e+00
     859,   -2.941176e+00,    1.000000e+00,    6.666667e-01
     860,   -2.941176e+00,    1.000000e+00,   -6.666667e-01
     861,   -8.437695e-15,   -5.000000e-01,    6.666667e-01
     862,    2.941176e+00,   -1.000000e+00,    6.666667e-01
     863,    2.941176e+00,   -5.000000e-01,    1.333333e+00
     864,   -1.110223e-14,   -5.000000e-01,   -6.666667e-01
     865,    2.941176e+00,   -1.000000e+00,   -6.666667e-01
     866,    2.941176e+00,   -5.000000e-01,   -2.220446e-16
     867,    2.941176e+00,   -5.000000e-01,   -1.333333e+00
     868,   -3.330669e-15,    5.000000e-01,    6.666667e-01
     869,    2.941176e+00,    5.551115e-17,    6.666667e-01
     870,    2.941176e+00,    5.000000e-01,    1.333333e+00
     871,   -1.776357e-15,    5.000000e-01,   -6.666667e-01
     872,    2.941176e+00,   -5.551115e-17,   -6.666667e-01
     873,    2.941176e+00,    5.000000e-01,   -2.220446e-16
     874,    2.941176e+00,    5.000000e-01,   -1.333333e+00
     875,    2.941176e+00,    1.000000e+00,    6.666667e-01
     876,    2.941176e+00,    1.000000e+00,   -6.666667e-01
     877,    5.882353e+00,   -5.000000e-01,    6.666667e-01
     878,    8.823529e+00,   -1.000000e+00,    6.666667e-01
     879,    8.823529e+00,   -5.000000e-01,    1.333333e+00
     880,    5.882353e+00,   -5.000000e-01,   -6.666667e-01
     881,    8.823529e+00,   -1.000000e+00,   -6.666667e-01
     882,    8.823529e+00,   -5.000000e-01,   -1.665335e-16
     883,    8.823529e+00,   -5.000000e-01,   -1.333333e+00
     884,    5.882353e+00,    5.000000e-01,    6.666667e-01
     885,    8.823529e+00,    1.110223e-16,    6.666667e-01
     886,    8.823529e+00,    5.000000e-01,    1.333333e+00
     887,    5.882353e+00,    5.000000e-01,   -6.666667e-01
     888,    8.823529e+00,    1.110223e-16,   -6.666667e-01
     889,    8.823529e+00,    5.000000e-01,    0.000000e+00
     890,    8.823529e+00,    5.000000e-01,   -1.333333e+00
     891,    8.823529e+00,    1.000000e+00,    6.666667e-01
     892,    8.823529e+00,    1.000000e+00,   -6.666667e-01
     893,    1.176471e+01,   -5.000000e-01,    6.666667e-01
     894,    1.470588e+01,   -1.000000e+00,    6.666667e-01
     895,    1.470588e+01,   -5.000000e-01,    1.333333e+00
     896,    1.176471e+01,   -5.000000e-01,   -6.666667e-01
     897,    1.470588e+01,   -1.000000e+00,   -6.666667e-01
     898,    1.470588e+01,   -5.000000e-01,   -2.775558e-16
     899,    1.470588e+01,   -5.000000e-01,   -1.333333e+00
     900,    1.176471e+01,    5.000000e-01,    6.666667e-01
     901,    1.470588e+01,    1.110223e-16,    6.666667e-01
     902,    1.470588e+01,    5.000000e-01,    1.333333e+00
     903,    1.176471e+01,    5.000000e-01,   -6.666667e-01
     904,    1.470588e+01,    1.110223e-16,   -6.666667e-01
     905,    1.470588e+01,    5.000000e-01,   -2.775558e-16
     906,    1.470588e+01,    5.000000e-01,   -1.333333e+00
     907,    1.470588e+01,    1.000000e+00,    6.666667e-01
     908,    1.470588e+01,    1.000000e+00,   -6.666667e-01
     909,    1.764706e+01,   -5.000000e-01,    6.666667e-01
     910,    2.058824e+01,   -1.000000e+00,    6.666667e-01
     911,    2.058824e+01,   -5.000000e-01,    1.333333e+00
     912,    1.764706e+01,   -5.000000e-01,   -6.666667e-01
     913,    2.058824e+01,   -1.000000e+00,   -6.666667e-01
     914,    2.058824e+01,   -5.000000e-01,    0.000000e+00
     915,    2.058824e+01,   -5.000000e-01,   -1.333333e+00
     916,    1.764706e+01,    5.000000e-01,    6.666667e-01
     917,    2.058824e+01,    1.110223e-16,    6.666667e-01
     918,    2.058824e+01,    5.000000e-01,    1.333333e+00
     919,    1.764706e+01,    5.000000e-01,   -6.666667e-01
     920,    2.058824e+01,   -1.110223e-16,   -6.666667e-01
     921,    2.058824e+01,    5.000000e-01,    0.000000e+00
     922,    2.058824e+01,    5.000000e-01,   -1.333333e+00
     923,    2.058824e+01,    1.000000e+00,    6.666667e-01
     924,    2.058824e+01,    1.000000e+00,   -6.666667e-01
     925,    2.352941e+01,   -5.000000e-01,    6.666667e-01
     926,    2.647059e+01,   -1.000000e+00,    6.666667e-01
     927,    2.647059e+01,   -5.000000e-01,    1.333333e+00
     928,    2.352941e+01,   -5.000000e-01,   -6.666667e-01
     929,    2.647059e+01,   -1.000000e+00,   -6.666667e-01
     930,    2.647059e+01,   -5.000000e-01,   -1.110223e-16
     931,    2.647059e+01,   -5.000000e-01,   -1.333333e+00
     932,    2.352941e+01,    5.000000e-01,    6.666667e-01
     933,    2.647059e+01,    5.551115e-17,    6.666667e-01
     934,    2.647059e+01,    5.000000e-01,    1.333333e+00
     935,    2.352941e+01,    5.000000e-01,   -6.666667e-01
     936,    2.647059e+01,    1.942890e-16,   -6.666667e-01
     937,    2.647059e+01,    5.000000e-01,    5.551115e-17
     938,    2.647059e+01,    5.000000e-01,   -1.333333e+00
     939,    2.647059e+01,    1.000000e+00,    6.666667e-01
     940,    2.647059e+01,    1.000000e+00,   -6.666667e-01
     941,    2.941176e+01,   -5.000000e-01,    6.666667e-01
     942,    3.235294e+01,   -1.000000e+00,    6.666667e-01
     943,    3.235294e+01,   -5.000000e-01,    1.333333e+00
     944,    2.941176e+01,   -5.000000e-01,   -6.666667e-01
     945,    3.235294e+01,   -1.000000e+00,   -6.666667e-01
     946,    3.235294e+01,   -5.000000e-01,    1.110223e-16
     947,    3.235294e+01,   -5.000000e-01,   -1.333333e+00
     948,    2.941176e+01,    5.000000e-01,    6.666667e-01
     949,    3.235294e+01,    1.665335e-16,    6.666667e-01
     950,    3.235294e+01,    5.000000e-01,    1.333333e+00
     951,    2.941176e+01,    5.000000e-01,   -6.666667e-01
     952,    3.235294e+01,    1.110223e-16,   -6.666667e-01
     953,    3.235294e+01,    5.000000e-01,    1.110223e-16
     954,    3.235294e+01,    5.000000e-01,   -1.333333e+00
     955,    3.235294e+01,    1.000000e+00,    6.666667e-01
     956,    3.235294e+01,    1.000000e+00,   -6.666667e-01
     957,    3.529412e+01,   -5.000000e-01,    6.666667e-01
     958,    3.823529e+01,   -1.000000e+00,    6.666667e-01
     959,    3.823529e+01,   -5.000000e-01,    1.333333e+00
     960,    3.529412e+01,   -5.000000e-01,   -6.666667e-01
     961,    3.823529e+01,   -1.000000e+00,   -6.666667e-01
     962,    3.823529e+01,   -5.000000e-01,   -1.665335e-16
     963,    3.823529e+01,   -5.000000e-01,   -1.333333e+00
     964,    3.529412e+01,    5.000000e-01,    6.666667e-01
     965,    3.823529e+01,    0.000000e+00,    6.666667e-01
     966,    3.823529e+01,    5.000000e-01,    1.333333e+00
     967,    3.529412e+01,    5.000000e-01,   -6.666667e-01
     968,    3.823529e+01,   -1.665335e-16,   -6.666667e-01
     969,    3.823529e+01,    5.000000e-01,   -2.220446e-16
     970,    3.823529e+01,    5.000000e-01,   -1.333333e+00
     971,    3.823529e+01,    1.000000e+00,    6.666667e-01
     972,    3.823529e+01,    1.000000e+00,   -6.666667e-01
     973,    4.117647e+01,   -5.000000e-01,    6.666667e-01
     974,    4.411765e+01,   -1.000000e+00,    6.666667e-01
     975,    4.411765e+01,   -5.000000e-01,    1.333333e+00
     976,    4.117647e+01,   -5.000000e-01,   -6.666667e-01
     977,    4.411765e+01,   -1.000000e+00,   -6.666667e-01
     978,    4.411765e+01,   -5.000000e-01,   -5.551115e-17
     979,    4.411765e+01,   -5.000000e-01,   -1.333333e+00
     980,    4.117647e+01,    5.000000e-01,    6.666667e-01
     981,    4.411765e+01,    2.220446e-16,    6.666667e-01
     982,    4.411765e+01,    5.000000e-01,    1.333333e+00
     983,    4.117647e+01,    5.000000e-01,   -6.666667e-01
     984,    4.411765e+01,    5.551115e-17,   -6.666667e-01
     985,    4.411765e+01,    5.000000e-01,   -1.110223e-16
     986,    4.411765e+01,    5.000000e-01,   -1.333333e+00
     987,    4.411765e+01,    1.000000e+00,    6.666667e-01
     988,    4.411765e+01,    1.000000e+00,   -6.666667e-01
     989,    4.705882e+01,   -5.000000e-01,    6.666667e-01
     990,    4.705882e+01,   -5.000000e-01,   -6.666667e-01
     991,    4.705882e+01,    5.000000e-01,    6.666667e-01
     992,    4.705882e+01,    5.000000e-01,   -6.666667e-01
********************************** E L E M E N T S ****************************
*ELEMENT, TYPE=C3D20R, ELSET=beam
       1,      25,     147,     187,      27,      28,     151,     225,      74,     533,     634,     630,     311,     540,     734,     735,     405,     312,     539,     733,     409
       2,     147,     148,     188,     187,     151,     152,     226,     225,     534,     635,     632,     634,     542,     737,     738,     734,     539,     541,     736,     733
       3,     148,      79,      97,     188,     152,      95,     146,     226,     535,     431,     633,     635,     543,     530,     739,     737,     541,     430,     532,     736
       4,      27,     187,     185,      26,      74,     225,     227,      75,     630,     629,     625,     310,     735,     741,     742,     407,     409,     733,     740,     410
       5,     187,     188,     186,     185,     225,     226,     228,     227,     632,     631,     627,     629,     738,     744,     745,     741,     733,     736,     743,     740
       6,     188,      97,      98,     186,     226,     146,     145,     228,     633,     432,     628,     631,     739,     529,     746,     744,     736,     532,     531,     743
       7,      26,     185,     183,       8,      75,     227,     219,      24,     625,     624,     621,     309,     742,     747,     715,     408,     410,     740,     719,     308
       8,     185,     186,     184,     183,     227,     228,     220,     219,     627,     626,     622,     624,     745,     748,     717,     747,     740,     743,     720,     719
       9,     186,      98,      96,     184,     228,     145,      99,     220,     628,     433,     623,     626,     746,     527,     718,     748,     743,     531,     434,     720
      10,      28,     151,     225,      74,      29,     153,     229,      72,     540,     734,     735,     405,     545,     750,     751,     400,     313,     544,     749,     404
      11,     151,     152,     226,     225,     153,     154,     230,     229,     542,     737,     738,     734,     547,     753,     754,     750,     544,     546,     752,     749
      12,     152,      95,     146,     226,     154,      94,     144,     230,     543,     530,     739,     737,     548,     525,     755,     753,     546,     429,     528,     752
      13,      74,     225,     227,      75,      72,     229,     231,      73,     735,     741,     742,     407,     751,     757,     758,     402,     404,     749,     756,     406
      14,     225,     226,     228,     227,     229,     230,     232,     231,     738,     744,     745,     741,     754,     760,     761,     757,     749,     752,     759,     756
      15,     226,     146,     145,     228,     230,     144,     143,     232,     739,     529,     746,     744,     755,     524,     762,     760,     752,     528,     526,     759
      16,      75,     227,     219,      24,      73,     231,     217,      23,     742,     747,     715,     408,     758,     763,     710,     403,     406,     756,     714,     307
      17,     227,     228,     220,     219,     231,     232,     218,     217,     745,     748,     717,     747,     761,     764,     712,     763,     756,     759,     716,     714
      18,     228,     145,      99,     220,     232,     143,     100,     218,     746,     527,     718,     748,     762,     522,     713,     764,     759,     526,     435,     716
      19,      29,     153,     229,      72,      30,     155,     233,      70,     545,     750,     751,     400,     550,     766,     767,     395,     314,     549,     765,     399
      20,     153,     154,     230,     229,     155,     156,     234,     233,     547,     753,     754,     750,     552,     769,     770,     766,     549,     551,     768,     765
      21,     154,      94,     144,     230,     156,      93,     142,     234,     548,     525,     755,     753,     553,     520,     771,     769,     551,     428,     523,     768
      22,      72,     229,     231,      73,      70,     233,     235,      71,     751,     757,     758,     402,     767,     773,     774,     397,     399,     765,     772,     401
      23,     229,     230,     232,     231,     233,     234,     236,     235,     754,     760,     761,     757,     770,     776,     777,     773,     765,     768,     775,     772
      24,     230,     144,     143,     232,     234,     142,     141,     236,     755,     524,     762,     760,     771,     519,     778,     776,     768,     523,     521,     775
      25,      73,     231,     217,      23,      71,     235,     215,      22,     758,     763,     710,     403,     774,     779,     705,     398,     401,     772,     709,     306
      26,     231,     232,     218,     217,     235,     236,     216,     215,     761,     764,     712,     763,     777,     780,     707,     779,     772,     775,     711,     709
      27,     232,     143,     100,     218,     236,     141,     101,     216,     762,     522,     713,     764,     778,     517,     708,     780,     775,     521,     436,     711
      28,      30,     155,     233,      70,      31,     157,     237,      68,     550,     766,     767,     395,     555,     782,     783,     390,     315,     554,     781,     394
      29,     155,     156,     234,     233,     157,     158,     238,     237,     552,     769,     770,     766,     557,     785,     786,     782,     554,     556,     784,     781
      30,     156,      93,     142,     234,     158,      92,     140,     238,     553,     520,     771,     769,     558,     515,     787,     785,     556,     427,     518,     784
      31,      70,     233,     235,      71,      68,     237,     239,      69,     767,     773,     774,     397,     783,     789,     790,     392,     394,     781,     788,     396
      32,     233,     234,     236,     235,     237,     238,     240,     239,     770,     776,     777,     773,     786,     792,     793,     789,     781,     784,     791,     788
      33,     234,     142,     141,     236,     238,     140,     139,     240,     771,     519,     778,     776,     787,     514,     794,     792,     784,     518,     516,     791
      34,      71,     235,     215,      22,      69,     239,     213,      21,     774,     779,     705,     398,     790,     795,     700,     393,     396,     788,     704,     305
      35,     235,     236,     216,     215,     239,     240,     214,     213,     777,     780,     707,     779,     793,     796,     702,     795,     788,     791,     706,     704
      36,     236,     141,     101,     216,     240,     139,     102,     214,     778,     517,     708,     780,     794,     512,     703,     796,     791,     516,     437,     706
      37,      31,     157,     237,      68,      32,     159,     241,      66,     555,     782,     783,     390,     560,     798,     799,     385,     316,     559,     797,     389
      38,     157,     158,     238,     237,     159,     160,     242,     241,     557,     785,     786,     782,     562,     801,     802,     798,     559,     561,     800,     797
      39,     158,      92,     140,     238,     160,      91,     138,     242,     558,     515,     787,     785,     563,     510,     803,     801,     561,     426,     513,     800
      40,      68,     237,     239,      69,      66,     241,     243,      67,     783,     789,     790,     392,     799,     805,     806,     387,     389,     797,     804,     391
      41,     237,     238,     240,     239,     241,     242,     244,     243,     786,     792,     793,     789,     802,     808,     809,     805,     797,     800,     807,     804
      42,     238,     140,     139,     240,     242,     138,     137,     244,     787,     514,     794,     792,     803,     509,     810,     808,     800,     513,     511,     807
      43,      69,     239,     213,      21,      67,     243,     211,      20,     790,     795,     700,     393,     806,     811,     695,     388,     391,     804,     699,     304
      44,     239,     240,     214,     213,     243,     244,     212,     211,     793,     796,     702,     795,     809,     812,     697,     811,     804,     807,     701,     699
      45,     240,     139,     102,     214,     244,     137,     103,     212,     794,     512,     703,     796,     810,     507,     698,     812,     807,     511,     438,     701
      46,      32,     159,     241,      66,      33,     161,     245,      64,     560,     798,     799,     385,     565,     814,     815,     380,     317,     564,     813,     384
      47,     159,     160,     242,     241,     161,     162,     246,     245,     562,     801,     802,     798,     567,     817,     818,     814,     564,     566,     816,     813
      48,     160,      91,     138,     242,     162,      90,     136,     246,     563,     510,     803,     801,     568,     505,     819,     817,     566,     425,     508,     816
      49,      66,     241,     243,      67,      64,     245,     247,      65,     799,     805,     806,     387,     815,     821,     822,     382,     384,     813,     820,     386
      50,     241,     242,     244,     243,     245,     246,     248,     247,     802,     808,     809,     805,     818,     824,     825,     821,     813,     816,     823,     820
      51,     242,     138,     137,     244,     246,     136,     135,     248,     803,     509,     810,     808,     819,     504,     826,     824,     816,     508,     506,     823
      52,      67,     243,     211,      20,      65,     247,     209,      19,     806,     811,     695,     388,     822,     827,     690,     383,     386,     820,     694,     303
      53,     243,     244,     212,     211,     247,     248,     210,     209,     809,     812,     697,     811,     825,     828,     692,     827,     820,     823,     696,     694
      54,     244,     137,     103,     212,     248,     135,     104,     210,     810,     507,     698,     812,     826,     502,     693,     828,     823,     506,     439,     696
      55,      33,     161,     245,      64,      34,     163,     249,      62,     565,     814,     815,     380,     570,     830,     831,     375,     318,     569,     829,     379
      56,     161,     162,     246,     245,     163,     164,     250,     249,     567,     817,     818,     814,     572,     833,     834,     830,     569,     571,     832,     829
      57,     162,      90,     136,     246,     164,      89,     134,     250,     568,     505,     819,     817,     573,     500,     835,     833,     571,     424,     503,     832
      58,      64,     245,     247,      65,      62,     249,     251,      63,     815,     821,     822,     382,     831,     837,     838,     377,     379,     829,     836,     381
      59,     245,     246,     248,     247,     249,     250,     252,     251,     818,     824,     825,     821,     834,     840,     841,     837,     829,     832,     839,     836
      60,     246,     136,     135,     248,     250,     134,     133,     252,     819,     504,     826,     824,     835,     499,     842,     840,     832,     503,     501,     839
      61,      65,     247,     209,      19,      63,     251,     207,      18,     822,     827,     690,     383,     838,     843,     685,     378,     381,     836,     689,     302
      62,     247,     248,     210,     209,     251,     252,     208,     207,     825,     828,     692,     827,     841,     844,     687,     843,     836,     839,     691,     689
      63,     248,     135,     104,     210,     252,     133,     105,     208,     826,     502,     693,     828,     842,     497,     688,     844,     839,     501,     440,     691
      64,      34,     163,     249,      62,      35,     165,     253,      60,     570,     830,     831,     375,     575,     846,     847,     370,     319,     574,     845,     374
      65,     163,     164,     250,     249,     165,     166,     254,     253,     572,     833,     834,     830,     577,     849,     850,     846,     574,     576,     848,     845
      66,     164,      89,     134,     250,     166,      88,     132,     254,     573,     500,     835,     833,     578,     495,     851,     849,     576,     423,     498,     848
      67,      62,     249,     251,      63,      60,     253,     255,      61,     831,     837,     838,     377,     847,     853,     854,     372,     374,     845,     852,     376
      68,     249,     250,     252,     251,     253,     254,     256,     255,     834,     840,     841,     837,     850,     856,     857,     853,     845,     848,     855,     852
      69,     250,     134,     133,     252,     254,     132,     131,     256,     835,     499,     842,     840,     851,     494,     858,     856,     848,     498,     496,     855
      70,      63,     251,     207,      18,      61,     255,     205,      17,     838,     843,     685,     378,     854,     859,     680,     373,     376,     852,     684,     301
      71,     251,     252,     208,     207,     255,     256,     206,     205,     841,     844,     687,     843,     857,     860,     682,     859,     852,     855,     686,     684
      72,     252,     133,     105,     208,     256,     131,     106,     206,     842,     497,     688,     844,     858,     492,     683,     860,     855,     496,     441,     686
      73,      35,     165,     253,      60,      36,     167,     257,      58,     575,     846,     847,     370,     580,     862,     863,     365,     320,     579,     861,     369
      74,     165,     166,     254,     253,     167,     168,     258,     257,     577,     849,     850,     846,     582,     865,     866,     862,     579,     581,     864,     861
      75,     166,      88,     132,     254,     168,      87,     130,     258,     578,     495,     851,     849,     583,     490,     867,     865,     581,     422,     493,     864
      76,      60,     253,     255,      61,      58,     257,     259,      59,     847,     853,     854,     372,     863,     869,     870,     367,     369,     861,     868,     371
      77,     253,     254,     256,     255,     257,     258,     260,     259,     850,     856,     857,     853,     866,     872,     873,     869,     861,     864,     871,     868
      78,     254,     132,     131,     256,     258,     130,     129,     260,     851,     494,     858,     856,     867,     489,     874,     872,     864,     493,     491,     871
      79,      61,     255,     205,      17,      59,     259,     203,      16,     854,     859,     680,     373,     870,     875,     675,     368,     371,     868,     679,     300
      80,     255,     256,     206,     205,     259,     260,     204,     203,     857,     860,     682,     859,     873,     876,     677,     875,     868,     871,     681,     679
      81,     256,     131,     106,     206,     260,     129,     107,     204,     858,     492,     683,     860,     874,     487,     678,     876,     871,     491,     442,     681
      82,      36,     167,     257,      58,      37,     169,     261,      56,     580,     862,     863,     365,     585,     878,     879,     360,     321,     584,     877,     364
      83,     167,     168,     258,     257,     169,     170,     262,     261,     582,     865,     866,     862,     587,     881,     882,     878,     584,     586,     880,     877
      84,     168,      87,     130,     258,     170,      86,     128,     262,     583,     490,     867,     865,     588,     485,     883,     881,     586,     421,     488,     880
      85,      58,     257,     259,      59,      56,     261,     263,      57,     863,     869,     870,     367,     879,     885,     886,     362,     364,     877,     884,     366
      86,     257,     258,     260,     259,     261,     262,     264,     263,     866,     872,     873,     869,     882,     888,     889,     885,     877,     880,     887,     884
      87,     258,     130,     129,     260,     262,     128,     127,     264,     867,     489,     874,     872,     883,     484,     890,     888,     880,     488,     486,     887
      88,      59,     259,     203,      16,      57,     263,     201,      15,     870,     875,     675,     368,     886,     891,     670,     363,     366,     884,     674,     299
      89,     259,     260,     204,     203,     263,     264,     202,     201,     873,     876,     677,     875,     889,     892,     672,     891,     884,     887,     676,     674
      90,     260,     129,     107,     204,     264,     127,     108,     202,     874,     487,     678,     876,     890,     482,     673,     892,     887,     486,     443,     676
      91,      37,     169,     261,      56,      38,     171,     265,      54,     585,     878,     879,     360,     590,     894,     895,     355,     322,     589,     893,     359
      92,     169,     170,     262,     261,     171,     172,     266,     265,     587,     881,     882,     878,     592,     897,     898,     894,     589,     591,     896,     893
      93,     170,      86,     128,     262,     172,      85,     126,     266,     588,     485,     883,     881,     593,     480,     899,     897,     591,     420,     483,     896
      94,      56,     261,     263,      57,      54,     265,     267,      55,     879,     885,     886,     362,     895,     901,     902,     357,     359,     893,     900,     361
      95,     261,     262,     264,     263,     265,     266,     268,     267,     882,     888,     889,     885,     898,     904,     905,     901,     893,     896,     903,     900
      96,     262,     128,     127,     264,     266,     126,     125,     268,     883,     484,     890,     888,     899,     479,     906,     904,     896,     483,     481,     903
      97,      57,     263,     201,      15,      55,     267,     199,      14,     886,     891,     670,     363,     902,     907,     665,     358,     361,     900,     669,     298
      98,     263,     264,     202,     201,     267,     268,     200,     199,     889,     892,     672,     891,     905,     908,     667,     907,     900,     903,     671,     669
      99,     264,     127,     108,     202,     268,     125,     109,     200,     890,     482,     673,     892,     906,     477,     668,     908,     903,     481,     444,     671
     100,      38,     171,     265,      54,      39,     173,     269,      52,     590,     894,     895,     355,     595,     910,     911,     350,     323,     594,     909,     354
     101,     171,     172,     266,     265,     173,     174,     270,     269,     592,     897,     898,     894,     597,     913,     914,     910,     594,     596,     912,     909
     102,     172,      85,     126,     266,     174,      84,     124,     270,     593,     480,     899,     897,     598,     475,     915,     913,     596,     419,     478,     912
     103,      54,     265,     267,      55,      52,     269,     271,      53,     895,     901,     902,     357,     911,     917,     918,     352,     354,     909,     916,     356
     104,     265,     266,     268,     267,     269,     270,     272,     271,     898,     904,     905,     901,     914,     920,     921,     917,     909,     912,     919,     916
     105,     266,     126,     125,     268,     270,     124,     123,     272,     899,     479,     906,     904,     915,     474,     922,     920,     912,     478,     476,     919
     106,      55,     267,     199,      14,      53,     271,     197,      13,     902,     907,     665,     358,     918,     923,     660,     353,     356,     916,     664,     297
     107,     267,     268,     200,     199,     271,     272,     198,     197,     905,     908,     667,     907,     921,     924,     662,     923,     916,     919,     666,     664
     108,     268,     125,     109,     200,     272,     123,     110,     198,     906,     477,     668,     908,     922,     472,     663,     924,     919,     476,     445,     666
     109,      39,     173,     269,      52,      40,     175,     273,      50,     595,     910,     911,     350,     600,     926,     927,     345,     324,     599,     925,     349
     110,     173,     174,     270,     269,     175,     176,     274,     273,     597,     913,     914,     910,     602,     929,     930,     926,     599,     601,     928,     925
     111,     174,      84,     124,     270,     176,      83,     122,     274,     598,     475,     915,     913,     603,     470,     931,     929,     601,     418,     473,     928
     112,      52,     269,     271,      53,      50,     273,     275,      51,     911,     917,     918,     352,     927,     933,     934,     347,     349,     925,     932,     351
     113,     269,     270,     272,     271,     273,     274,     276,     275,     914,     920,     921,     917,     930,     936,     937,     933,     925,     928,     935,     932
     114,     270,     124,     123,     272,     274,     122,     121,     276,     915,     474,     922,     920,     931,     469,     938,     936,     928,     473,     471,     935
     115,      53,     271,     197,      13,      51,     275,     195,      12,     918,     923,     660,     353,     934,     939,     655,     348,     351,     932,     659,     296
     116,     271,     272,     198,     197,     275,     276,     196,     195,     921,     924,     662,     923,     937,     940,     657,     939,     932,     935,     661,     659
     117,     272,     123,     110,     198,     276,     121,     111,     196,     922,     472,     663,     924,     938,     467,     658,     940,     935,     471,     446,     661
     118,      40,     175,     273,      50,      41,     177,     277,      48,     600,     926,     927,     345,     605,     942,     943,     340,     325,     604,     941,     344
     119,     175,     176,     274,     273,     177,     178,     278,     277,     602,     929,     930,     926,     607,     945,     946,     942,     604,     606,     944,     941
     120,     176,      83,     122,     274,     178,      82,     120,     278,     603,     470,     931,     929,     608,     465,     947,     945,     606,     417,     468,     944
     121,      50,     273,     275,      51,      48,     277,     279,      49,     927,     933,     934,     347,     943,     949,     950,     342,     344,     941,     948,     346
     122,     273,     274,     276,     275,     277,     278,     280,     279,     930,     936,     937,     933,     946,     952,     953,     949,     941,     944,     951,     948
     123,     274,     122,     121,     276,     278,     120,     119,     280,     931,     469,     938,     936,     947,     464,     954,     952,     944,     468,     466,     951
     124,      51,     275,     195,      12,      49,     279,     193,      11,     934,     939,     655,     348,     950,     955,     650,     343,     346,     948,     654,     295
     125,     275,     276,     196,     195,     279,     280,     194,     193,     937,     940,     657,     939,     953,     956,     652,     955,     948,     951,     656,     654
     126,     276,     121,     111,     196,     280,     119,     112,     194,     938,     467,     658,     940,     954,     462,     653,     956,     951,     466,     447,     656
     127,      41,     177,     277,      48,      42,     179,     281,      46,     605,     942,     943,     340,     610,     958,     959,     335,     326,     609,     957,     339
     128,     177,     178,     278,     277,     179,     180,     282,     281,     607,     945,     946,     942,     612,     961,     962,     958,     609,     611,     960,     957
     129,     178,      82,     120,     278,     180,      81,     118,     282,     608,     465,     947,     945,     613,     460,     963,     961,     611,     416,     463,     960
     130,      48,     277,     279,      49,      46,     281,     283,      47,     943,     949,     950,     342,     959,     965,     966,     337,     339,     957,     964,     341
     131,     277,     278,     280,     279,     281,     282,     284,     283,     946,     952,     953,     949,     962,     968,     969,     965,     957,     960,     967,     964
     132,     278,     120,     119,     280,     282,     118,     117,     284,     947,     464,     954,     952,     963,     459,     970,     968,     960,     463,     461,     967
     133,      49,     279,     193,      11,      47,     283,     191,      10,     950,     955,     650,     343,     966,     971,     645,     338,     341,     964,     649,     294
     134,     279,     280,     194,     193,     283,     284,     192,     191,     953,     956,     652,     955,     969,     972,     647,     971,     964,     967,     651,     649
     135,     280,     119,     112,     194,     284,     117,     113,     192,     954,     462,     653,     956,     970,     457,     648,     972,     967,     461,     448,     651
     136,      42,     179,     281,      46,      43,     181,     285,      44,     610,     958,     959,     335,     615,     974,     975,     330,     327,     614,     973,     334
     137,     179,     180,     282,     281,     181,     182,     286,     285,     612,     961,     962,     958,     617,     977,     978,     974,     614,     616,     976,     973
     138,     180,      81,     118,     282,     182,      80,     116,     286,     613,     460,     963,     961,     618,     455,     979,     977,     616,     415,     458,     976
     139,      46,     281,     283,      47,      44,     285,     287,      45,     959,     965,     966,     337,     975,     981,     982,     332,     334,     973,     980,     336
     140,     281,     282,     284,     283,     285,     286,     288,     287,     962,     968,     969,     965,     978,     984,     985,     981,     973,     976,     983,     980
     141,     282,     118,     117,     284,     286,     116,     115,     288,     963,     459,     970,     968,     979,     454,     986,     984,     976,     458,     456,     983
     142,      47,     283,     191,      10,      45,     287,     189,       9,     966,     971,     645,     338,     982,     987,     640,     333,     336,     980,     644,     293
     143,     283,     284,     192,     191,     287,     288,     190,     189,     969,     972,     647,     971,     985,     988,     642,     987,     980,     983,     646,     644
     144,     284,     117,     113,     192,     288,     115,     114,     190,     970,     457,     648,     972,     986,     452,     643,     988,     983,     456,     449,     646
     145,      43,     181,     285,      44,       1,     149,     221,       3,     615,     974,     975,     330,     536,     721,     722,     289,     328,     619,     989,     329
     146,     181,     182,     286,     285,     149,     150,     222,     221,     617,     977,     978,     974,     537,     723,     724,     721,     619,     620,     990,     989
     147,     182,      80,     116,     286,     150,      76,      78,     222,     618,     455,     979,     977,     538,     413,     725,     723,     620,     414,     453,     990
     148,      44,     285,     287,      45,       3,     221,     223,       4,     975,     981,     982,     332,     722,     726,     727,     290,     329,     989,     991,     331
     149,     285,     286,     288,     287,     221,     222,     224,     223,     978,     984,     985,     981,     724,     728,     729,     726,     989,     990,     992,     991
     150,     286,     116,     115,     288,     222,      78,      77,     224,     979,     454,     986,     984,     725,     412,     730,     728,     990,     453,     451,     992
     151,      45,     287,     189,       9,       4,     223,       6,       2,     982,     987,     640,     333,     727,     731,     636,     291,     331,     991,     639,     292
     152,     287,     288,     190,     189,     223,     224,       7,       6,     985,     988,     642,     987,     729,     732,     637,     731,     991,     992,     641,     639
     153,     288,     115,     114,     190,     224,      77,       5,       7,     986,     452,     643,     988,     730,     411,     638,     732,     992,     451,     450,     641
********************************** N O D E S E T S **********************************
*NSET, NSET=BC_fix
       8,      25,      26,      27,      79,      96,
      97,      98,     147,     148,     183,     184,
     185,     186,     187,     188,     309,     310,
     311,     431,     432,     433,     533,     534,
     535,     621,     622,     623,     624,     625,
     626,     627,     628,     629,     630,     631,
     632,     633,     634,     635,
*NSET, NSET=reference_Load
       1,       2,       3,       4,       5,       6,
       7,      76,      77,      78,     149,     150,
     221,     222,     223,     224,     289,     290,
     291,     411,     412,     413,     536,     537,
     538,     636,     637,     638,     721,     722,
     723,     724,     725,     726,     727,     728,
     729,     730,     731,     732,
*NSET, NSET=BC_sym
       5,      76,      77,      78,      79,      80,
      81,      82,      83,      84,      85,      86,
      87,      88,      89,      90,      91,      92,
      93,      94,      95,      96,      97,      98,
      99,     100,     101,     102,     103,     104,
     105,     106,     107,     108,     109,     110,
     111,     112,     113,     114,     115,     116,
     117,     118,     119,     120,     121,     122,
     123,     124,     125,     126,     127,     128,
     129,     130,     131,     132,     133,     134,
     135,     136,     137,     138,     139,     140,
     141,     142,     143,     144,     145,     146,
     411,     412,     413,     414,     415,     416,
     417,     418,     419,     420,     421,     422,
     423,     424,     425,     426,     427,     428,
     429,     430,     431,     432,     433,     434,
     435,     436,     437,     438,     439,     440,
     441,     442,     443,     444,     445,     446,
     447,     448,     449,     450,     451,     452,
     453,     454,     455,     456,     457,     458,
     459,     460,     461,     462,     463,     464,
     465,     466,     467,     468,     469,     470,
     471,     472,     473,     474,     475,     476,
     477,     478,     479,     480,     481,     482,
     483,     484,     485,     486,     487,     488,
     489,     490,     491,     492,     493,     494,
     495,     496,     497,     498,     499,     500,
     501,     502,     503,     504,     505,     506,
     507,     508,     509,     510,     511,     512,
     513,     514,     515,     516,     517,     518,
     519,     520,     521,     522,     523,     524,
     525,     526,     527,     528,     529,     530,
     531,     532,
********************************** S I D E S E T S **********************************
*ELSET, ELSET=reference_Load_surface_S2
     145,     146,     147,     148,     149,     150,     151,     152,     153
*SURFACE, NAME=reference_Load_surface
reference_Load_surface_S2, S2
