$MeshFormat
2.2 0 8
$EndMeshFormat
$PhysicalNames
27
0 1 "P_NOB"
0 2 "P_NWB"
0 3 "P_SOB"
0 4 "P_SWB"
0 5 "P_NOT"
0 6 "P_NWT"
0 7 "P_SOT"
0 8 "P_SWT"
1 9 "L_NW"
1 10 "L_SW"
1 11 "L_SE"
1 12 "L_NO"
1 13 "L_NB"
1 14 "L_OB"
1 15 "L_SB"
1 16 "L_WB"
1 17 "L_NT"
1 18 "L_OT"
1 19 "L_ST"
1 20 "L_WT"
2 21 "S_N"
2 22 "S_O"
2 23 "S_S"
2 24 "S_W"
2 25 "S_B"
2 26 "S_T"
3 27 "V"
$EndPhysicalNames
$Nodes
44
1 -0.5 -0.5 0
2 0.5 -0.5 0
3 0.5 0.5 0
4 -0.5 0.5 0
5 -0.5 -0.5 1
6 0.5 -0.5 1
7 0.5 0.5 1
8 -0.5 0.5 1
9 -0.5 -0.5 0.1
10 -0.5 -0.5 0.2
11 -0.5 -0.5 0.3
12 -0.5 -0.5 0.4
13 -0.5 -0.5 0.5
14 -0.5 -0.5 0.6
15 -0.5 -0.5 0.7
16 -0.5 -0.5 0.8
17 -0.5 -0.5 0.9
18 0.5 -0.5 0.1
19 0.5 -0.5 0.2
20 0.5 -0.5 0.3
21 0.5 -0.5 0.4
22 0.5 -0.5 0.5
23 0.5 -0.5 0.6
24 0.5 -0.5 0.7
25 0.5 -0.5 0.8
26 0.5 -0.5 0.9
27 0.5 0.5 0.1
28 0.5 0.5 0.2
29 0.5 0.5 0.3
30 0.5 0.5 0.4
31 0.5 0.5 0.5
32 0.5 0.5 0.6
33 0.5 0.5 0.7
34 0.5 0.5 0.8
35 0.5 0.5 0.9
36 -0.5 0.5 0.1
37 -0.5 0.5 0.2
38 -0.5 0.5 0.3
39 -0.5 0.5 0.4
40 -0.5 0.5 0.5
41 -0.5 0.5 0.6
42 -0.5 0.5 0.7
43 -0.5 0.5 0.8
44 -0.5 0.5 0.9
$EndNodes
$Elements
108
1 15 2 4 1 1
2 15 2 3 2 2
3 15 2 1 3 3
4 15 2 2 4 4
5 15 2 8 5 5
6 15 2 7 6 6
7 15 2 5 10 7
8 15 2 6 14 8
9 1 2 15 1 1 2
10 1 2 14 2 2 3
11 1 2 13 3 3 4
12 1 2 16 4 4 1
13 1 2 19 6 5 6
14 1 2 18 7 6 7
15 1 2 17 8 7 8
16 1 2 20 9 8 5
17 1 2 10 11 1 9
18 1 2 10 11 9 10
19 1 2 10 11 10 11
20 1 2 10 11 11 12
21 1 2 10 11 12 13
22 1 2 10 11 13 14
23 1 2 10 11 14 15
24 1 2 10 11 15 16
25 1 2 10 11 16 17
26 1 2 10 11 17 5
27 1 2 11 12 2 18
28 1 2 11 12 18 19
29 1 2 11 12 19 20
30 1 2 11 12 20 21
31 1 2 11 12 21 22
32 1 2 11 12 22 23
33 1 2 11 12 23 24
34 1 2 11 12 24 25
35 1 2 11 12 25 26
36 1 2 11 12 26 6
37 1 2 12 16 3 27
38 1 2 12 16 27 28
39 1 2 12 16 28 29
40 1 2 12 16 29 30
41 1 2 12 16 30 31
42 1 2 12 16 31 32
43 1 2 12 16 32 33
44 1 2 12 16 33 34
45 1 2 12 16 34 35
46 1 2 12 16 35 7
47 1 2 9 20 4 36
48 1 2 9 20 36 37
49 1 2 9 20 37 38
50 1 2 9 20 38 39
51 1 2 9 20 39 40
52 1 2 9 20 40 41
53 1 2 9 20 41 42
54 1 2 9 20 42 43
55 1 2 9 20 43 44
56 1 2 9 20 44 8
57 3 2 25 1 1 2 3 4
58 3 2 23 13 1 2 18 9
59 3 2 23 13 9 18 19 10
60 3 2 23 13 10 19 20 11
61 3 2 23 13 11 20 21 12
62 3 2 23 13 12 21 22 13
63 3 2 23 13 13 22 23 14
64 3 2 23 13 14 23 24 15
65 3 2 23 13 15 24 25 16
66 3 2 23 13 16 25 26 17
67 3 2 23 13 17 26 6 5
68 3 2 22 17 2 3 27 18
69 3 2 22 17 18 27 28 19
70 3 2 22 17 19 28 29 20
71 3 2 22 17 20 29 30 21
72 3 2 22 17 21 30 31 22
73 3 2 22 17 22 31 32 23
74 3 2 22 17 23 32 33 24
75 3 2 22 17 24 33 34 25
76 3 2 22 17 25 34 35 26
77 3 2 22 17 26 35 7 6
78 3 2 21 21 3 4 36 27
79 3 2 21 21 27 36 37 28
80 3 2 21 21 28 37 38 29
81 3 2 21 21 29 38 39 30
82 3 2 21 21 30 39 40 31
83 3 2 21 21 31 40 41 32
84 3 2 21 21 32 41 42 33
85 3 2 21 21 33 42 43 34
86 3 2 21 21 34 43 44 35
87 3 2 21 21 35 44 8 7
88 3 2 24 25 4 1 9 36
89 3 2 24 25 36 9 10 37
90 3 2 24 25 37 10 11 38
91 3 2 24 25 38 11 12 39
92 3 2 24 25 39 12 13 40
93 3 2 24 25 40 13 14 41
94 3 2 24 25 41 14 15 42
95 3 2 24 25 42 15 16 43
96 3 2 24 25 43 16 17 44
97 3 2 24 25 44 17 5 8
98 3 2 26 26 5 6 7 8
99 5 2 27 1 1 2 3 4 9 18 27 36
100 5 2 27 1 9 18 27 36 10 19 28 37
101 5 2 27 1 10 19 28 37 11 20 29 38
102 5 2 27 1 11 20 29 38 12 21 30 39
103 5 2 27 1 12 21 30 39 13 22 31 40
104 5 2 27 1 13 22 31 40 14 23 32 41
105 5 2 27 1 14 23 32 41 15 24 33 42
106 5 2 27 1 15 24 33 42 16 25 34 43
107 5 2 27 1 16 25 34 43 17 26 35 44
108 5 2 27 1 17 26 35 44 5 6 7 8
$EndElements
