[Info]
Version 1
Dimension 2
NumNodes 651
Num3DElements 0
Num2DElements 600
Num1DElements 0
NumNodeBC 23
NumSaveNodes 0
NumSaveElements 0
Num 2d-line      : 0
Num 2d-line,quad : 0
Num 3d-line      : 0
Num 3d-line,quad : 0
Num triangle     : 0
Num triangle,quad: 0
Num quadr        : 600
Num quadr,quad   : 0
Num tetra        : 0
Num tetra,quad   : 0
Num brick        : 0
Num brick,quad   : 0
Num pyramid      : 0
Num pyramid,quad : 0
Num wedge        : 0
Num wedge,quad   : 0

[Nodes]
#NodeNr x-coord y-coord z-coord
       1  0.0000000000000e+00  2.0000000000000e+00  0.0000000000000e+00 
       2  1.0000000000000e-01  2.0000000000000e+00  0.0000000000000e+00 
       3  0.0000000000000e+00  1.9000000000000e+00  0.0000000000000e+00 
       4  1.0000000000000e-01  1.9000000000000e+00  0.0000000000000e+00 
       5  2.0000000000000e-01  2.0000000000000e+00  0.0000000000000e+00 
       6  0.0000000000000e+00  1.8000000000000e+00  0.0000000000000e+00 
       7  2.0000000000000e-01  1.9000000000000e+00  0.0000000000000e+00 
       8  1.0000000000000e-01  1.8000000000000e+00  0.0000000000000e+00 
       9  2.0000000000000e-01  1.8000000000000e+00  0.0000000000000e+00 
      10  3.0000000000000e-01  2.0000000000000e+00  0.0000000000000e+00 
      11  0.0000000000000e+00  1.7000000000000e+00  0.0000000000000e+00 
      12  1.0000000000000e-01  1.7000000000000e+00  0.0000000000000e+00 
      13  3.0000000000000e-01  1.9000000000000e+00  0.0000000000000e+00 
      14  3.0000000000000e-01  1.8000000000000e+00  0.0000000000000e+00 
      15  2.0000000000000e-01  1.7000000000000e+00  0.0000000000000e+00 
      16  0.0000000000000e+00  1.6000000000000e+00  0.0000000000000e+00 
      17  4.0000000000000e-01  2.0000000000000e+00  0.0000000000000e+00 
      18  1.0000000000000e-01  1.6000000000000e+00  0.0000000000000e+00 
      19  4.0000000000000e-01  1.9000000000000e+00  0.0000000000000e+00 
      20  3.0000000000000e-01  1.7000000000000e+00  0.0000000000000e+00 
      21  2.0000000000000e-01  1.6000000000000e+00  0.0000000000000e+00 
      22  4.0000000000000e-01  1.8000000000000e+00  0.0000000000000e+00 
      23  3.0000000000000e-01  1.6000000000000e+00  0.0000000000000e+00 
      24  5.0000000000000e-01  2.0000000000000e+00  0.0000000000000e+00 
      25  0.0000000000000e+00  1.5000000000000e+00  0.0000000000000e+00 
      26  4.0000000000000e-01  1.7000000000000e+00  0.0000000000000e+00 
      27  5.0000000000000e-01  1.9000000000000e+00  0.0000000000000e+00 
      28  1.0000000000000e-01  1.5000000000000e+00  0.0000000000000e+00 
      29  2.0000000000000e-01  1.5000000000000e+00  0.0000000000000e+00 
      30  5.0000000000000e-01  1.8000000000000e+00  0.0000000000000e+00 
      31  4.0000000000000e-01  1.6000000000000e+00  0.0000000000000e+00 
      32  5.0000000000000e-01  1.7000000000000e+00  0.0000000000000e+00 
      33  3.0000000000000e-01  1.5000000000000e+00  0.0000000000000e+00 
      34  6.0000000000000e-01  2.0000000000000e+00  0.0000000000000e+00 
      35  0.0000000000000e+00  1.4000000000000e+00  0.0000000000000e+00 
      36  1.0000000000000e-01  1.4000000000000e+00  0.0000000000000e+00 
      37  6.0000000000000e-01  1.9000000000000e+00  0.0000000000000e+00 
      38  6.0000000000000e-01  1.8000000000000e+00  0.0000000000000e+00 
      39  2.0000000000000e-01  1.4000000000000e+00  0.0000000000000e+00 
      40  5.0000000000000e-01  1.6000000000000e+00  0.0000000000000e+00 
      41  4.0000000000000e-01  1.5000000000000e+00  0.0000000000000e+00 
      42  3.0000000000000e-01  1.4000000000000e+00  0.0000000000000e+00 
      43  6.0000000000000e-01  1.7000000000000e+00  0.0000000000000e+00 
      44  7.0000000000000e-01  2.0000000000000e+00  0.0000000000000e+00 
      45  0.0000000000000e+00  1.3000000000000e+00  0.0000000000000e+00 
      46  7.0000000000000e-01  1.9000000000000e+00  0.0000000000000e+00 
      47  1.0000000000000e-01  1.3000000000000e+00  0.0000000000000e+00 
      48  5.0000000000000e-01  1.5000000000000e+00  0.0000000000000e+00 
      49  6.0000000000000e-01  1.6000000000000e+00  0.0000000000000e+00 
      50  4.0000000000000e-01  1.4000000000000e+00  0.0000000000000e+00 
      51  2.0000000000000e-01  1.3000000000000e+00  0.0000000000000e+00 
      52  7.0000000000000e-01  1.8000000000000e+00  0.0000000000000e+00 
      53  3.0000000000000e-01  1.3000000000000e+00  0.0000000000000e+00 
      54  7.0000000000000e-01  1.7000000000000e+00  0.0000000000000e+00 
      55  5.0000000000000e-01  1.4000000000000e+00  0.0000000000000e+00 
      56  6.0000000000000e-01  1.5000000000000e+00  0.0000000000000e+00 
      57  8.0000000000000e-01  2.0000000000000e+00  0.0000000000000e+00 
      58  0.0000000000000e+00  1.2000000000000e+00  0.0000000000000e+00 
      59  7.0000000000000e-01  1.6000000000000e+00  0.0000000000000e+00 
      60  4.0000000000000e-01  1.3000000000000e+00  0.0000000000000e+00 
      61  1.0000000000000e-01  1.2000000000000e+00  0.0000000000000e+00 
      62  8.0000000000000e-01  1.9000000000000e+00  0.0000000000000e+00 
      63  2.0000000000000e-01  1.2000000000000e+00  0.0000000000000e+00 
      64  8.0000000000000e-01  1.8000000000000e+00  0.0000000000000e+00 
      65  6.0000000000000e-01  1.4000000000000e+00  0.0000000000000e+00 
      66  3.0000000000000e-01  1.2000000000000e+00  0.0000000000000e+00 
      67  8.0000000000000e-01  1.7000000000000e+00  0.0000000000000e+00 
      68  5.0000000000000e-01  1.3000000000000e+00  0.0000000000000e+00 
      69  7.0000000000000e-01  1.5000000000000e+00  0.0000000000000e+00 
      70  8.0000000000000e-01  1.6000000000000e+00  0.0000000000000e+00 
      71  4.0000000000000e-01  1.2000000000000e+00  0.0000000000000e+00 
      72  9.0000000000000e-01  2.0000000000000e+00  0.0000000000000e+00 
      73  0.0000000000000e+00  1.1000000000000e+00  0.0000000000000e+00 
      74  1.0000000000000e-01  1.1000000000000e+00  0.0000000000000e+00 
      75  9.0000000000000e-01  1.9000000000000e+00  0.0000000000000e+00 
      76  2.0000000000000e-01  1.1000000000000e+00  0.0000000000000e+00 
      77  6.0000000000000e-01  1.3000000000000e+00  0.0000000000000e+00 
      78  7.0000000000000e-01  1.4000000000000e+00  0.0000000000000e+00 
      79  9.0000000000000e-01  1.8000000000000e+00  0.0000000000000e+00 
      80  5.0000000000000e-01  1.2000000000000e+00  0.0000000000000e+00 
      81  8.0000000000000e-01  1.5000000000000e+00  0.0000000000000e+00 
      82  3.0000000000000e-01  1.1000000000000e+00  0.0000000000000e+00 
      83  9.0000000000000e-01  1.7000000000000e+00  0.0000000000000e+00 
      84  9.0000000000000e-01  1.6000000000000e+00  0.0000000000000e+00 
      85  4.0000000000000e-01  1.1000000000000e+00  0.0000000000000e+00 
      86  7.0000000000000e-01  1.3000000000000e+00  0.0000000000000e+00 
      87  0.0000000000000e+00  1.0000000000000e+00  0.0000000000000e+00 
      88  1.0000000000000e+00  2.0000000000000e+00  0.0000000000000e+00 
      89  6.0000000000000e-01  1.2000000000000e+00  0.0000000000000e+00 
      90  8.0000000000000e-01  1.4000000000000e+00  0.0000000000000e+00 
      91  1.0000000000000e+00  1.9000000000000e+00  0.0000000000000e+00 
      92  1.0000000000000e-01  1.0000000000000e+00  0.0000000000000e+00 
      93  1.0000000000000e+00  1.8000000000000e+00  0.0000000000000e+00 
      94  2.0000000000000e-01  1.0000000000000e+00  0.0000000000000e+00 
      95  5.0000000000000e-01  1.1000000000000e+00  0.0000000000000e+00 
      96  9.0000000000000e-01  1.5000000000000e+00  0.0000000000000e+00 
      97  1.0000000000000e+00  1.7000000000000e+00  0.0000000000000e+00 
      98  3.0000000000000e-01  1.0000000000000e+00  0.0000000000000e+00 
      99  7.0000000000000e-01  1.2000000000000e+00  0.0000000000000e+00 
     100  8.0000000000000e-01  1.3000000000000e+00  0.0000000000000e+00 
     101  1.0000000000000e+00  1.6000000000000e+00  0.0000000000000e+00 
     102  4.0000000000000e-01  1.0000000000000e+00  0.0000000000000e+00 
     103  6.0000000000000e-01  1.1000000000000e+00  0.0000000000000e+00 
     104  9.0000000000000e-01  1.4000000000000e+00  0.0000000000000e+00 
     105  0.0000000000000e+00  9.0000000000000e-01  0.0000000000000e+00 
     106  1.1000000000000e+00  2.0000000000000e+00  0.0000000000000e+00 
     107  1.0000000000000e-01  9.0000000000000e-01  0.0000000000000e+00 
     108  1.1000000000000e+00  1.9000000000000e+00  0.0000000000000e+00 
     109  2.0000000000000e-01  9.0000000000000e-01  0.0000000000000e+00 
     110  1.1000000000000e+00  1.8000000000000e+00  0.0000000000000e+00 
     111  5.0000000000000e-01  1.0000000000000e+00  0.0000000000000e+00 
     112  1.0000000000000e+00  1.5000000000000e+00  0.0000000000000e+00 
     113  8.0000000000000e-01  1.2000000000000e+00  0.0000000000000e+00 
     114  7.0000000000000e-01  1.1000000000000e+00  0.0000000000000e+00 
     115  9.0000000000000e-01  1.3000000000000e+00  0.0000000000000e+00 
     116  3.0000000000000e-01  9.0000000000000e-01  0.0000000000000e+00 
     117  1.1000000000000e+00  1.7000000000000e+00  0.0000000000000e+00 
     118  6.0000000000000e-01  1.0000000000000e+00  0.0000000000000e+00 
     119  1.0000000000000e+00  1.4000000000000e+00  0.0000000000000e+00 
     120  1.1000000000000e+00  1.6000000000000e+00  0.0000000000000e+00 
     121  4.0000000000000e-01  9.0000000000000e-01  0.0000000000000e+00 
     122  0.0000000000000e+00  8.0000000000000e-01  0.0000000000000e+00 
     123  1.2000000000000e+00  2.0000000000000e+00  0.0000000000000e+00 
     124  1.0000000000000e-01  8.0000000000000e-01  0.0000000000000e+00 
     125  9.0000000000000e-01  1.2000000000000e+00  0.0000000000000e+00 
     126  8.0000000000000e-01  1.1000000000000e+00  0.0000000000000e+00 
     127  1.2000000000000e+00  1.9000000000000e+00  0.0000000000000e+00 
     128  5.0000000000000e-01  9.0000000000000e-01  0.0000000000000e+00 
     129  1.1000000000000e+00  1.5000000000000e+00  0.0000000000000e+00 
     130  1.2000000000000e+00  1.8000000000000e+00  0.0000000000000e+00 
     131  2.0000000000000e-01  8.0000000000000e-01  0.0000000000000e+00 
     132  7.0000000000000e-01  1.0000000000000e+00  0.0000000000000e+00 
     133  1.0000000000000e+00  1.3000000000000e+00  0.0000000000000e+00 
     134  1.2000000000000e+00  1.7000000000000e+00  0.0000000000000e+00 
     135  3.0000000000000e-01  8.0000000000000e-01  0.0000000000000e+00 
     136  6.0000000000000e-01  9.0000000000000e-01  0.0000000000000e+00 
     137  1.1000000000000e+00  1.4000000000000e+00  0.0000000000000e+00 
     138  1.2000000000000e+00  1.6000000000000e+00  0.0000000000000e+00 
     139  4.0000000000000e-01  8.0000000000000e-01  0.0000000000000e+00 
     140  9.0000000000000e-01  1.1000000000000e+00  0.0000000000000e+00 
     141  8.0000000000000e-01  1.0000000000000e+00  0.0000000000000e+00 
     142  1.0000000000000e+00  1.2000000000000e+00  0.0000000000000e+00 
     143  5.0000000000000e-01  8.0000000000000e-01  0.0000000000000e+00 
     144  1.2000000000000e+00  1.5000000000000e+00  0.0000000000000e+00 
     145  0.0000000000000e+00  7.0000000000000e-01  0.0000000000000e+00 
     146  1.3000000000000e+00  2.0000000000000e+00  0.0000000000000e+00 
     147  7.0000000000000e-01  9.0000000000000e-01  0.0000000000000e+00 
     148  1.0000000000000e-01  7.0000000000000e-01  0.0000000000000e+00 
     149  1.1000000000000e+00  1.3000000000000e+00  0.0000000000000e+00 
     150  1.3000000000000e+00  1.9000000000000e+00  0.0000000000000e+00 
     151  2.0000000000000e-01  7.0000000000000e-01  0.0000000000000e+00 
     152  1.3000000000000e+00  1.8000000000000e+00  0.0000000000000e+00 
     153  1.3000000000000e+00  1.7000000000000e+00  0.0000000000000e+00 
     154  3.0000000000000e-01  7.0000000000000e-01  0.0000000000000e+00 
     155  6.0000000000000e-01  8.0000000000000e-01  0.0000000000000e+00 
     156  1.2000000000000e+00  1.4000000000000e+00  0.0000000000000e+00 
     157  9.0000000000000e-01  1.0000000000000e+00  0.0000000000000e+00 
     158  1.0000000000000e+00  1.1000000000000e+00  0.0000000000000e+00 
     159  1.3000000000000e+00  1.6000000000000e+00  0.0000000000000e+00 
     160  8.0000000000000e-01  9.0000000000000e-01  0.0000000000000e+00 
     161  4.0000000000000e-01  7.0000000000000e-01  0.0000000000000e+00 
     162  1.1000000000000e+00  1.2000000000000e+00  0.0000000000000e+00 
     163  7.0000000000000e-01  8.0000000000000e-01  0.0000000000000e+00 
     164  1.2000000000000e+00  1.3000000000000e+00  0.0000000000000e+00 
     165  1.3000000000000e+00  1.5000000000000e+00  0.0000000000000e+00 
     166  5.0000000000000e-01  7.0000000000000e-01  0.0000000000000e+00 
     167  0.0000000000000e+00  6.0000000000000e-01  0.0000000000000e+00 
     168  1.4000000000000e+00  2.0000000000000e+00  0.0000000000000e+00 
     169  1.0000000000000e-01  6.0000000000000e-01  0.0000000000000e+00 
     170  1.4000000000000e+00  1.9000000000000e+00  0.0000000000000e+00 
     171  1.4000000000000e+00  1.8000000000000e+00  0.0000000000000e+00 
     172  1.0000000000000e+00  1.0000000000000e+00  0.0000000000000e+00 
     173  2.0000000000000e-01  6.0000000000000e-01  0.0000000000000e+00 
     174  9.0000000000000e-01  9.0000000000000e-01  0.0000000000000e+00 
     175  1.1000000000000e+00  1.1000000000000e+00  0.0000000000000e+00 
     176  1.4000000000000e+00  1.7000000000000e+00  0.0000000000000e+00 
     177  3.0000000000000e-01  6.0000000000000e-01  0.0000000000000e+00 
     178  1.3000000000000e+00  1.4000000000000e+00  0.0000000000000e+00 
     179  6.0000000000000e-01  7.0000000000000e-01  0.0000000000000e+00 
     180  1.2000000000000e+00  1.2000000000000e+00  0.0000000000000e+00 
     181  8.0000000000000e-01  8.0000000000000e-01  0.0000000000000e+00 
     182  4.0000000000000e-01  6.0000000000000e-01  0.0000000000000e+00 
     183  1.4000000000000e+00  1.6000000000000e+00  0.0000000000000e+00 
     184  1.3000000000000e+00  1.3000000000000e+00  0.0000000000000e+00 
     185  7.0000000000000e-01  7.0000000000000e-01  0.0000000000000e+00 
     186  5.0000000000000e-01  6.0000000000000e-01  0.0000000000000e+00 
     187  1.1000000000000e+00  1.0000000000000e+00  0.0000000000000e+00 
     188  1.0000000000000e+00  9.0000000000000e-01  0.0000000000000e+00 
     189  1.4000000000000e+00  1.5000000000000e+00  0.0000000000000e+00 
     190  9.0000000000000e-01  8.0000000000000e-01  0.0000000000000e+00 
     191  1.5000000000000e+00  2.0000000000000e+00  0.0000000000000e+00 
     192  0.0000000000000e+00  5.0000000000000e-01  0.0000000000000e+00 
     193  1.2000000000000e+00  1.1000000000000e+00  0.0000000000000e+00 
     194  1.0000000000000e-01  5.0000000000000e-01  0.0000000000000e+00 
     195  1.5000000000000e+00  1.9000000000000e+00  0.0000000000000e+00 
     196  1.5000000000000e+00  1.8000000000000e+00  0.0000000000000e+00 
     197  2.0000000000000e-01  5.0000000000000e-01  0.0000000000000e+00 
     198  6.0000000000000e-01  6.0000000000000e-01  0.0000000000000e+00 
     199  1.4000000000000e+00  1.4000000000000e+00  0.0000000000000e+00 
     200  1.3000000000000e+00  1.2000000000000e+00  0.0000000000000e+00 
     201  8.0000000000000e-01  7.0000000000000e-01  0.0000000000000e+00 
     202  1.5000000000000e+00  1.7000000000000e+00  0.0000000000000e+00 
     203  3.0000000000000e-01  5.0000000000000e-01  0.0000000000000e+00 
     204  1.5000000000000e+00  1.6000000000000e+00  0.0000000000000e+00 
     205  4.0000000000000e-01  5.0000000000000e-01  0.0000000000000e+00 
     206  1.1000000000000e+00  9.0000000000000e-01  0.0000000000000e+00 
     207  1.0000000000000e+00  8.0000000000000e-01  0.0000000000000e+00 
     208  1.2000000000000e+00  1.0000000000000e+00  0.0000000000000e+00 
     209  7.0000000000000e-01  6.0000000000000e-01  0.0000000000000e+00 
     210  1.4000000000000e+00  1.3000000000000e+00  0.0000000000000e+00 
     211  1.3000000000000e+00  1.1000000000000e+00  0.0000000000000e+00 
     212  1.5000000000000e+00  1.5000000000000e+00  0.0000000000000e+00 
     213  5.0000000000000e-01  5.0000000000000e-01  0.0000000000000e+00 
     214  9.0000000000000e-01  7.0000000000000e-01  0.0000000000000e+00 
     215  0.0000000000000e+00  4.0000000000000e-01  0.0000000000000e+00 
     216  1.6000000000000e+00  2.0000000000000e+00  0.0000000000000e+00 
     217  1.0000000000000e-01  4.0000000000000e-01  0.0000000000000e+00 
     218  1.6000000000000e+00  1.9000000000000e+00  0.0000000000000e+00 
     219  1.4000000000000e+00  1.2000000000000e+00  0.0000000000000e+00 
     220  8.0000000000000e-01  6.0000000000000e-01  0.0000000000000e+00 
     221  2.0000000000000e-01  4.0000000000000e-01  0.0000000000000e+00 
     222  1.6000000000000e+00  1.8000000000000e+00  0.0000000000000e+00 
     223  1.5000000000000e+00  1.4000000000000e+00  0.0000000000000e+00 
     224  6.0000000000000e-01  5.0000000000000e-01  0.0000000000000e+00 
     225  3.0000000000000e-01  4.0000000000000e-01  0.0000000000000e+00 
     226  1.1000000000000e+00  8.0000000000000e-01  0.0000000000000e+00 
     227  1.2000000000000e+00  9.0000000000000e-01  0.0000000000000e+00 
     228  1.6000000000000e+00  1.7000000000000e+00  0.0000000000000e+00 
     229  1.0000000000000e+00  7.0000000000000e-01  0.0000000000000e+00 
     230  1.3000000000000e+00  1.0000000000000e+00  0.0000000000000e+00 
     231  4.0000000000000e-01  4.0000000000000e-01  0.0000000000000e+00 
     232  1.6000000000000e+00  1.6000000000000e+00  0.0000000000000e+00 
     233  1.5000000000000e+00  1.3000000000000e+00  0.0000000000000e+00 
     234  7.0000000000000e-01  5.0000000000000e-01  0.0000000000000e+00 
     235  1.4000000000000e+00  1.1000000000000e+00  0.0000000000000e+00 
     236  9.0000000000000e-01  6.0000000000000e-01  0.0000000000000e+00 
     237  5.0000000000000e-01  4.0000000000000e-01  0.0000000000000e+00 
     238  1.6000000000000e+00  1.5000000000000e+00  0.0000000000000e+00 
     239  1.2000000000000e+00  8.0000000000000e-01  0.0000000000000e+00 
     240  0.0000000000000e+00  3.0000000000000e-01  0.0000000000000e+00 
     241  1.7000000000000e+00  2.0000000000000e+00  0.0000000000000e+00 
     242  8.0000000000000e-01  5.0000000000000e-01  0.0000000000000e+00 
     243  1.5000000000000e+00  1.2000000000000e+00  0.0000000000000e+00 
     244  1.0000000000000e-01  3.0000000000000e-01  0.0000000000000e+00 
     245  1.7000000000000e+00  1.9000000000000e+00  0.0000000000000e+00 
     246  1.3000000000000e+00  9.0000000000000e-01  0.0000000000000e+00 
     247  1.1000000000000e+00  7.0000000000000e-01  0.0000000000000e+00 
     248  6.0000000000000e-01  4.0000000000000e-01  0.0000000000000e+00 
     249  1.6000000000000e+00  1.4000000000000e+00  0.0000000000000e+00 
     250  1.7000000000000e+00  1.8000000000000e+00  0.0000000000000e+00 
     251  2.0000000000000e-01  3.0000000000000e-01  0.0000000000000e+00 
     252  1.0000000000000e+00  6.0000000000000e-01  0.0000000000000e+00 
     253  1.4000000000000e+00  1.0000000000000e+00  0.0000000000000e+00 
     254  1.7000000000000e+00  1.7000000000000e+00  0.0000000000000e+00 
     255  3.0000000000000e-01  3.0000000000000e-01  0.0000000000000e+00 
     256  1.7000000000000e+00  1.6000000000000e+00  0.0000000000000e+00 
     257  4.0000000000000e-01  3.0000000000000e-01  0.0000000000000e+00 
     258  7.0000000000000e-01  4.0000000000000e-01  0.0000000000000e+00 
     259  1.6000000000000e+00  1.3000000000000e+00  0.0000000000000e+00 
     260  1.5000000000000e+00  1.1000000000000e+00  0.0000000000000e+00 
     261  9.0000000000000e-01  5.0000000000000e-01  0.0000000000000e+00 
     262  1.2000000000000e+00  7.0000000000000e-01  0.0000000000000e+00 
     263  1.3000000000000e+00  8.0000000000000e-01  0.0000000000000e+00 
     264  1.7000000000000e+00  1.5000000000000e+00  0.0000000000000e+00 
     265  5.0000000000000e-01  3.0000000000000e-01  0.0000000000000e+00 
     266  1.1000000000000e+00  6.0000000000000e-01  0.0000000000000e+00 
     267  1.4000000000000e+00  9.0000000000000e-01  0.0000000000000e+00 
     268  8.0000000000000e-01  4.0000000000000e-01  0.0000000000000e+00 
     269  1.6000000000000e+00  1.2000000000000e+00  0.0000000000000e+00 
     270  1.8000000000000e+00  2.0000000000000e+00  0.0000000000000e+00 
     271  0.0000000000000e+00  2.0000000000000e-01  0.0000000000000e+00 
     272  1.7000000000000e+00  1.4000000000000e+00  0.0000000000000e+00 
     273  6.0000000000000e-01  3.0000000000000e-01  0.0000000000000e+00 
     274  1.0000000000000e+00  5.0000000000000e-01  0.0000000000000e+00 
     275  1.5000000000000e+00  1.0000000000000e+00  0.0000000000000e+00 
     276  1.0000000000000e-01  2.0000000000000e-01  0.0000000000000e+00 
     277  1.8000000000000e+00  1.9000000000000e+00  0.0000000000000e+00 
     278  2.0000000000000e-01  2.0000000000000e-01  0.0000000000000e+00 
     279  1.8000000000000e+00  1.8000000000000e+00  0.0000000000000e+00 
     280  3.0000000000000e-01  2.0000000000000e-01  0.0000000000000e+00 
     281  1.8000000000000e+00  1.7000000000000e+00  0.0000000000000e+00 
     282  9.0000000000000e-01  4.0000000000000e-01  0.0000000000000e+00 
     283  1.6000000000000e+00  1.1000000000000e+00  0.0000000000000e+00 
     284  7.0000000000000e-01  3.0000000000000e-01  0.0000000000000e+00 
     285  1.7000000000000e+00  1.3000000000000e+00  0.0000000000000e+00 
     286  1.3000000000000e+00  7.0000000000000e-01  0.0000000000000e+00 
     287  1.4000000000000e+00  8.0000000000000e-01  0.0000000000000e+00 
     288  4.0000000000000e-01  2.0000000000000e-01  0.0000000000000e+00 
     289  1.2000000000000e+00  6.0000000000000e-01  0.0000000000000e+00 
     290  1.8000000000000e+00  1.6000000000000e+00  0.0000000000000e+00 
     291  1.5000000000000e+00  9.0000000000000e-01  0.0000000000000e+00 
     292  1.1000000000000e+00  5.0000000000000e-01  0.0000000000000e+00 
     293  5.0000000000000e-01  2.0000000000000e-01  0.0000000000000e+00 
     294  1.8000000000000e+00  1.5000000000000e+00  0.0000000000000e+00 
     295  1.7000000000000e+00  1.2000000000000e+00  0.0000000000000e+00 
     296  8.0000000000000e-01  3.0000000000000e-01  0.0000000000000e+00 
     297  1.0000000000000e+00  4.0000000000000e-01  0.0000000000000e+00 
     298  1.6000000000000e+00  1.0000000000000e+00  0.0000000000000e+00 
     299  6.0000000000000e-01  2.0000000000000e-01  0.0000000000000e+00 
     300  1.8000000000000e+00  1.4000000000000e+00  0.0000000000000e+00 
     301  0.0000000000000e+00  1.0000000000000e-01  0.0000000000000e+00 
     302  1.9000000000000e+00  2.0000000000000e+00  0.0000000000000e+00 
     303  1.0000000000000e-01  1.0000000000000e-01  0.0000000000000e+00 
     304  1.9000000000000e+00  1.9000000000000e+00  0.0000000000000e+00 
     305  1.4000000000000e+00  7.0000000000000e-01  0.0000000000000e+00 
     306  2.0000000000000e-01  1.0000000000000e-01  0.0000000000000e+00 
     307  1.3000000000000e+00  6.0000000000000e-01  0.0000000000000e+00 
     308  1.9000000000000e+00  1.8000000000000e+00  0.0000000000000e+00 
     309  1.5000000000000e+00  8.0000000000000e-01  0.0000000000000e+00 
     310  1.2000000000000e+00  5.0000000000000e-01  0.0000000000000e+00 
     311  1.7000000000000e+00  1.1000000000000e+00  0.0000000000000e+00 
     312  3.0000000000000e-01  1.0000000000000e-01  0.0000000000000e+00 
     313  9.0000000000000e-01  3.0000000000000e-01  0.0000000000000e+00 
     314  1.9000000000000e+00  1.7000000000000e+00  0.0000000000000e+00 
     315  7.0000000000000e-01  2.0000000000000e-01  0.0000000000000e+00 
     316  1.8000000000000e+00  1.3000000000000e+00  0.0000000000000e+00 
     317  1.1000000000000e+00  4.0000000000000e-01  0.0000000000000e+00 
     318  1.9000000000000e+00  1.6000000000000e+00  0.0000000000000e+00 
     319  4.0000000000000e-01  1.0000000000000e-01  0.0000000000000e+00 
     320  1.6000000000000e+00  9.0000000000000e-01  0.0000000000000e+00 
     321  5.0000000000000e-01  1.0000000000000e-01  0.0000000000000e+00 
     322  1.9000000000000e+00  1.5000000000000e+00  0.0000000000000e+00 
     323  8.0000000000000e-01  2.0000000000000e-01  0.0000000000000e+00 
     324  1.8000000000000e+00  1.2000000000000e+00  0.0000000000000e+00 
     325  1.7000000000000e+00  1.0000000000000e+00  0.0000000000000e+00 
     326  1.0000000000000e+00  3.0000000000000e-01  0.0000000000000e+00 
     327  1.4000000000000e+00  6.0000000000000e-01  0.0000000000000e+00 
     328  1.5000000000000e+00  7.0000000000000e-01  0.0000000000000e+00 
     329  1.3000000000000e+00  5.0000000000000e-01  0.0000000000000e+00 
     330  6.0000000000000e-01  1.0000000000000e-01  0.0000000000000e+00 
     331  1.9000000000000e+00  1.4000000000000e+00  0.0000000000000e+00 
     332  0.0000000000000e+00  0.0000000000000e+00  0.0000000000000e+00 
     333  2.0000000000000e+00  2.0000000000000e+00  0.0000000000000e+00 
     334  1.2000000000000e+00  4.0000000000000e-01  0.0000000000000e+00 
     335  1.6000000000000e+00  8.0000000000000e-01  0.0000000000000e+00 
     336  2.0000000000000e+00  1.9000000000000e+00  0.0000000000000e+00 
     337  1.0000000000000e-01  0.0000000000000e+00  0.0000000000000e+00 
     338  2.0000000000000e+00  1.8000000000000e+00  0.0000000000000e+00 
     339  2.0000000000000e-01  0.0000000000000e+00  0.0000000000000e+00 
     340  9.0000000000000e-01  2.0000000000000e-01  0.0000000000000e+00 
     341  1.8000000000000e+00  1.1000000000000e+00  0.0000000000000e+00 
     342  2.0000000000000e+00  1.7000000000000e+00  0.0000000000000e+00 
     343  3.0000000000000e-01  0.0000000000000e+00  0.0000000000000e+00 
     344  7.0000000000000e-01  1.0000000000000e-01  0.0000000000000e+00 
     345  1.1000000000000e+00  3.0000000000000e-01  0.0000000000000e+00 
     346  1.9000000000000e+00  1.3000000000000e+00  0.0000000000000e+00 
     347  1.7000000000000e+00  9.0000000000000e-01  0.0000000000000e+00 
     348  2.0000000000000e+00  1.6000000000000e+00  0.0000000000000e+00 
     349  4.0000000000000e-01  0.0000000000000e+00  0.0000000000000e+00 
     350  1.5000000000000e+00  6.0000000000000e-01  0.0000000000000e+00 
     351  1.4000000000000e+00  5.0000000000000e-01  0.0000000000000e+00 
     352  1.8000000000000e+00  1.0000000000000e+00  0.0000000000000e+00 
     353  1.0000000000000e+00  2.0000000000000e-01  0.0000000000000e+00 
     354  2.0000000000000e+00  1.5000000000000e+00  0.0000000000000e+00 
     355  5.0000000000000e-01  0.0000000000000e+00  0.0000000000000e+00 
     356  8.0000000000000e-01  1.0000000000000e-01  0.0000000000000e+00 
     357  1.9000000000000e+00  1.2000000000000e+00  0.0000000000000e+00 
     358  1.3000000000000e+00  4.0000000000000e-01  0.0000000000000e+00 
     359  1.6000000000000e+00  7.0000000000000e-01  0.0000000000000e+00 
     360  1.7000000000000e+00  8.0000000000000e-01  0.0000000000000e+00 
     361  1.2000000000000e+00  3.0000000000000e-01  0.0000000000000e+00 
     362  2.0000000000000e+00  1.4000000000000e+00  0.0000000000000e+00 
     363  6.0000000000000e-01  0.0000000000000e+00  0.0000000000000e+00 
     364  2.1000000000000e+00  2.0000000000000e+00  0.0000000000000e+00 
     365  9.0000000000000e-01  1.0000000000000e-01  0.0000000000000e+00 
     366  1.9000000000000e+00  1.1000000000000e+00  0.0000000000000e+00 
     367  2.1000000000000e+00  1.9000000000000e+00  0.0000000000000e+00 
     368  1.1000000000000e+00  2.0000000000000e-01  0.0000000000000e+00 
     369  2.1000000000000e+00  1.8000000000000e+00  0.0000000000000e+00 
     370  1.8000000000000e+00  9.0000000000000e-01  0.0000000000000e+00 
     371  2.0000000000000e+00  1.3000000000000e+00  0.0000000000000e+00 
     372  7.0000000000000e-01  0.0000000000000e+00  0.0000000000000e+00 
     373  1.5000000000000e+00  5.0000000000000e-01  0.0000000000000e+00 
     374  2.1000000000000e+00  1.7000000000000e+00  0.0000000000000e+00 
     375  1.4000000000000e+00  4.0000000000000e-01  0.0000000000000e+00 
     376  1.6000000000000e+00  6.0000000000000e-01  0.0000000000000e+00 
     377  2.1000000000000e+00  1.6000000000000e+00  0.0000000000000e+00 
     378  1.7000000000000e+00  7.0000000000000e-01  0.0000000000000e+00 
     379  1.3000000000000e+00  3.0000000000000e-01  0.0000000000000e+00 
     380  1.9000000000000e+00  1.0000000000000e+00  0.0000000000000e+00 
     381  1.0000000000000e+00  1.0000000000000e-01  0.0000000000000e+00 
     382  2.0000000000000e+00  1.2000000000000e+00  0.0000000000000e+00 
     383  8.0000000000000e-01  0.0000000000000e+00  0.0000000000000e+00 
     384  2.1000000000000e+00  1.5000000000000e+00  0.0000000000000e+00 
     385  1.8000000000000e+00  8.0000000000000e-01  0.0000000000000e+00 
     386  1.2000000000000e+00  2.0000000000000e-01  0.0000000000000e+00 
     387  2.1000000000000e+00  1.4000000000000e+00  0.0000000000000e+00 
     388  2.0000000000000e+00  1.1000000000000e+00  0.0000000000000e+00 
     389  9.0000000000000e-01  0.0000000000000e+00  0.0000000000000e+00 
     390  1.5000000000000e+00  4.0000000000000e-01  0.0000000000000e+00 
     391  1.6000000000000e+00  5.0000000000000e-01  0.0000000000000e+00 
     392  1.1000000000000e+00  1.0000000000000e-01  0.0000000000000e+00 
     393  1.9000000000000e+00  9.0000000000000e-01  0.0000000000000e+00 
     394  2.2000000000000e+00  2.0000000000000e+00  0.0000000000000e+00 
     395  1.7000000000000e+00  6.0000000000000e-01  0.0000000000000e+00 
     396  1.4000000000000e+00  3.0000000000000e-01  0.0000000000000e+00 
     397  2.2000000000000e+00  1.9000000000000e+00  0.0000000000000e+00 
     398  2.2000000000000e+00  1.8000000000000e+00  0.0000000000000e+00 
     399  2.1000000000000e+00  1.3000000000000e+00  0.0000000000000e+00 
     400  1.3000000000000e+00  2.0000000000000e-01  0.0000000000000e+00 
     401  2.2000000000000e+00  1.7000000000000e+00  0.0000000000000e+00 
     402  1.8000000000000e+00  7.0000000000000e-01  0.0000000000000e+00 
     403  1.0000000000000e+00  0.0000000000000e+00  0.0000000000000e+00 
     404  2.0000000000000e+00  1.0000000000000e+00  0.0000000000000e+00 
     405  2.2000000000000e+00  1.6000000000000e+00  0.0000000000000e+00 
     406  1.9000000000000e+00  8.0000000000000e-01  0.0000000000000e+00 
     407  1.2000000000000e+00  1.0000000000000e-01  0.0000000000000e+00 
     408  2.1000000000000e+00  1.2000000000000e+00  0.0000000000000e+00 
     409  2.2000000000000e+00  1.5000000000000e+00  0.0000000000000e+00 
     410  1.6000000000000e+00  4.0000000000000e-01  0.0000000000000e+00 
     411  1.7000000000000e+00  5.0000000000000e-01  0.0000000000000e+00 
     412  1.5000000000000e+00  3.0000000000000e-01  0.0000000000000e+00 
     413  1.4000000000000e+00  2.0000000000000e-01  0.0000000000000e+00 
     414  2.2000000000000e+00  1.4000000000000e+00  0.0000000000000e+00 
     415  1.8000000000000e+00  6.0000000000000e-01  0.0000000000000e+00 
     416  1.1000000000000e+00  0.0000000000000e+00  0.0000000000000e+00 
     417  2.0000000000000e+00  9.0000000000000e-01  0.0000000000000e+00 
     418  2.1000000000000e+00  1.1000000000000e+00  0.0000000000000e+00 
     419  2.3000000000000e+00  2.0000000000000e+00  0.0000000000000e+00 
     420  2.3000000000000e+00  1.9000000000000e+00  0.0000000000000e+00 
     421  1.3000000000000e+00  1.0000000000000e-01  0.0000000000000e+00 
     422  1.9000000000000e+00  7.0000000000000e-01  0.0000000000000e+00 
     423  2.3000000000000e+00  1.8000000000000e+00  0.0000000000000e+00 
     424  2.2000000000000e+00  1.3000000000000e+00  0.0000000000000e+00 
     425  2.3000000000000e+00  1.7000000000000e+00  0.0000000000000e+00 
     426  2.1000000000000e+00  1.0000000000000e+00  0.0000000000000e+00 
     427  2.0000000000000e+00  8.0000000000000e-01  0.0000000000000e+00 
     428  1.2000000000000e+00  0.0000000000000e+00  0.0000000000000e+00 
     429  2.3000000000000e+00  1.6000000000000e+00  0.0000000000000e+00 
     430  1.7000000000000e+00  4.0000000000000e-01  0.0000000000000e+00 
     431  1.6000000000000e+00  3.0000000000000e-01  0.0000000000000e+00 
     432  2.2000000000000e+00  1.2000000000000e+00  0.0000000000000e+00 
     433  1.5000000000000e+00  2.0000000000000e-01  0.0000000000000e+00 
     434  1.8000000000000e+00  5.0000000000000e-01  0.0000000000000e+00 
     435  2.3000000000000e+00  1.5000000000000e+00  0.0000000000000e+00 
     436  1.4000000000000e+00  1.0000000000000e-01  0.0000000000000e+00 
     437  1.9000000000000e+00  6.0000000000000e-01  0.0000000000000e+00 
     438  2.1000000000000e+00  9.0000000000000e-01  0.0000000000000e+00 
     439  2.3000000000000e+00  1.4000000000000e+00  0.0000000000000e+00 
     440  2.2000000000000e+00  1.1000000000000e+00  0.0000000000000e+00 
     441  2.0000000000000e+00  7.0000000000000e-01  0.0000000000000e+00 
     442  1.3000000000000e+00  0.0000000000000e+00  0.0000000000000e+00 
     443  2.4000000000000e+00  2.0000000000000e+00  0.0000000000000e+00 
     444  2.4000000000000e+00  1.9000000000000e+00  0.0000000000000e+00 
     445  2.3000000000000e+00  1.3000000000000e+00  0.0000000000000e+00 
     446  1.7000000000000e+00  3.0000000000000e-01  0.0000000000000e+00 
     447  2.4000000000000e+00  1.8000000000000e+00  0.0000000000000e+00 
     448  1.6000000000000e+00  2.0000000000000e-01  0.0000000000000e+00 
     449  1.8000000000000e+00  4.0000000000000e-01  0.0000000000000e+00 
     450  2.2000000000000e+00  1.0000000000000e+00  0.0000000000000e+00 
     451  2.4000000000000e+00  1.7000000000000e+00  0.0000000000000e+00 
     452  2.1000000000000e+00  8.0000000000000e-01  0.0000000000000e+00 
     453  1.5000000000000e+00  1.0000000000000e-01  0.0000000000000e+00 
     454  1.9000000000000e+00  5.0000000000000e-01  0.0000000000000e+00 
     455  2.4000000000000e+00  1.6000000000000e+00  0.0000000000000e+00 
     456  2.3000000000000e+00  1.2000000000000e+00  0.0000000000000e+00 
     457  2.0000000000000e+00  6.0000000000000e-01  0.0000000000000e+00 
     458  1.4000000000000e+00  0.0000000000000e+00  0.0000000000000e+00 
     459  2.4000000000000e+00  1.5000000000000e+00  0.0000000000000e+00 
     460  2.2000000000000e+00  9.0000000000000e-01  0.0000000000000e+00 
     461  2.3000000000000e+00  1.1000000000000e+00  0.0000000000000e+00 
     462  2.1000000000000e+00  7.0000000000000e-01  0.0000000000000e+00 
     463  2.4000000000000e+00  1.4000000000000e+00  0.0000000000000e+00 
     464  1.7000000000000e+00  2.0000000000000e-01  0.0000000000000e+00 
     465  1.8000000000000e+00  3.0000000000000e-01  0.0000000000000e+00 
     466  1.6000000000000e+00  1.0000000000000e-01  0.0000000000000e+00 
     467  1.9000000000000e+00  4.0000000000000e-01  0.0000000000000e+00 
     468  2.0000000000000e+00  5.0000000000000e-01  0.0000000000000e+00 
     469  1.5000000000000e+00  0.0000000000000e+00  0.0000000000000e+00 
     470  2.5000000000000e+00  2.0000000000000e+00  0.0000000000000e+00 
     471  2.4000000000000e+00  1.3000000000000e+00  0.0000000000000e+00 
     472  2.5000000000000e+00  1.9000000000000e+00  0.0000000000000e+00 
     473  2.2000000000000e+00  8.0000000000000e-01  0.0000000000000e+00 
     474  2.3000000000000e+00  1.0000000000000e+00  0.0000000000000e+00 
     475  2.5000000000000e+00  1.8000000000000e+00  0.0000000000000e+00 
     476  2.5000000000000e+00  1.7000000000000e+00  0.0000000000000e+00 
     477  2.1000000000000e+00  6.0000000000000e-01  0.0000000000000e+00 
     478  2.4000000000000e+00  1.2000000000000e+00  0.0000000000000e+00 
     479  2.5000000000000e+00  1.6000000000000e+00  0.0000000000000e+00 
     480  1.8000000000000e+00  2.0000000000000e-01  0.0000000000000e+00 
     481  2.3000000000000e+00  9.0000000000000e-01  0.0000000000000e+00 
     482  2.5000000000000e+00  1.5000000000000e+00  0.0000000000000e+00 
     483  1.7000000000000e+00  1.0000000000000e-01  0.0000000000000e+00 
     484  1.9000000000000e+00  3.0000000000000e-01  0.0000000000000e+00 
     485  2.2000000000000e+00  7.0000000000000e-01  0.0000000000000e+00 
     486  2.0000000000000e+00  4.0000000000000e-01  0.0000000000000e+00 
     487  1.6000000000000e+00  0.0000000000000e+00  0.0000000000000e+00 
     488  2.4000000000000e+00  1.1000000000000e+00  0.0000000000000e+00 
     489  2.5000000000000e+00  1.4000000000000e+00  0.0000000000000e+00 
     490  2.1000000000000e+00  5.0000000000000e-01  0.0000000000000e+00 
     491  2.3000000000000e+00  8.0000000000000e-01  0.0000000000000e+00 
     492  2.5000000000000e+00  1.3000000000000e+00  0.0000000000000e+00 
     493  2.4000000000000e+00  1.0000000000000e+00  0.0000000000000e+00 
     494  2.6000000000000e+00  2.0000000000000e+00  0.0000000000000e+00 
     495  2.6000000000000e+00  1.9000000000000e+00  0.0000000000000e+00 
     496  2.6000000000000e+00  1.8000000000000e+00  0.0000000000000e+00 
     497  2.2000000000000e+00  6.0000000000000e-01  0.0000000000000e+00 
     498  2.6000000000000e+00  1.7000000000000e+00  0.0000000000000e+00 
     499  1.9000000000000e+00  2.0000000000000e-01  0.0000000000000e+00 
     500  1.8000000000000e+00  1.0000000000000e-01  0.0000000000000e+00 
     501  2.0000000000000e+00  3.0000000000000e-01  0.0000000000000e+00 
     502  1.7000000000000e+00  0.0000000000000e+00  0.0000000000000e+00 
     503  2.5000000000000e+00  1.2000000000000e+00  0.0000000000000e+00 
     504  2.6000000000000e+00  1.6000000000000e+00  0.0000000000000e+00 
     505  2.4000000000000e+00  9.0000000000000e-01  0.0000000000000e+00 
     506  2.1000000000000e+00  4.0000000000000e-01  0.0000000000000e+00 
     507  2.3000000000000e+00  7.0000000000000e-01  0.0000000000000e+00 
     508  2.6000000000000e+00  1.5000000000000e+00  0.0000000000000e+00 
     509  2.5000000000000e+00  1.1000000000000e+00  0.0000000000000e+00 
     510  2.2000000000000e+00  5.0000000000000e-01  0.0000000000000e+00 
     511  2.6000000000000e+00  1.4000000000000e+00  0.0000000000000e+00 
     512  2.4000000000000e+00  8.0000000000000e-01  0.0000000000000e+00 
     513  1.9000000000000e+00  1.0000000000000e-01  0.0000000000000e+00 
     514  2.0000000000000e+00  2.0000000000000e-01  0.0000000000000e+00 
     515  1.8000000000000e+00  0.0000000000000e+00  0.0000000000000e+00 
     516  2.6000000000000e+00  1.3000000000000e+00  0.0000000000000e+00 
     517  2.3000000000000e+00  6.0000000000000e-01  0.0000000000000e+00 
     518  2.5000000000000e+00  1.0000000000000e+00  0.0000000000000e+00 
     519  2.7000000000000e+00  2.0000000000000e+00  0.0000000000000e+00 
     520  2.1000000000000e+00  3.0000000000000e-01  0.0000000000000e+00 
     521  2.7000000000000e+00  1.9000000000000e+00  0.0000000000000e+00 
     522  2.7000000000000e+00  1.8000000000000e+00  0.0000000000000e+00 
     523  2.7000000000000e+00  1.7000000000000e+00  0.0000000000000e+00 
     524  2.6000000000000e+00  1.2000000000000e+00  0.0000000000000e+00 
     525  2.2000000000000e+00  4.0000000000000e-01  0.0000000000000e+00 
     526  2.4000000000000e+00  7.0000000000000e-01  0.0000000000000e+00 
     527  2.7000000000000e+00  1.6000000000000e+00  0.0000000000000e+00 
     528  2.5000000000000e+00  9.0000000000000e-01  0.0000000000000e+00 
     529  2.3000000000000e+00  5.0000000000000e-01  0.0000000000000e+00 
     530  2.7000000000000e+00  1.5000000000000e+00  0.0000000000000e+00 
     531  2.6000000000000e+00  1.1000000000000e+00  0.0000000000000e+00 
     532  2.0000000000000e+00  1.0000000000000e-01  0.0000000000000e+00 
     533  1.9000000000000e+00  0.0000000000000e+00  0.0000000000000e+00 
     534  2.7000000000000e+00  1.4000000000000e+00  0.0000000000000e+00 
     535  2.1000000000000e+00  2.0000000000000e-01  0.0000000000000e+00 
     536  2.5000000000000e+00  8.0000000000000e-01  0.0000000000000e+00 
     537  2.4000000000000e+00  6.0000000000000e-01  0.0000000000000e+00 
     538  2.2000000000000e+00  3.0000000000000e-01  0.0000000000000e+00 
     539  2.6000000000000e+00  1.0000000000000e+00  0.0000000000000e+00 
     540  2.7000000000000e+00  1.3000000000000e+00  0.0000000000000e+00 
     541  2.8000000000000e+00  2.0000000000000e+00  0.0000000000000e+00 
     542  2.3000000000000e+00  4.0000000000000e-01  0.0000000000000e+00 
     543  2.8000000000000e+00  1.9000000000000e+00  0.0000000000000e+00 
     544  2.8000000000000e+00  1.8000000000000e+00  0.0000000000000e+00 
     545  2.8000000000000e+00  1.7000000000000e+00  0.0000000000000e+00 
     546  2.7000000000000e+00  1.2000000000000e+00  0.0000000000000e+00 
     547  2.5000000000000e+00  7.0000000000000e-01  0.0000000000000e+00 
     548  2.6000000000000e+00  9.0000000000000e-01  0.0000000000000e+00 
     549  2.8000000000000e+00  1.6000000000000e+00  0.0000000000000e+00 
     550  2.0000000000000e+00  0.0000000000000e+00  0.0000000000000e+00 
     551  2.4000000000000e+00  5.0000000000000e-01  0.0000000000000e+00 
     552  2.1000000000000e+00  1.0000000000000e-01  0.0000000000000e+00 
     553  2.2000000000000e+00  2.0000000000000e-01  0.0000000000000e+00 
     554  2.8000000000000e+00  1.5000000000000e+00  0.0000000000000e+00 
     555  2.7000000000000e+00  1.1000000000000e+00  0.0000000000000e+00 
     556  2.3000000000000e+00  3.0000000000000e-01  0.0000000000000e+00 
     557  2.6000000000000e+00  8.0000000000000e-01  0.0000000000000e+00 
     558  2.8000000000000e+00  1.4000000000000e+00  0.0000000000000e+00 
     559  2.5000000000000e+00  6.0000000000000e-01  0.0000000000000e+00 
     560  2.7000000000000e+00  1.0000000000000e+00  0.0000000000000e+00 
     561  2.4000000000000e+00  4.0000000000000e-01  0.0000000000000e+00 
     562  2.8000000000000e+00  1.3000000000000e+00  0.0000000000000e+00 
     563  2.9000000000000e+00  2.0000000000000e+00  0.0000000000000e+00 
     564  2.1000000000000e+00  0.0000000000000e+00  0.0000000000000e+00 
     565  2.9000000000000e+00  1.9000000000000e+00  0.0000000000000e+00 
     566  2.6000000000000e+00  7.0000000000000e-01  0.0000000000000e+00 
     567  2.9000000000000e+00  1.8000000000000e+00  0.0000000000000e+00 
     568  2.2000000000000e+00  1.0000000000000e-01  0.0000000000000e+00 
     569  2.8000000000000e+00  1.2000000000000e+00  0.0000000000000e+00 
     570  2.9000000000000e+00  1.7000000000000e+00  0.0000000000000e+00 
     571  2.5000000000000e+00  5.0000000000000e-01  0.0000000000000e+00 
     572  2.7000000000000e+00  9.0000000000000e-01  0.0000000000000e+00 
     573  2.3000000000000e+00  2.0000000000000e-01  0.0000000000000e+00 
     574  2.9000000000000e+00  1.6000000000000e+00  0.0000000000000e+00 
     575  2.8000000000000e+00  1.1000000000000e+00  0.0000000000000e+00 
     576  2.4000000000000e+00  3.0000000000000e-01  0.0000000000000e+00 
     577  2.9000000000000e+00  1.5000000000000e+00  0.0000000000000e+00 
     578  2.6000000000000e+00  6.0000000000000e-01  0.0000000000000e+00 
     579  2.7000000000000e+00  8.0000000000000e-01  0.0000000000000e+00 
     580  2.9000000000000e+00  1.4000000000000e+00  0.0000000000000e+00 
     581  2.5000000000000e+00  4.0000000000000e-01  0.0000000000000e+00 
     582  2.8000000000000e+00  1.0000000000000e+00  0.0000000000000e+00 
     583  2.2000000000000e+00  0.0000000000000e+00  0.0000000000000e+00 
     584  2.3000000000000e+00  1.0000000000000e-01  0.0000000000000e+00 
     585  2.9000000000000e+00  1.3000000000000e+00  0.0000000000000e+00 
     586  2.7000000000000e+00  7.0000000000000e-01  0.0000000000000e+00 
     587  3.0000000000000e+00  2.0000000000000e+00  0.0000000000000e+00 
     588  2.4000000000000e+00  2.0000000000000e-01  0.0000000000000e+00 
     589  2.6000000000000e+00  5.0000000000000e-01  0.0000000000000e+00 
     590  3.0000000000000e+00  1.9000000000000e+00  0.0000000000000e+00 
     591  3.0000000000000e+00  1.8000000000000e+00  0.0000000000000e+00 
     592  2.9000000000000e+00  1.2000000000000e+00  0.0000000000000e+00 
     593  2.8000000000000e+00  9.0000000000000e-01  0.0000000000000e+00 
     594  3.0000000000000e+00  1.7000000000000e+00  0.0000000000000e+00 
     595  2.5000000000000e+00  3.0000000000000e-01  0.0000000000000e+00 
     596  3.0000000000000e+00  1.6000000000000e+00  0.0000000000000e+00 
     597  2.9000000000000e+00  1.1000000000000e+00  0.0000000000000e+00 
     598  3.0000000000000e+00  1.5000000000000e+00  0.0000000000000e+00 
     599  2.7000000000000e+00  6.0000000000000e-01  0.0000000000000e+00 
     600  2.8000000000000e+00  8.0000000000000e-01  0.0000000000000e+00 
     601  2.3000000000000e+00  0.0000000000000e+00  0.0000000000000e+00 
     602  2.6000000000000e+00  4.0000000000000e-01  0.0000000000000e+00 
     603  3.0000000000000e+00  1.4000000000000e+00  0.0000000000000e+00 
     604  2.4000000000000e+00  1.0000000000000e-01  0.0000000000000e+00 
     605  2.9000000000000e+00  1.0000000000000e+00  0.0000000000000e+00 
     606  3.0000000000000e+00  1.3000000000000e+00  0.0000000000000e+00 
     607  2.5000000000000e+00  2.0000000000000e-01  0.0000000000000e+00 
     608  2.8000000000000e+00  7.0000000000000e-01  0.0000000000000e+00 
     609  2.7000000000000e+00  5.0000000000000e-01  0.0000000000000e+00 
     610  2.9000000000000e+00  9.0000000000000e-01  0.0000000000000e+00 
     611  3.0000000000000e+00  1.2000000000000e+00  0.0000000000000e+00 
     612  2.6000000000000e+00  3.0000000000000e-01  0.0000000000000e+00 
     613  2.4000000000000e+00  0.0000000000000e+00  0.0000000000000e+00 
     614  2.8000000000000e+00  6.0000000000000e-01  0.0000000000000e+00 
     615  3.0000000000000e+00  1.1000000000000e+00  0.0000000000000e+00 
     616  2.9000000000000e+00  8.0000000000000e-01  0.0000000000000e+00 
     617  2.7000000000000e+00  4.0000000000000e-01  0.0000000000000e+00 
     618  2.5000000000000e+00  1.0000000000000e-01  0.0000000000000e+00 
     619  2.6000000000000e+00  2.0000000000000e-01  0.0000000000000e+00 
     620  3.0000000000000e+00  1.0000000000000e+00  0.0000000000000e+00 
     621  2.8000000000000e+00  5.0000000000000e-01  0.0000000000000e+00 
     622  2.9000000000000e+00  7.0000000000000e-01  0.0000000000000e+00 
     623  2.7000000000000e+00  3.0000000000000e-01  0.0000000000000e+00 
     624  3.0000000000000e+00  9.0000000000000e-01  0.0000000000000e+00 
     625  2.5000000000000e+00  0.0000000000000e+00  0.0000000000000e+00 
     626  2.6000000000000e+00  1.0000000000000e-01  0.0000000000000e+00 
     627  2.9000000000000e+00  6.0000000000000e-01  0.0000000000000e+00 
     628  2.8000000000000e+00  4.0000000000000e-01  0.0000000000000e+00 
     629  3.0000000000000e+00  8.0000000000000e-01  0.0000000000000e+00 
     630  2.7000000000000e+00  2.0000000000000e-01  0.0000000000000e+00 
     631  2.9000000000000e+00  5.0000000000000e-01  0.0000000000000e+00 
     632  3.0000000000000e+00  7.0000000000000e-01  0.0000000000000e+00 
     633  2.8000000000000e+00  3.0000000000000e-01  0.0000000000000e+00 
     634  2.6000000000000e+00  0.0000000000000e+00  0.0000000000000e+00 
     635  2.7000000000000e+00  1.0000000000000e-01  0.0000000000000e+00 
     636  3.0000000000000e+00  6.0000000000000e-01  0.0000000000000e+00 
     637  2.9000000000000e+00  4.0000000000000e-01  0.0000000000000e+00 
     638  2.8000000000000e+00  2.0000000000000e-01  0.0000000000000e+00 
     639  3.0000000000000e+00  5.0000000000000e-01  0.0000000000000e+00 
     640  2.7000000000000e+00  0.0000000000000e+00  0.0000000000000e+00 
     641  2.9000000000000e+00  3.0000000000000e-01  0.0000000000000e+00 
     642  2.8000000000000e+00  1.0000000000000e-01  0.0000000000000e+00 
     643  3.0000000000000e+00  4.0000000000000e-01  0.0000000000000e+00 
     644  2.9000000000000e+00  2.0000000000000e-01  0.0000000000000e+00 
     645  2.8000000000000e+00  0.0000000000000e+00  0.0000000000000e+00 
     646  3.0000000000000e+00  3.0000000000000e-01  0.0000000000000e+00 
     647  2.9000000000000e+00  1.0000000000000e-01  0.0000000000000e+00 
     648  3.0000000000000e+00  2.0000000000000e-01  0.0000000000000e+00 
     649  2.9000000000000e+00  0.0000000000000e+00  0.0000000000000e+00 
     650  3.0000000000000e+00  1.0000000000000e-01  0.0000000000000e+00 
     651  3.0000000000000e+00  0.0000000000000e+00  0.0000000000000e+00 


[1D Elements]
#ElemNr  ElemType  NrOfNodes  Level
#Node1 Node2 ... NodeNrOfNodes

[2D Elements]
#ElemNr  ElemType  NrOfNodes  Level
#Node1 Node2 ... NodeNrOfNodes
1 6 4 mech
337 303 301 332
2 6 4 mech
339 306 303 337
3 6 4 mech
343 312 306 339
4 6 4 mech
349 319 312 343
5 6 4 mech
355 321 319 349
6 6 4 mech
363 330 321 355
7 6 4 mech
372 344 330 363
8 6 4 mech
383 356 344 372
9 6 4 mech
389 365 356 383
10 6 4 mech
403 381 365 389
11 6 4 mech
416 392 381 403
12 6 4 mech
428 407 392 416
13 6 4 mech
442 421 407 428
14 6 4 mech
458 436 421 442
15 6 4 mech
469 453 436 458
16 6 4 mech
303 276 271 301
17 6 4 mech
306 278 276 303
18 6 4 mech
312 280 278 306
19 6 4 mech
319 288 280 312
20 6 4 mech
321 293 288 319
21 6 4 mech
330 299 293 321
22 6 4 mech
344 315 299 330
23 6 4 mech
356 323 315 344
24 6 4 mech
365 340 323 356
25 6 4 mech
381 353 340 365
26 6 4 mech
392 368 353 381
27 6 4 mech
407 386 368 392
28 6 4 mech
421 400 386 407
29 6 4 mech
436 413 400 421
30 6 4 mech
453 433 413 436
31 6 4 mech
276 244 240 271
32 6 4 mech
278 251 244 276
33 6 4 mech
280 255 251 278
34 6 4 mech
288 257 255 280
35 6 4 mech
293 265 257 288
36 6 4 mech
299 273 265 293
37 6 4 mech
315 284 273 299
38 6 4 mech
323 296 284 315
39 6 4 mech
340 313 296 323
40 6 4 mech
353 326 313 340
41 6 4 mech
368 345 326 353
42 6 4 mech
386 361 345 368
43 6 4 mech
400 379 361 386
44 6 4 mech
413 396 379 400
45 6 4 mech
433 412 396 413
46 6 4 mech
244 217 215 240
47 6 4 mech
251 221 217 244
48 6 4 mech
255 225 221 251
49 6 4 mech
257 231 225 255
50 6 4 mech
265 237 231 257
51 6 4 mech
273 248 237 265
52 6 4 mech
284 258 248 273
53 6 4 mech
296 268 258 284
54 6 4 mech
313 282 268 296
55 6 4 mech
326 297 282 313
56 6 4 mech
345 317 297 326
57 6 4 mech
361 334 317 345
58 6 4 mech
379 358 334 361
59 6 4 mech
396 375 358 379
60 6 4 mech
412 390 375 396
61 6 4 mech
217 194 192 215
62 6 4 mech
221 197 194 217
63 6 4 mech
225 203 197 221
64 6 4 mech
231 205 203 225
65 6 4 mech
237 213 205 231
66 6 4 mech
248 224 213 237
67 6 4 mech
258 234 224 248
68 6 4 mech
268 242 234 258
69 6 4 mech
282 261 242 268
70 6 4 mech
297 274 261 282
71 6 4 mech
317 292 274 297
72 6 4 mech
334 310 292 317
73 6 4 mech
358 329 310 334
74 6 4 mech
375 351 329 358
75 6 4 mech
390 373 351 375
76 6 4 mech
194 169 167 192
77 6 4 mech
197 173 169 194
78 6 4 mech
203 177 173 197
79 6 4 mech
205 182 177 203
80 6 4 mech
213 186 182 205
81 6 4 mech
224 198 186 213
82 6 4 mech
234 209 198 224
83 6 4 mech
242 220 209 234
84 6 4 mech
261 236 220 242
85 6 4 mech
274 252 236 261
86 6 4 mech
292 266 252 274
87 6 4 mech
310 289 266 292
88 6 4 mech
329 307 289 310
89 6 4 mech
351 327 307 329
90 6 4 mech
373 350 327 351
91 6 4 mech
169 148 145 167
92 6 4 mech
173 151 148 169
93 6 4 mech
177 154 151 173
94 6 4 mech
182 161 154 177
95 6 4 mech
186 166 161 182
96 6 4 mech
198 179 166 186
97 6 4 mech
209 185 179 198
98 6 4 mech
220 201 185 209
99 6 4 mech
236 214 201 220
100 6 4 mech
252 229 214 236
101 6 4 mech
266 247 229 252
102 6 4 mech
289 262 247 266
103 6 4 mech
307 286 262 289
104 6 4 mech
327 305 286 307
105 6 4 mech
350 328 305 327
106 6 4 mech
148 124 122 145
107 6 4 mech
151 131 124 148
108 6 4 mech
154 135 131 151
109 6 4 mech
161 139 135 154
110 6 4 mech
166 143 139 161
111 6 4 mech
179 155 143 166
112 6 4 mech
185 163 155 179
113 6 4 mech
201 181 163 185
114 6 4 mech
214 190 181 201
115 6 4 mech
229 207 190 214
116 6 4 mech
247 226 207 229
117 6 4 mech
262 239 226 247
118 6 4 mech
286 263 239 262
119 6 4 mech
305 287 263 286
120 6 4 mech
328 309 287 305
121 6 4 mech
124 107 105 122
122 6 4 mech
131 109 107 124
123 6 4 mech
135 116 109 131
124 6 4 mech
139 121 116 135
125 6 4 mech
143 128 121 139
126 6 4 mech
155 136 128 143
127 6 4 mech
163 147 136 155
128 6 4 mech
181 160 147 163
129 6 4 mech
190 174 160 181
130 6 4 mech
207 188 174 190
131 6 4 mech
226 206 188 207
132 6 4 mech
239 227 206 226
133 6 4 mech
263 246 227 239
134 6 4 mech
287 267 246 263
135 6 4 mech
309 291 267 287
136 6 4 mech
107 92 87 105
137 6 4 mech
109 94 92 107
138 6 4 mech
116 98 94 109
139 6 4 mech
121 102 98 116
140 6 4 mech
128 111 102 121
141 6 4 mech
136 118 111 128
142 6 4 mech
147 132 118 136
143 6 4 mech
160 141 132 147
144 6 4 mech
174 157 141 160
145 6 4 mech
188 172 157 174
146 6 4 mech
206 187 172 188
147 6 4 mech
227 208 187 206
148 6 4 mech
246 230 208 227
149 6 4 mech
267 253 230 246
150 6 4 mech
291 275 253 267
151 6 4 mech
298 283 260 275
152 6 4 mech
325 311 283 298
153 6 4 mech
352 341 311 325
154 6 4 mech
380 366 341 352
155 6 4 mech
404 388 366 380
156 6 4 mech
426 418 388 404
157 6 4 mech
450 440 418 426
158 6 4 mech
474 461 440 450
159 6 4 mech
493 488 461 474
160 6 4 mech
518 509 488 493
161 6 4 mech
539 531 509 518
162 6 4 mech
560 555 531 539
163 6 4 mech
582 575 555 560
164 6 4 mech
605 597 575 582
165 6 4 mech
620 615 597 605
166 6 4 mech
283 269 243 260
167 6 4 mech
311 295 269 283
168 6 4 mech
341 324 295 311
169 6 4 mech
366 357 324 341
170 6 4 mech
388 382 357 366
171 6 4 mech
418 408 382 388
172 6 4 mech
440 432 408 418
173 6 4 mech
461 456 432 440
174 6 4 mech
488 478 456 461
175 6 4 mech
509 503 478 488
176 6 4 mech
531 524 503 509
177 6 4 mech
555 546 524 531
178 6 4 mech
575 569 546 555
179 6 4 mech
597 592 569 575
180 6 4 mech
615 611 592 597
181 6 4 mech
269 259 233 243
182 6 4 mech
295 285 259 269
183 6 4 mech
324 316 285 295
184 6 4 mech
357 346 316 324
185 6 4 mech
382 371 346 357
186 6 4 mech
408 399 371 382
187 6 4 mech
432 424 399 408
188 6 4 mech
456 445 424 432
189 6 4 mech
478 471 445 456
190 6 4 mech
503 492 471 478
191 6 4 mech
524 516 492 503
192 6 4 mech
546 540 516 524
193 6 4 mech
569 562 540 546
194 6 4 mech
592 585 562 569
195 6 4 mech
611 606 585 592
196 6 4 mech
259 249 223 233
197 6 4 mech
285 272 249 259
198 6 4 mech
316 300 272 285
199 6 4 mech
346 331 300 316
200 6 4 mech
371 362 331 346
201 6 4 mech
399 387 362 371
202 6 4 mech
424 414 387 399
203 6 4 mech
445 439 414 424
204 6 4 mech
471 463 439 445
205 6 4 mech
492 489 463 471
206 6 4 mech
516 511 489 492
207 6 4 mech
540 534 511 516
208 6 4 mech
562 558 534 540
209 6 4 mech
585 580 558 562
210 6 4 mech
606 603 580 585
211 6 4 mech
249 238 212 223
212 6 4 mech
272 264 238 249
213 6 4 mech
300 294 264 272
214 6 4 mech
331 322 294 300
215 6 4 mech
362 354 322 331
216 6 4 mech
387 384 354 362
217 6 4 mech
414 409 384 387
218 6 4 mech
439 435 409 414
219 6 4 mech
463 459 435 439
220 6 4 mech
489 482 459 463
221 6 4 mech
511 508 482 489
222 6 4 mech
534 530 508 511
223 6 4 mech
558 554 530 534
224 6 4 mech
580 577 554 558
225 6 4 mech
603 598 577 580
226 6 4 mech
238 232 204 212
227 6 4 mech
264 256 232 238
228 6 4 mech
294 290 256 264
229 6 4 mech
322 318 290 294
230 6 4 mech
354 348 318 322
231 6 4 mech
384 377 348 354
232 6 4 mech
409 405 377 384
233 6 4 mech
435 429 405 409
234 6 4 mech
459 455 429 435
235 6 4 mech
482 479 455 459
236 6 4 mech
508 504 479 482
237 6 4 mech
530 527 504 508
238 6 4 mech
554 549 527 530
239 6 4 mech
577 574 549 554
240 6 4 mech
598 596 574 577
241 6 4 mech
232 228 202 204
242 6 4 mech
256 254 228 232
243 6 4 mech
290 281 254 256
244 6 4 mech
318 314 281 290
245 6 4 mech
348 342 314 318
246 6 4 mech
377 374 342 348
247 6 4 mech
405 401 374 377
248 6 4 mech
429 425 401 405
249 6 4 mech
455 451 425 429
250 6 4 mech
479 476 451 455
251 6 4 mech
504 498 476 479
252 6 4 mech
527 523 498 504
253 6 4 mech
549 545 523 527
254 6 4 mech
574 570 545 549
255 6 4 mech
596 594 570 574
256 6 4 mech
228 222 196 202
257 6 4 mech
254 250 222 228
258 6 4 mech
281 279 250 254
259 6 4 mech
314 308 279 281
260 6 4 mech
342 338 308 314
261 6 4 mech
374 369 338 342
262 6 4 mech
401 398 369 374
263 6 4 mech
425 423 398 401
264 6 4 mech
451 447 423 425
265 6 4 mech
476 475 447 451
266 6 4 mech
498 496 475 476
267 6 4 mech
523 522 496 498
268 6 4 mech
545 544 522 523
269 6 4 mech
570 567 544 545
270 6 4 mech
594 591 567 570
271 6 4 mech
222 218 195 196
272 6 4 mech
250 245 218 222
273 6 4 mech
279 277 245 250
274 6 4 mech
308 304 277 279
275 6 4 mech
338 336 304 308
276 6 4 mech
369 367 336 338
277 6 4 mech
398 397 367 369
278 6 4 mech
423 420 397 398
279 6 4 mech
447 444 420 423
280 6 4 mech
475 472 444 447
281 6 4 mech
496 495 472 475
282 6 4 mech
522 521 495 496
283 6 4 mech
544 543 521 522
284 6 4 mech
567 565 543 544
285 6 4 mech
591 590 565 567
286 6 4 mech
218 216 191 195
287 6 4 mech
245 241 216 218
288 6 4 mech
277 270 241 245
289 6 4 mech
304 302 270 277
290 6 4 mech
336 333 302 304
291 6 4 mech
367 364 333 336
292 6 4 mech
397 394 364 367
293 6 4 mech
420 419 394 397
294 6 4 mech
444 443 419 420
295 6 4 mech
472 470 443 444
296 6 4 mech
495 494 470 472
297 6 4 mech
521 519 494 495
298 6 4 mech
543 541 519 521
299 6 4 mech
565 563 541 543
300 6 4 mech
590 587 563 565
301 6 4 mech
92 74 73 87
302 6 4 mech
94 76 74 92
303 6 4 mech
98 82 76 94
304 6 4 mech
102 85 82 98
305 6 4 mech
111 95 85 102
306 6 4 mech
118 103 95 111
307 6 4 mech
132 114 103 118
308 6 4 mech
141 126 114 132
309 6 4 mech
157 140 126 141
310 6 4 mech
172 158 140 157
311 6 4 mech
187 175 158 172
312 6 4 mech
208 193 175 187
313 6 4 mech
230 211 193 208
314 6 4 mech
253 235 211 230
315 6 4 mech
275 260 235 253
316 6 4 mech
74 61 58 73
317 6 4 mech
76 63 61 74
318 6 4 mech
82 66 63 76
319 6 4 mech
85 71 66 82
320 6 4 mech
95 80 71 85
321 6 4 mech
103 89 80 95
322 6 4 mech
114 99 89 103
323 6 4 mech
126 113 99 114
324 6 4 mech
140 125 113 126
325 6 4 mech
158 142 125 140
326 6 4 mech
175 162 142 158
327 6 4 mech
193 180 162 175
328 6 4 mech
211 200 180 193
329 6 4 mech
235 219 200 211
330 6 4 mech
260 243 219 235
331 6 4 mech
61 47 45 58
332 6 4 mech
63 51 47 61
333 6 4 mech
66 53 51 63
334 6 4 mech
71 60 53 66
335 6 4 mech
80 68 60 71
336 6 4 mech
89 77 68 80
337 6 4 mech
99 86 77 89
338 6 4 mech
113 100 86 99
339 6 4 mech
125 115 100 113
340 6 4 mech
142 133 115 125
341 6 4 mech
162 149 133 142
342 6 4 mech
180 164 149 162
343 6 4 mech
200 184 164 180
344 6 4 mech
219 210 184 200
345 6 4 mech
243 233 210 219
346 6 4 mech
47 36 35 45
347 6 4 mech
51 39 36 47
348 6 4 mech
53 42 39 51
349 6 4 mech
60 50 42 53
350 6 4 mech
68 55 50 60
351 6 4 mech
77 65 55 68
352 6 4 mech
86 78 65 77
353 6 4 mech
100 90 78 86
354 6 4 mech
115 104 90 100
355 6 4 mech
133 119 104 115
356 6 4 mech
149 137 119 133
357 6 4 mech
164 156 137 149
358 6 4 mech
184 178 156 164
359 6 4 mech
210 199 178 184
360 6 4 mech
233 223 199 210
361 6 4 mech
36 28 25 35
362 6 4 mech
39 29 28 36
363 6 4 mech
42 33 29 39
364 6 4 mech
50 41 33 42
365 6 4 mech
55 48 41 50
366 6 4 mech
65 56 48 55
367 6 4 mech
78 69 56 65
368 6 4 mech
90 81 69 78
369 6 4 mech
104 96 81 90
370 6 4 mech
119 112 96 104
371 6 4 mech
137 129 112 119
372 6 4 mech
156 144 129 137
373 6 4 mech
178 165 144 156
374 6 4 mech
199 189 165 178
375 6 4 mech
223 212 189 199
376 6 4 mech
28 18 16 25
377 6 4 mech
29 21 18 28
378 6 4 mech
33 23 21 29
379 6 4 mech
41 31 23 33
380 6 4 mech
48 40 31 41
381 6 4 mech
56 49 40 48
382 6 4 mech
69 59 49 56
383 6 4 mech
81 70 59 69
384 6 4 mech
96 84 70 81
385 6 4 mech
112 101 84 96
386 6 4 mech
129 120 101 112
387 6 4 mech
144 138 120 129
388 6 4 mech
165 159 138 144
389 6 4 mech
189 183 159 165
390 6 4 mech
212 204 183 189
391 6 4 mech
18 12 11 16
392 6 4 mech
21 15 12 18
393 6 4 mech
23 20 15 21
394 6 4 mech
31 26 20 23
395 6 4 mech
40 32 26 31
396 6 4 mech
49 43 32 40
397 6 4 mech
59 54 43 49
398 6 4 mech
70 67 54 59
399 6 4 mech
84 83 67 70
400 6 4 mech
101 97 83 84
401 6 4 mech
120 117 97 101
402 6 4 mech
138 134 117 120
403 6 4 mech
159 153 134 138
404 6 4 mech
183 176 153 159
405 6 4 mech
204 202 176 183
406 6 4 mech
12 8 6 11
407 6 4 mech
15 9 8 12
408 6 4 mech
20 14 9 15
409 6 4 mech
26 22 14 20
410 6 4 mech
32 30 22 26
411 6 4 mech
43 38 30 32
412 6 4 mech
54 52 38 43
413 6 4 mech
67 64 52 54
414 6 4 mech
83 79 64 67
415 6 4 mech
97 93 79 83
416 6 4 mech
117 110 93 97
417 6 4 mech
134 130 110 117
418 6 4 mech
153 152 130 134
419 6 4 mech
176 171 152 153
420 6 4 mech
202 196 171 176
421 6 4 mech
8 4 3 6
422 6 4 mech
9 7 4 8
423 6 4 mech
14 13 7 9
424 6 4 mech
22 19 13 14
425 6 4 mech
30 27 19 22
426 6 4 mech
38 37 27 30
427 6 4 mech
52 46 37 38
428 6 4 mech
64 62 46 52
429 6 4 mech
79 75 62 64
430 6 4 mech
93 91 75 79
431 6 4 mech
110 108 91 93
432 6 4 mech
130 127 108 110
433 6 4 mech
152 150 127 130
434 6 4 mech
171 170 150 152
435 6 4 mech
196 195 170 171
436 6 4 mech
4 2 1 3
437 6 4 mech
7 5 2 4
438 6 4 mech
13 10 5 7
439 6 4 mech
19 17 10 13
440 6 4 mech
27 24 17 19
441 6 4 mech
37 34 24 27
442 6 4 mech
46 44 34 37
443 6 4 mech
62 57 44 46
444 6 4 mech
75 72 57 62
445 6 4 mech
91 88 72 75
446 6 4 mech
108 106 88 91
447 6 4 mech
127 123 106 108
448 6 4 mech
150 146 123 127
449 6 4 mech
170 168 146 150
450 6 4 mech
195 191 168 170
451 6 4 mech
487 466 453 469
452 6 4 mech
502 483 466 487
453 6 4 mech
515 500 483 502
454 6 4 mech
533 513 500 515
455 6 4 mech
550 532 513 533
456 6 4 mech
564 552 532 550
457 6 4 mech
583 568 552 564
458 6 4 mech
601 584 568 583
459 6 4 mech
613 604 584 601
460 6 4 mech
625 618 604 613
461 6 4 mech
634 626 618 625
462 6 4 mech
640 635 626 634
463 6 4 mech
645 642 635 640
464 6 4 mech
649 647 642 645
465 6 4 mech
651 650 647 649
466 6 4 mech
466 448 433 453
467 6 4 mech
483 464 448 466
468 6 4 mech
500 480 464 483
469 6 4 mech
513 499 480 500
470 6 4 mech
532 514 499 513
471 6 4 mech
552 535 514 532
472 6 4 mech
568 553 535 552
473 6 4 mech
584 573 553 568
474 6 4 mech
604 588 573 584
475 6 4 mech
618 607 588 604
476 6 4 mech
626 619 607 618
477 6 4 mech
635 630 619 626
478 6 4 mech
642 638 630 635
479 6 4 mech
647 644 638 642
480 6 4 mech
650 648 644 647
481 6 4 mech
448 431 412 433
482 6 4 mech
464 446 431 448
483 6 4 mech
480 465 446 464
484 6 4 mech
499 484 465 480
485 6 4 mech
514 501 484 499
486 6 4 mech
535 520 501 514
487 6 4 mech
553 538 520 535
488 6 4 mech
573 556 538 553
489 6 4 mech
588 576 556 573
490 6 4 mech
607 595 576 588
491 6 4 mech
619 612 595 607
492 6 4 mech
630 623 612 619
493 6 4 mech
638 633 623 630
494 6 4 mech
644 641 633 638
495 6 4 mech
648 646 641 644
496 6 4 mech
431 410 390 412
497 6 4 mech
446 430 410 431
498 6 4 mech
465 449 430 446
499 6 4 mech
484 467 449 465
500 6 4 mech
501 486 467 484
501 6 4 mech
520 506 486 501
502 6 4 mech
538 525 506 520
503 6 4 mech
556 542 525 538
504 6 4 mech
576 561 542 556
505 6 4 mech
595 581 561 576
506 6 4 mech
612 602 581 595
507 6 4 mech
623 617 602 612
508 6 4 mech
633 628 617 623
509 6 4 mech
641 637 628 633
510 6 4 mech
646 643 637 641
511 6 4 mech
410 391 373 390
512 6 4 mech
430 411 391 410
513 6 4 mech
449 434 411 430
514 6 4 mech
467 454 434 449
515 6 4 mech
486 468 454 467
516 6 4 mech
506 490 468 486
517 6 4 mech
525 510 490 506
518 6 4 mech
542 529 510 525
519 6 4 mech
561 551 529 542
520 6 4 mech
581 571 551 561
521 6 4 mech
602 589 571 581
522 6 4 mech
617 609 589 602
523 6 4 mech
628 621 609 617
524 6 4 mech
637 631 621 628
525 6 4 mech
643 639 631 637
526 6 4 mech
391 376 350 373
527 6 4 mech
411 395 376 391
528 6 4 mech
434 415 395 411
529 6 4 mech
454 437 415 434
530 6 4 mech
468 457 437 454
531 6 4 mech
490 477 457 468
532 6 4 mech
510 497 477 490
533 6 4 mech
529 517 497 510
534 6 4 mech
551 537 517 529
535 6 4 mech
571 559 537 551
536 6 4 mech
589 578 559 571
537 6 4 mech
609 599 578 589
538 6 4 mech
621 614 599 609
539 6 4 mech
631 627 614 621
540 6 4 mech
639 636 627 631
541 6 4 mech
376 359 328 350
542 6 4 mech
395 378 359 376
543 6 4 mech
415 402 378 395
544 6 4 mech
437 422 402 415
545 6 4 mech
457 441 422 437
546 6 4 mech
477 462 441 457
547 6 4 mech
497 485 462 477
548 6 4 mech
517 507 485 497
549 6 4 mech
537 526 507 517
550 6 4 mech
559 547 526 537
551 6 4 mech
578 566 547 559
552 6 4 mech
599 586 566 578
553 6 4 mech
614 608 586 599
554 6 4 mech
627 622 608 614
555 6 4 mech
636 632 622 627
556 6 4 mech
359 335 309 328
557 6 4 mech
378 360 335 359
558 6 4 mech
402 385 360 378
559 6 4 mech
422 406 385 402
560 6 4 mech
441 427 406 422
561 6 4 mech
462 452 427 441
562 6 4 mech
485 473 452 462
563 6 4 mech
507 491 473 485
564 6 4 mech
526 512 491 507
565 6 4 mech
547 536 512 526
566 6 4 mech
566 557 536 547
567 6 4 mech
586 579 557 566
568 6 4 mech
608 600 579 586
569 6 4 mech
622 616 600 608
570 6 4 mech
632 629 616 622
571 6 4 mech
335 320 291 309
572 6 4 mech
360 347 320 335
573 6 4 mech
385 370 347 360
574 6 4 mech
406 393 370 385
575 6 4 mech
427 417 393 406
576 6 4 mech
452 438 417 427
577 6 4 mech
473 460 438 452
578 6 4 mech
491 481 460 473
579 6 4 mech
512 505 481 491
580 6 4 mech
536 528 505 512
581 6 4 mech
557 548 528 536
582 6 4 mech
579 572 548 557
583 6 4 mech
600 593 572 579
584 6 4 mech
616 610 593 600
585 6 4 mech
629 624 610 616
586 6 4 mech
320 298 275 291
587 6 4 mech
347 325 298 320
588 6 4 mech
370 352 325 347
589 6 4 mech
393 380 352 370
590 6 4 mech
417 404 380 393
591 6 4 mech
438 426 404 417
592 6 4 mech
460 450 426 438
593 6 4 mech
481 474 450 460
594 6 4 mech
505 493 474 481
595 6 4 mech
528 518 493 505
596 6 4 mech
548 539 518 528
597 6 4 mech
572 560 539 548
598 6 4 mech
593 582 560 572
599 6 4 mech
610 605 582 593
600 6 4 mech
624 620 605 610


[3D Elements]
#ElemNr  ElemType  NrOfNodes  Level
#Node1 Node2 ... NodeNrOfNodes

[Node BC]
#NodeNr Level
651 load
1 support
105 support
11 support
122 support
145 support
16 support
167 support
192 support
215 support
240 support
25 support
271 support
3 support
301 support
332 support
35 support
45 support
58 support
6 support
73 support
87 support
87 support

[Save Nodes]
#NodeNr Level


[Save Elements]
#ElemNr Level

